PARALELOSERIAL1/000paraleloserial1.vcd
$date
	Fri May 28 22:14:55 2021
$end
$version
	Icarus Verilog
$end
$timescale
	1s
$end
$scope module BUF $end
$var wire 1 ! A $end
$var wire 1 " Y $end
$upscope $end
$scope module DFFSR $end
$var wire 1 # C $end
$var wire 1 $ D $end
$var wire 1 % R $end
$var wire 1 & S $end
$var reg 1 ' Q $end
$upscope $end
$scope module testbench $end
$var wire 1 ( valid_000 $end
$var wire 1 ) reset $end
$var wire 1 * data_out_synt $end
$var wire 1 + data_out $end
$var wire 8 , data_000 [7:0] $end
$var wire 1 - clk_4f $end
$var wire 1 . clk_32f $end
$scope module PROB $end
$var wire 1 * data_out_synt $end
$var wire 1 + data_out $end
$var reg 1 . clk_32f $end
$var reg 1 - clk_4f $end
$var reg 8 / data_000 [7:0] $end
$var reg 1 ) reset $end
$var reg 1 ( valid_000 $end
$upscope $end
$scope module PS1_COND $end
$var wire 1 . clk_32f $end
$var wire 1 - clk_4f $end
$var wire 8 0 data_000 [7:0] $end
$var wire 1 ) reset $end
$var wire 1 ( valid_000 $end
$var reg 3 1 counter [2:0] $end
$var reg 8 2 data2send [7:0] $end
$var reg 1 + data_out $end
$var reg 1 3 reset_s $end
$upscope $end
$scope module PS1_SYNT $end
$var wire 1 . clk_32f $end
$var wire 1 - clk_4f $end
$var wire 8 4 data_000 [7:0] $end
$var wire 1 ) reset $end
$var wire 1 ( valid_000 $end
$var wire 1 5 reset_s $end
$var wire 1 * data_out_synt $end
$var wire 3 6 counter [2:0] $end
$var wire 1 7 _41_ $end
$var wire 1 8 _40_ $end
$var wire 1 9 _39_ $end
$var wire 1 : _38_ $end
$var wire 1 ; _37_ $end
$var wire 1 < _36_ $end
$var wire 1 = _35_ $end
$var wire 1 > _34_ $end
$var wire 1 ? _33_ $end
$var wire 1 @ _32_ $end
$var wire 1 A _31_ $end
$var wire 1 B _30_ $end
$var wire 1 C _29_ $end
$var wire 1 D _28_ $end
$var wire 1 E _27_ $end
$var wire 1 F _26_ $end
$var wire 1 G _25_ $end
$var wire 1 H _24_ $end
$var wire 1 I _23_ $end
$var wire 1 J _22_ $end
$var wire 1 K _21_ $end
$var wire 1 L _20_ $end
$var wire 1 M _19_ $end
$var wire 1 N _18_ $end
$var wire 1 O _17_ $end
$var wire 1 P _16_ $end
$var wire 1 Q _15_ $end
$var wire 1 R _14_ $end
$var wire 1 S _13_ $end
$var wire 1 T _12_ $end
$var wire 1 U _11_ $end
$var wire 1 V _10_ $end
$var wire 1 W _09_ $end
$var wire 1 X _08_ $end
$var wire 1 Y _07_ $end
$var wire 1 Z _06_ $end
$var wire 1 [ _05_ $end
$var wire 1 \ _04_ $end
$var wire 1 ] _03_ $end
$var wire 1 ^ _02_ $end
$var wire 1 _ _01_ $end
$var wire 3 ` _00_ [2:0] $end
$scope module _42_ $end
$var wire 1 _ Y $end
$var wire 1 5 A $end
$upscope $end
$scope module _43_ $end
$var wire 1 a A $end
$var wire 1 ^ Y $end
$upscope $end
$scope module _44_ $end
$var wire 1 b A $end
$var wire 1 ] Y $end
$upscope $end
$scope module _45_ $end
$var wire 1 c A $end
$var wire 1 \ Y $end
$upscope $end
$scope module _46_ $end
$var wire 1 d A $end
$var wire 1 [ Y $end
$upscope $end
$scope module _47_ $end
$var wire 1 e A $end
$var wire 1 Z Y $end
$upscope $end
$scope module _48_ $end
$var wire 1 _ A $end
$var wire 1 f B $end
$var wire 1 g Y $end
$upscope $end
$scope module _49_ $end
$var wire 1 h A $end
$var wire 1 i B $end
$var wire 1 Y Y $end
$upscope $end
$scope module _50_ $end
$var wire 1 Y A $end
$var wire 1 X Y $end
$upscope $end
$scope module _51_ $end
$var wire 1 ^ A $end
$var wire 1 ] B $end
$var wire 1 W Y $end
$upscope $end
$scope module _52_ $end
$var wire 1 W B $end
$var wire 1 V Y $end
$var wire 1 5 A $end
$upscope $end
$scope module _53_ $end
$var wire 1 X A $end
$var wire 1 V B $end
$var wire 1 j Y $end
$upscope $end
$scope module _54_ $end
$var wire 1 \ A $end
$var wire 1 Y B $end
$var wire 1 U Y $end
$upscope $end
$scope module _55_ $end
$var wire 1 \ A $end
$var wire 1 Y B $end
$var wire 1 T Y $end
$upscope $end
$scope module _56_ $end
$var wire 1 T B $end
$var wire 1 S Y $end
$var wire 1 5 A $end
$upscope $end
$scope module _57_ $end
$var wire 1 U A $end
$var wire 1 S B $end
$var wire 1 k Y $end
$upscope $end
$scope module _58_ $end
$var wire 1 ( B $end
$var wire 1 R Y $end
$var wire 1 5 A $end
$upscope $end
$scope module _59_ $end
$var wire 1 R A $end
$var wire 1 Q Y $end
$upscope $end
$scope module _60_ $end
$var wire 1 l A $end
$var wire 1 R B $end
$var wire 1 P Y $end
$upscope $end
$scope module _61_ $end
$var wire 1 m A $end
$var wire 1 P B $end
$var wire 1 O Y $end
$upscope $end
$scope module _62_ $end
$var wire 1 n A $end
$var wire 1 R B $end
$var wire 1 N Y $end
$upscope $end
$scope module _63_ $end
$var wire 1 \ A $end
$var wire 1 N B $end
$var wire 1 M Y $end
$upscope $end
$scope module _64_ $end
$var wire 1 o A $end
$var wire 1 M B $end
$var wire 1 L Y $end
$upscope $end
$scope module _65_ $end
$var wire 1 O A $end
$var wire 1 L B $end
$var wire 1 K Y $end
$upscope $end
$scope module _66_ $end
$var wire 1 p A $end
$var wire 1 Q B $end
$var wire 1 J Y $end
$upscope $end
$scope module _67_ $end
$var wire 1 \ A $end
$var wire 1 q B $end
$var wire 1 I Y $end
$upscope $end
$scope module _68_ $end
$var wire 1 r A $end
$var wire 1 s B $end
$var wire 1 H Y $end
$upscope $end
$scope module _69_ $end
$var wire 1 I A $end
$var wire 1 H B $end
$var wire 1 G Y $end
$upscope $end
$scope module _70_ $end
$var wire 1 J A $end
$var wire 1 G B $end
$var wire 1 F Y $end
$upscope $end
$scope module _71_ $end
$var wire 1 ] A $end
$var wire 1 F B $end
$var wire 1 E Y $end
$upscope $end
$scope module _72_ $end
$var wire 1 K A $end
$var wire 1 E B $end
$var wire 1 D Y $end
$upscope $end
$scope module _73_ $end
$var wire 1 Z A $end
$var wire 1 R B $end
$var wire 1 C Y $end
$upscope $end
$scope module _74_ $end
$var wire 1 \ A $end
$var wire 1 C B $end
$var wire 1 B Y $end
$upscope $end
$scope module _75_ $end
$var wire 1 [ A $end
$var wire 1 P B $end
$var wire 1 A Y $end
$upscope $end
$scope module _76_ $end
$var wire 1 ^ A $end
$var wire 1 t B $end
$var wire 1 @ Y $end
$upscope $end
$scope module _77_ $end
$var wire 1 A A $end
$var wire 1 @ B $end
$var wire 1 ? Y $end
$upscope $end
$scope module _78_ $end
$var wire 1 B A $end
$var wire 1 ? B $end
$var wire 1 > Y $end
$upscope $end
$scope module _79_ $end
$var wire 1 u A $end
$var wire 1 R B $end
$var wire 1 = Y $end
$upscope $end
$scope module _80_ $end
$var wire 1 \ A $end
$var wire 1 = B $end
$var wire 1 < Y $end
$upscope $end
$scope module _81_ $end
$var wire 1 v A $end
$var wire 1 P B $end
$var wire 1 ; Y $end
$upscope $end
$scope module _82_ $end
$var wire 1 ; A $end
$var wire 1 : Y $end
$upscope $end
$scope module _83_ $end
$var wire 1 < A $end
$var wire 1 : B $end
$var wire 1 9 Y $end
$upscope $end
$scope module _84_ $end
$var wire 1 W A $end
$var wire 1 9 B $end
$var wire 1 8 Y $end
$upscope $end
$scope module _85_ $end
$var wire 1 > A $end
$var wire 1 8 B $end
$var wire 1 7 Y $end
$upscope $end
$scope module _86_ $end
$var wire 1 D A $end
$var wire 1 7 B $end
$var wire 1 * Y $end
$upscope $end
$scope module _87_ $end
$var wire 1 . C $end
$var wire 1 w D $end
$var reg 1 x Q $end
$upscope $end
$scope module _88_ $end
$var wire 1 . C $end
$var wire 1 y D $end
$var reg 1 z Q $end
$upscope $end
$scope module _89_ $end
$var wire 1 . C $end
$var wire 1 { D $end
$var reg 1 | Q $end
$upscope $end
$scope module _90_ $end
$var wire 1 - C $end
$var wire 1 ) D $end
$var reg 1 5 Q $end
$upscope $end
$upscope $end
$upscope $end
$enddefinitions $end
#0
$dumpvars
x|
x{
xz
xy
xx
xw
0v
0u
xt
0s
xr
0q
xp
xo
1n
0m
xl
xk
xj
xi
xh
xg
xf
0e
1d
xc
xb
xa
bx `
x_
x^
x]
x\
0[
1Z
xY
xX
xW
xV
xU
xT
xS
1R
0Q
0P
1O
0N
xM
xL
xK
1J
xI
xH
xG
0F
xE
xD
0C
xB
1A
x@
x?
x>
0=
x<
1;
0:
x9
x8
x7
bx 6
x5
b100100 4
x3
b10111100 2
bx 1
b100100 0
b100100 /
1.
0-
b100100 ,
x+
x*
0)
0(
x'
z&
z%
z$
z#
z"
z!
$end
#1
0.
#2
0+
b0 1
1.
#3
0.
#4
1.
#5
0.
#6
1.
#7
0.
#8
0{
0y
0k
0j
0w
b0 `
0g
1S
1V
1_
03
05
1.
1-
#9
0.
#10
0*
17
0K
08
0>
1D
1L
19
1?
0T
0G
0E
0X
0W
0U
0M
0I
0B
0<
0@
1Y
1H
1]
1^
1\
0t
0i
0f
0b
0p
0o
0h
0a
0r
0l
0c
0x
0z
b0 6
0|
1.
#11
0.
#12
1.
#13
0.
#14
1.
#15
0.
#16
1.
0-
#17
0.
#18
1.
#19
0.
#20
1.
#21
0.
#22
1.
#23
0.
#24
1w
b1 `
1g
0_
15
13
1[
0d
0n
1q
1v
1.
1-
b10000001 ,
b10000001 /
b10000001 0
b10000001 4
1)
#25
0.
#26
1y
1j
0V
0w
1W
1E
b10 `
0g
0]
1t
1i
1f
1b
b1 6
1x
b1 1
1.
#27
0.
#28
1*
07
1>
0?
1K
1@
1w
0E
0L
b11 `
1g
0^
1]
1p
1o
1h
1a
0t
0i
0f
0b
1z
b10 6
0x
1+
b10 1
1.
#29
0.
#30
1{
17
1k
0>
0y
0S
0j
0D
1?
1T
1X
0w
1E
0@
0Y
b100 `
0g
0]
1t
1i
1f
1b
b11 6
1x
b11 1
1.
#31
0.
#32
07
18
1*
0y
09
0j
1V
1D
1G
1K
1?
1M
1B
1<
0X
1w
0W
0E
0H
0L
0@
1Y
b101 `
1g
0\
1^
1]
1r
1l
1c
0p
0o
0h
0a
0t
0i
0f
0b
1|
0z
b100 6
0x
b100 1
1.
0-
#33
0.
#34
1y
1j
17
0V
08
0D
0w
1W
1E
b110 `
0g
0]
1t
1i
1f
1b
b101 6
1x
b101 1
1.
#35
0.
#36
0*
0?
1D
1@
1w
0E
b111 `
1g
0^
1]
1p
1o
1h
1a
0t
0i
0f
0b
1z
b110 6
0x
0+
b110 1
1.
#37
0.
#38
0{
1*
0y
0k
0j
0D
1?
1U
1X
0w
1E
0@
0Y
b0 `
0g
0]
1t
1i
1f
1b
b111 6
1x
1+
b111 1
1.
#39
0.
#40
0K
17
0*
0{
0y
0k
1S
1L
0>
19
0j
1V
08
1D
1?
0U
0T
0M
0B
0<
0X
1w
0W
0E
0@
1Y
b1 `
1g
1\
1^
1]
0r
0l
0c
0p
0o
0h
0a
0t
0i
0f
0b
0|
0z
b0 6
0x
1G
0I
0+
b0 1
0q
1s
1.
1-
b1001 ,
b1001 /
b1001 0
b1001 4
#41
0.
#42
1y
1j
0V
0w
1W
1E
b10 `
0g
0]
1t
1i
1f
1b
b1 6
1x
b1 1
1.
#43
0.
#44
1*
07
1>
0?
1K
1@
1w
0E
0L
b11 `
1g
0^
1]
1p
1o
1h
1a
0t
0i
0f
0b
1z
b10 6
0x
1+
b10 1
1.
#45
0.
#46
1{
17
1k
0>
0y
0S
0j
0D
1?
1T
1X
0w
1E
0@
0Y
b100 `
0g
0]
1t
1i
1f
1b
b11 6
1x
b11 1
1.
#47
0.
#48
07
18
1*
0y
0G
09
0j
1V
1D
1K
1?
1M
1I
1B
1<
0X
1w
0W
0E
0L
0@
1Y
b101 `
1g
0\
1^
1]
1r
1l
1c
0p
0o
0h
0a
0t
0i
0f
0b
1|
0z
b100 6
0x
b100 1
1.
0-
#49
0.
#50
1y
1j
17
0V
08
0D
0w
1W
1E
b110 `
0g
0]
1t
1i
1f
1b
b101 6
1x
b101 1
1.
#51
0.
#52
0*
0?
1D
1@
1w
0E
b111 `
1g
0^
1]
1p
1o
1h
1a
0t
0i
0f
0b
1z
b110 6
0x
0+
b110 1
1.
#53
0.
#54
0{
1*
0y
0k
0j
0D
1?
1U
1X
0w
1E
0@
0Y
b0 `
0g
0]
1t
1i
1f
1b
b111 6
1x
1+
b111 1
1.
#55
0.
#56
0K
17
0*
0{
0y
0k
1S
1L
0>
19
0j
1V
08
1D
1?
0U
0T
0M
0I
0B
0<
0X
1w
0W
0E
1H
0@
1Y
b1 `
1g
1\
1^
1]
0r
0l
0c
0p
0o
0h
0a
0t
0i
0f
0b
0|
0z
b0 6
0x
0+
0Z
b0 1
1e
1m
1n
0s
1.
1-
b1100011 ,
b1100011 /
b1100011 0
b1100011 4
#57
0.
#58
1y
1j
0V
0w
1W
1E
b10 `
0g
0]
1t
1i
1f
1b
b1 6
1x
b1 1
1.
#59
0.
#60
1*
07
1>
0?
1K
1@
1w
0E
0L
b11 `
1g
0^
1]
1p
1o
1h
1a
0t
0i
0f
0b
1z
b10 6
0x
1+
b10 1
1.
#61
0.
#62
1{
17
1k
0>
0y
0S
0j
0D
1?
1T
1X
0w
1E
0@
0Y
b100 `
0g
0]
1t
1i
1f
1b
b11 6
1x
b11 1
1.
#63
0.
#64
07
18
1*
0y
09
0j
1V
1D
1K
1?
1M
1I
1B
1<
0X
1w
0W
0E
0H
0L
0@
1Y
b101 `
1g
0\
1^
1]
1r
1l
1c
0p
0o
0h
0a
0t
0i
0f
0b
1|
0z
b100 6
0x
b100 1
1.
0-
#65
0.
#66
1y
1j
17
0V
08
0D
0w
1W
1E
b110 `
0g
0]
1t
1i
1f
1b
b101 6
1x
b101 1
1.
#67
0.
#68
0*
0?
1D
1@
1w
0E
b111 `
1g
0^
1]
1p
1o
1h
1a
0t
0i
0f
0b
1z
b110 6
0x
0+
b110 1
1.
#69
0.
#70
0{
1*
0y
0k
0j
0D
1?
1U
1X
0w
1E
0@
0Y
b0 `
0g
0]
1t
1i
1f
1b
b111 6
1x
1+
b111 1
1.
#71
0.
#72
0K
17
0*
0{
0y
0k
1S
1L
1G
0>
19
0j
1V
08
1D
1?
0U
0T
0M
0I
0B
0<
0X
1w
0W
0E
0@
1Y
b1 `
1g
1\
1^
1]
0r
0l
0c
0p
0o
0h
0a
0t
0i
0f
0b
0|
0z
b0 6
0x
0+
0[
1Z
b0 1
1d
0e
0m
0n
1s
1.
1-
b1101 ,
b1101 /
b1101 0
b1101 4
#73
0.
#74
1y
1j
0V
0w
1W
1E
b10 `
0g
0]
1t
1i
1f
1b
b1 6
1x
b1 1
1.
#75
0.
#76
1*
07
1>
0?
1K
1@
1w
0E
0L
b11 `
1g
0^
1]
1p
1o
1h
1a
0t
0i
0f
0b
1z
b10 6
0x
1+
b10 1
1.
#77
0.
#78
1{
17
1k
0>
0y
0S
0j
0D
1?
1T
1X
0w
1E
0@
0Y
b100 `
0g
0]
1t
1i
1f
1b
b11 6
1x
b11 1
1.
#79
0.
#80
07
18
1*
0y
0G
09
0j
1V
1D
1K
1?
1M
1I
1B
1<
0X
1w
0W
0E
0L
0@
1Y
b101 `
1g
0\
1^
1]
1r
1l
1c
0p
0o
0h
0a
0t
0i
0f
0b
1|
0z
b100 6
0x
b100 1
1.
0-
#81
0.
#82
1y
1j
17
0V
08
0D
0w
1W
1E
b110 `
0g
0]
1t
1i
1f
1b
b101 6
1x
b101 1
1.
#83
0.
#84
0*
0?
1D
1@
1w
0E
b111 `
1g
0^
1]
1p
1o
1h
1a
0t
0i
0f
0b
1z
b110 6
0x
0+
b110 1
1.
#85
0.
#86
0{
1*
0y
0k
0j
0D
1?
1U
1X
0w
1E
0@
0Y
b0 `
0g
0]
1t
1i
1f
1b
b111 6
1x
1+
b111 1
1.
#87
0.
#88
0K
17
0*
0{
0y
0k
1S
1L
0>
19
0j
1V
08
1D
1?
0U
0T
0M
0B
0<
0X
1w
0W
0E
0@
1Y
b1 `
1g
1\
1^
1]
0r
0l
0c
0p
0o
0h
0a
0t
0i
0f
0b
0|
0z
b0 6
0x
1G
0I
0+
b0 1
1q
1.
1-
b10001101 ,
b10001101 /
b10001101 0
b10001101 4
#89
0.
#90
1y
1j
0V
0w
1W
1E
b10 `
0g
0]
1t
1i
1f
1b
b1 6
1x
b1 1
1.
#91
0.
#92
1*
07
1>
0?
1K
1@
1w
0E
0L
b11 `
1g
0^
1]
1p
1o
1h
1a
0t
0i
0f
0b
1z
b10 6
0x
1+
b10 1
1.
#93
0.
#94
1{
17
1k
0>
0y
0S
0j
0D
1?
1T
1X
0w
1E
0@
0Y
b100 `
0g
0]
1t
1i
1f
1b
b11 6
1x
b11 1
1.
#95
0.
#96
07
18
1*
0y
09
0j
1V
1D
1K
1?
1M
1B
1<
0X
1w
0W
0E
0L
0@
1Y
b101 `
1g
0\
1^
1]
1r
1l
1c
0p
0o
0h
0a
0t
0i
0f
0b
1|
0z
b100 6
0x
b100 1
1.
0-
#97
0.
#98
1y
1j
17
0V
08
0D
0w
1W
1E
b110 `
0g
0]
1t
1i
1f
1b
b101 6
1x
b101 1
1.
#99
0.
#100
0*
0?
1D
1@
1w
0E
b111 `
1g
0^
1]
1p
1o
1h
1a
0t
0i
0f
0b
1z
b110 6
0x
0+
b110 1
1.
#101
0.
#102
0{
1*
0y
0k
0j
0D
1?
1U
1X
0w
1E
0@
0Y
b0 `
0g
0]
1t
1i
1f
1b
b111 6
1x
1+
b111 1
1.
#103
0.
#104
0K
17
0*
0{
0y
0k
1S
1L
0>
19
0j
1V
08
1D
1?
0U
0T
0M
0B
0<
0X
1w
0W
0E
1H
0@
1Y
b1 `
1g
1\
1^
1]
0r
0l
0c
0p
0o
0h
0a
0t
0i
0f
0b
0|
0z
b0 6
0x
0G
0I
0+
0Z
b0 1
1e
1n
0q
0s
1.
1-
b1100101 ,
b1100101 /
b1100101 0
b1100101 4
#105
0.
#106
1y
1j
0V
0w
1W
1E
b10 `
0g
0]
1t
1i
1f
1b
b1 6
1x
b1 1
1.
#107
0.
#108
1*
07
1>
0?
1K
1@
1w
0E
0L
b11 `
1g
0^
1]
1p
1o
1h
1a
0t
0i
0f
0b
1z
b10 6
0x
1+
b10 1
1.
#109
0.
#110
1{
17
1k
0>
0y
0S
0j
0D
1?
1T
1X
0w
1E
0@
0Y
b100 `
0g
0]
1t
1i
1f
1b
b11 6
1x
b11 1
1.
#111
0.
#112
07
18
1*
0y
09
0j
1V
1D
1K
1?
1M
1I
1B
1<
0X
1w
0W
0E
0H
0L
0@
1Y
b101 `
1g
0\
1^
1]
1r
1l
1c
0p
0o
0h
0a
0t
0i
0f
0b
1|
0z
b100 6
0x
b100 1
1.
0-
#113
0.
#114
1y
1j
17
0V
08
0D
0w
1W
1E
b110 `
0g
0]
1t
1i
1f
1b
b101 6
1x
b101 1
1.
#115
0.
#116
0*
0?
1D
1@
1w
0E
b111 `
1g
0^
1]
1p
1o
1h
1a
0t
0i
0f
0b
1z
b110 6
0x
0+
b110 1
1.
#117
0.
#118
0{
1*
0y
0k
0j
0D
1?
1U
1X
0w
1E
0@
0Y
b0 `
0g
0]
1t
1i
1f
1b
b111 6
1x
1+
b111 1
1.
#119
0.
#120
0K
17
0*
0{
0y
0k
1S
1L
0>
19
0j
1V
08
1D
1?
0U
0T
0M
0I
0B
0<
0X
1w
0W
0E
1H
0@
1Y
b1 `
1g
1\
1^
1]
0r
0l
0c
0p
0o
0h
0a
0t
0i
0f
0b
0|
0z
b0 6
0x
0+
b0 1
1.
1-
#121
0.
#122
1y
1j
0V
0w
1W
1E
b10 `
0g
0]
1t
1i
1f
1b
b1 6
1x
b1 1
1.
#123
0.
#124
1*
07
1>
0?
1K
1@
1w
0E
0L
b11 `
1g
0^
1]
1p
1o
1h
1a
0t
0i
0f
0b
1z
b10 6
0x
1+
b10 1
1.
#125
0.
#126
1{
17
1k
0>
0y
0S
0j
0D
1?
1T
1X
0w
1E
0@
0Y
b100 `
0g
0]
1t
1i
1f
1b
b11 6
1x
b11 1
1.
#127
0.
#128
07
18
1*
0y
09
0j
1V
1D
1K
1?
1M
1I
1B
1<
0X
1w
0W
0E
0H
0L
0@
1Y
b101 `
1g
0\
1^
1]
1r
1l
1c
0p
0o
0h
0a
0t
0i
0f
0b
1|
0z
b100 6
0x
b100 1
1.
0-
#129
0.
#130
1y
1j
17
0V
08
0D
0w
1W
1E
b110 `
0g
0]
1t
1i
1f
1b
b101 6
1x
b101 1
1.
#131
0.
#132
0*
0?
1D
1@
1w
0E
b111 `
1g
0^
1]
1p
1o
1h
1a
0t
0i
0f
0b
1z
b110 6
0x
0+
b110 1
1.
#133
0.
#134
0{
1*
0y
0k
0j
0D
1?
1U
1X
0w
1E
0@
0Y
b0 `
0g
0]
1t
1i
1f
1b
b111 6
1x
1+
b111 1
1.
#135
0.
#136
0K
17
0*
0{
0y
0k
1S
1L
0>
19
0j
1V
08
1D
1?
0U
0T
0M
0I
0B
0<
0X
1w
0W
0E
1H
0@
1Y
b1 `
1g
1\
1^
1]
0r
0l
0c
0p
0o
0h
0a
0t
0i
0f
0b
0|
0z
b0 6
0x
0+
1[
1Z
b0 1
0d
0e
1u
0v
1.
1-
b110000 ,
b110000 /
b110000 0
b110000 4
#137
0.
#138
1y
1j
0V
0w
1W
1E
b10 `
0g
0]
1t
1i
1f
1b
b1 6
1x
b1 1
1.
#139
0.
#140
1*
07
1>
0?
1K
1@
1w
0E
0L
b11 `
1g
0^
1]
1p
1o
1h
1a
0t
0i
0f
0b
1z
b10 6
0x
1+
b10 1
1.
#141
0.
#142
1{
17
1k
0>
0y
0S
0j
0D
1?
1T
1X
0w
1E
0@
0Y
b100 `
0g
0]
1t
1i
1f
1b
b11 6
1x
b11 1
1.
#143
0.
#144
07
18
1*
0y
09
0j
1V
1D
1K
1?
1M
1I
1B
1<
0X
1w
0W
0E
0H
0L
0@
1Y
b101 `
1g
0\
1^
1]
1r
1l
1c
0p
0o
0h
0a
0t
0i
0f
0b
1|
0z
b100 6
0x
b100 1
1.
0-
#145
0.
#146
1y
1j
17
0V
08
0D
0w
1W
1E
b110 `
0g
0]
1t
1i
1f
1b
b101 6
1x
b101 1
1.
#147
0.
#148
0*
0?
1D
1@
1w
0E
b111 `
1g
0^
1]
1p
1o
1h
1a
0t
0i
0f
0b
1z
b110 6
0x
0+
b110 1
1.
#149
0.
#150
0{
1*
0y
0k
0j
0D
1?
1U
1X
0w
1E
0@
0Y
b0 `
0g
0]
1t
1i
1f
1b
b111 6
1x
1+
b111 1
1.
#151
0.
#152
07
1*
0{
0>
0y
1:
0k
1S
1L
09
0j
1V
18
1D
0O
0;
1?
0U
0T
0M
0<
0X
1w
0W
0E
1P
0@
1Y
b1 `
1g
1\
1^
1]
0r
0l
0c
0p
0o
0h
0a
0t
0i
0f
0b
0|
0z
b0 6
0x
0B
1J
1G
1C
1Q
0I
0R
0[
0Z
b0 1
b11111111 2
1d
1e
1m
1q
1s
1v
1.
1-
1(
b11111111 ,
b11111111 /
b11111111 0
b11111111 4
#153
0.
#154
1y
1j
17
0V
08
0D
0w
1W
1E
b10 `
0g
0]
1t
1i
1f
1b
b1 6
1x
b1 1
1.
#155
0.
#156
07
1>
1*
0?
1D
1@
1w
0E
0J
0L
b11 `
1g
0^
1]
1p
1o
1h
1a
0t
0i
0f
0b
1z
b10 6
0x
b10 1
1.
#157
0.
#158
1{
17
1k
0>
0y
0S
0j
0D
1?
1T
1X
0w
1E
0@
0Y
b100 `
0g
0]
1t
1i
1f
1b
b11 6
1x
b11 1
1.
#159
0.
#160
07
1*
0>
0y
0:
0j
1V
18
1D
1O
1;
1?
1M
1<
0X
1w
0W
0E
0P
1J
0L
0@
1Y
b101 `
1g
0\
1^
1]
1r
1l
1c
0p
0o
0h
0a
0t
0i
0f
0b
1|
0z
b100 6
0x
b100 1
1.
0-
#161
0.
#162
1y
1j
17
0V
08
0D
0w
1W
1E
b110 `
0g
0]
1t
1i
1f
1b
b101 6
1x
b101 1
1.
#163
0.
#164
07
1>
1*
0?
1D
1@
1w
0E
0J
b111 `
1g
0^
1]
1p
1o
1h
1a
0t
0i
0f
0b
1z
b110 6
0x
b110 1
1.
#165
0.
#166
17
0{
0>
0y
0k
0j
0D
1?
1U
1X
0w
1E
0@
0Y
b0 `
0g
0]
1t
1i
1f
1b
b111 6
1x
b111 1
1.
#167
0.
#168
07
1*
0{
0>
0y
1:
0k
1S
09
0j
1V
18
1D
0;
0K
1?
0U
0T
0<
0X
1w
0W
0E
1P
1J
1L
0@
1Y
b1 `
1g
1\
1^
1]
0r
0l
0c
0p
0o
0h
0a
0t
0i
0f
0b
0|
0z
b0 6
0x
0M
1N
b0 1
b11011101 2
0m
0n
1.
1-
b11011101 ,
b11011101 /
b11011101 0
b11011101 4
#169
0.
#170
0*
1y
1j
17
0V
08
0w
1W
1E
b10 `
0g
0]
1t
1i
1f
1b
b1 6
1x
0+
b1 1
1.
#171
0.
#172
1*
07
1>
0?
1K
1@
1w
0E
0J
0L
b11 `
1g
0^
1]
1p
1o
1h
1a
0t
0i
0f
0b
1z
b10 6
0x
1+
b10 1
1.
#173
0.
#174
1{
17
1k
0>
0y
0S
0j
0D
1?
1T
1X
0w
1E
0@
0Y
b100 `
0g
0]
1t
1i
1f
1b
b11 6
1x
b11 1
1.
#175
0.
#176
07
1*
0>
0y
0:
0j
1V
18
1D
1;
0K
1?
1<
0X
1w
0W
0E
0P
1J
1L
0@
1Y
b101 `
1g
0\
1^
1]
1r
1l
1c
0p
0o
0h
0a
0t
0i
0f
0b
1|
0z
b100 6
0x
b100 1
1.
0-
#177
0.
#178
0*
1y
1j
17
0V
08
0w
1W
1E
b110 `
0g
0]
1t
1i
1f
1b
b101 6
1x
0+
b101 1
1.
#179
0.
#180
1*
07
1>
0?
1K
1@
1w
0E
0J
0L
b111 `
1g
0^
1]
1p
1o
1h
1a
0t
0i
0f
0b
1z
b110 6
0x
1+
b110 1
1.
#181
0.
#182
17
0{
0>
0y
0k
0j
0D
1?
1U
1X
0w
1E
0@
0Y
b0 `
0g
0]
1t
1i
1f
1b
b111 6
1x
b111 1
1.
#183
0.
#184
17
0*
0{
0>
0y
0k
1S
1L
0j
1V
1D
0O
1?
0U
0T
0X
1w
0W
0E
1P
1J
0@
1Y
b1 `
1g
1\
1^
1]
0r
0l
0c
0p
0o
0h
0a
0t
0i
0f
0b
0|
0z
b0 6
0x
19
0M
0<
0N
1=
0+
b0 1
b11101110 2
1m
1n
0u
0v
1.
1-
b11101110 ,
b11101110 /
b11101110 0
b11101110 4
#185
0.
#186
1y
1j
1*
0V
0D
0w
1W
1E
b10 `
0g
0]
1t
1i
1f
1b
b1 6
1x
1+
b1 1
1.
#187
0.
#188
07
1>
1*
0?
1D
1@
1w
0E
0J
0L
b11 `
1g
0^
1]
1p
1o
1h
1a
0t
0i
0f
0b
1z
b10 6
0x
b10 1
1.
#189
0.
#190
1{
17
1k
0>
0y
0S
0j
0D
1?
1T
1X
0w
1E
0@
0Y
b100 `
0g
0]
1t
1i
1f
1b
b11 6
1x
b11 1
1.
#191
0.
#192
17
0*
0>
0y
0j
1V
1D
1O
1?
1M
0X
1w
0W
0E
0P
1J
0L
0@
1Y
b101 `
1g
0\
1^
1]
1r
1l
1c
0p
0o
0h
0a
0t
0i
0f
0b
1|
0z
b100 6
0x
0+
b100 1
1.
0-
#193
0.
#194
1y
1j
1*
0V
0D
0w
1W
1E
b110 `
0g
0]
1t
1i
1f
1b
b101 6
1x
1+
b101 1
1.
#195
0.
#196
07
1>
1*
0?
1D
1@
1w
0E
0J
b111 `
1g
0^
1]
1p
1o
1h
1a
0t
0i
0f
0b
1z
b110 6
0x
b110 1
1.
#197
0.
#198
17
0{
0>
0y
0k
0j
0D
1?
1U
1X
0w
1E
0@
0Y
b0 `
0g
0]
1t
1i
1f
1b
b111 6
1x
b111 1
1.
#199
0.
#200
17
0*
0{
0>
0y
0k
1S
0j
1V
1D
0K
1?
0U
0T
0X
1w
0W
0E
1P
1J
1L
0@
1Y
b1 `
1g
1\
1^
1]
0r
0l
0c
0p
0o
0h
0a
0t
0i
0f
0b
0|
0z
b0 6
0x
0M
1N
0+
b0 1
b11001100 2
0m
0n
1.
1-
b11001100 ,
b11001100 /
b11001100 0
b11001100 4
#201
0.
#202
1y
1j
0V
0w
1W
1E
b10 `
0g
0]
1t
1i
1f
1b
b1 6
1x
b1 1
1.
#203
0.
#204
1*
07
1>
0?
1K
1@
1w
0E
0J
0L
b11 `
1g
0^
1]
1p
1o
1h
1a
0t
0i
0f
0b
1z
b10 6
0x
1+
b10 1
1.
#205
0.
#206
1{
17
1k
0>
0y
0S
0j
0D
1?
1T
1X
0w
1E
0@
0Y
b100 `
0g
0]
1t
1i
1f
1b
b11 6
1x
b11 1
1.
#207
0.
#208
17
0*
0>
0y
0j
1V
1D
0K
1?
0X
1w
0W
0E
0P
1J
1L
0@
1Y
b101 `
1g
0\
1^
1]
1r
1l
1c
0p
0o
0h
0a
0t
0i
0f
0b
1|
0z
b100 6
0x
0+
b100 1
1.
0-
#209
0.
#210
1y
1j
0V
0w
1W
1E
b110 `
0g
0]
1t
1i
1f
1b
b101 6
1x
b101 1
1.
#211
0.
#212
1*
07
1>
0?
1K
1@
1w
0E
0J
0L
b111 `
1g
0^
1]
1p
1o
1h
1a
0t
0i
0f
0b
1z
b110 6
0x
1+
b110 1
1.
#213
0.
#214
17
0{
0>
0y
0k
0j
0D
1?
1U
1X
0w
1E
0@
0Y
b0 `
0g
0]
1t
1i
1f
1b
b111 6
1x
b111 1
1.
#215
0.
