MUXL2/muxl2.vcd
$date
	Tue May 25 16:19:52 2021
$end
$version
	Icarus Verilog
$end
$timescale
	1s
$end
$scope module BUF $end
$var wire 1 ! A $end
$var wire 1 " Y $end
$upscope $end
$scope module DFFSR $end
$var wire 1 # C $end
$var wire 1 $ D $end
$var wire 1 % R $end
$var wire 1 & S $end
$var reg 1 ' Q $end
$upscope $end
$scope module NOR $end
$var wire 1 ( A $end
$var wire 1 ) B $end
$var wire 1 * Y $end
$upscope $end
$scope module testbench $end
$var wire 1 + valid_11 $end
$var wire 1 , valid_000_synt $end
$var wire 1 - valid_000_cond $end
$var wire 1 . valid_00 $end
$var wire 8 / data_11 [7:0] $end
$var wire 8 0 data_000_synt [7:0] $end
$var wire 8 1 data_000_cond [7:0] $end
$var wire 8 2 data_00 [7:0] $end
$var wire 1 3 clk_4f $end
$var wire 1 4 clk_2f $end
$scope module COND $end
$var wire 1 + valid_11 $end
$var wire 1 . valid_00 $end
$var wire 9 5 paq_1_x [8:0] $end
$var wire 9 6 paq_0_x [8:0] $end
$var wire 8 7 data_11 [7:0] $end
$var wire 8 8 data_00 [7:0] $end
$var wire 1 3 clk_4f $end
$var wire 1 4 clk_2f $end
$var reg 8 9 data_000_cond [7:0] $end
$var reg 9 : paq_000 [8:0] $end
$var reg 1 - valid_000_cond $end
$upscope $end
$scope module PROB $end
$var wire 8 ; data_000_cond [7:0] $end
$var wire 1 - valid_000_cond $end
$var wire 1 , valid_000_synt $end
$var wire 8 < data_000_synt [7:0] $end
$var reg 1 4 clk_2f $end
$var reg 1 3 clk_4f $end
$var reg 8 = data_00 [7:0] $end
$var reg 8 > data_00_n [7:0] $end
$var reg 8 ? data_11 [7:0] $end
$var reg 8 @ data_11_n [7:0] $end
$var reg 1 . valid_00 $end
$var reg 1 A valid_00_n $end
$var reg 1 + valid_11 $end
$var reg 1 B valid_11_n $end
$scope begin CLK_BEHAVIOR $end
$upscope $end
$scope begin CLK_INIT $end
$upscope $end
$scope begin FILE_OUTPUT $end
$upscope $end
$scope begin OUTPUTS_BEHAVIOR $end
$upscope $end
$upscope $end
$scope module SYNT $end
$var wire 1 4 clk_2f $end
$var wire 1 3 clk_4f $end
$var wire 8 C data_00 [7:0] $end
$var wire 8 D data_11 [7:0] $end
$var wire 1 . valid_00 $end
$var wire 1 + valid_11 $end
$var wire 1 , valid_000_synt $end
$var wire 9 E paq_1_x [8:0] $end
$var wire 9 F paq_0_x [8:0] $end
$var wire 9 G paq_000 [8:0] $end
$var wire 8 H data_000_synt [7:0] $end
$var wire 1 I _28_ $end
$var wire 1 J _27_ $end
$var wire 1 K _26_ $end
$var wire 1 L _25_ $end
$var wire 1 M _24_ $end
$var wire 1 N _23_ $end
$var wire 1 O _22_ $end
$var wire 1 P _21_ $end
$var wire 1 Q _20_ $end
$var wire 1 R _19_ $end
$var wire 1 S _18_ $end
$var wire 1 T _17_ $end
$var wire 1 U _16_ $end
$var wire 1 V _15_ $end
$var wire 1 W _14_ $end
$var wire 1 X _13_ $end
$var wire 1 Y _12_ $end
$var wire 1 Z _11_ $end
$var wire 1 [ _10_ $end
$var wire 1 \ _09_ $end
$var wire 1 ] _08_ $end
$var wire 1 ^ _07_ $end
$var wire 1 _ _06_ $end
$var wire 1 ` _05_ $end
$var wire 1 a _04_ $end
$var wire 1 b _03_ $end
$var wire 1 c _02_ $end
$var wire 1 d _01_ $end
$var wire 9 e _00_ [8:0] $end
$scope module _29_ $end
$var wire 1 3 A $end
$var wire 1 \ Y $end
$upscope $end
$scope module _30_ $end
$var wire 1 4 A $end
$var wire 1 [ Y $end
$upscope $end
$scope module _31_ $end
$var wire 1 f A $end
$var wire 1 4 B $end
$var wire 1 Z Y $end
$upscope $end
$scope module _32_ $end
$var wire 1 g A $end
$var wire 1 [ B $end
$var wire 1 Y Y $end
$upscope $end
$scope module _33_ $end
$var wire 1 Z A $end
$var wire 1 Y B $end
$var wire 1 h Y $end
$upscope $end
$scope module _34_ $end
$var wire 1 4 A $end
$var wire 1 i B $end
$var wire 1 X Y $end
$upscope $end
$scope module _35_ $end
$var wire 1 [ A $end
$var wire 1 j B $end
$var wire 1 W Y $end
$upscope $end
$scope module _36_ $end
$var wire 1 X A $end
$var wire 1 W B $end
$var wire 1 k Y $end
$upscope $end
$scope module _37_ $end
$var wire 1 4 A $end
$var wire 1 l B $end
$var wire 1 V Y $end
$upscope $end
$scope module _38_ $end
$var wire 1 [ A $end
$var wire 1 m B $end
$var wire 1 U Y $end
$upscope $end
$scope module _39_ $end
$var wire 1 V A $end
$var wire 1 U B $end
$var wire 1 n Y $end
$upscope $end
$scope module _40_ $end
$var wire 1 4 A $end
$var wire 1 o B $end
$var wire 1 T Y $end
$upscope $end
$scope module _41_ $end
$var wire 1 [ A $end
$var wire 1 p B $end
$var wire 1 S Y $end
$upscope $end
$scope module _42_ $end
$var wire 1 T A $end
$var wire 1 S B $end
$var wire 1 q Y $end
$upscope $end
$scope module _43_ $end
$var wire 1 4 A $end
$var wire 1 r B $end
$var wire 1 R Y $end
$upscope $end
$scope module _44_ $end
$var wire 1 [ A $end
$var wire 1 s B $end
$var wire 1 Q Y $end
$upscope $end
$scope module _45_ $end
$var wire 1 R A $end
$var wire 1 Q B $end
$var wire 1 t Y $end
$upscope $end
$scope module _46_ $end
$var wire 1 4 A $end
$var wire 1 u B $end
$var wire 1 P Y $end
$upscope $end
$scope module _47_ $end
$var wire 1 [ A $end
$var wire 1 v B $end
$var wire 1 O Y $end
$upscope $end
$scope module _48_ $end
$var wire 1 P A $end
$var wire 1 O B $end
$var wire 1 w Y $end
$upscope $end
$scope module _49_ $end
$var wire 1 4 A $end
$var wire 1 x B $end
$var wire 1 N Y $end
$upscope $end
$scope module _50_ $end
$var wire 1 [ A $end
$var wire 1 y B $end
$var wire 1 M Y $end
$upscope $end
$scope module _51_ $end
$var wire 1 N A $end
$var wire 1 M B $end
$var wire 1 z Y $end
$upscope $end
$scope module _52_ $end
$var wire 1 4 A $end
$var wire 1 { B $end
$var wire 1 L Y $end
$upscope $end
$scope module _53_ $end
$var wire 1 [ A $end
$var wire 1 | B $end
$var wire 1 K Y $end
$upscope $end
$scope module _54_ $end
$var wire 1 L A $end
$var wire 1 K B $end
$var wire 1 } Y $end
$upscope $end
$scope module _55_ $end
$var wire 1 4 A $end
$var wire 1 . B $end
$var wire 1 J Y $end
$upscope $end
$scope module _56_ $end
$var wire 1 [ A $end
$var wire 1 + B $end
$var wire 1 I Y $end
$upscope $end
$scope module _57_ $end
$var wire 1 J A $end
$var wire 1 I B $end
$var wire 1 ~ Y $end
$upscope $end
$scope module _58_ $end
$var wire 1 3 A $end
$var wire 1 d Y $end
$upscope $end
$scope module _59_ $end
$var wire 1 3 A $end
$var wire 1 c Y $end
$upscope $end
$scope module _60_ $end
$var wire 1 3 A $end
$var wire 1 b Y $end
$upscope $end
$scope module _61_ $end
$var wire 1 3 A $end
$var wire 1 a Y $end
$upscope $end
$scope module _62_ $end
$var wire 1 3 A $end
$var wire 1 ` Y $end
$upscope $end
$scope module _63_ $end
$var wire 1 3 A $end
$var wire 1 _ Y $end
$upscope $end
$scope module _64_ $end
$var wire 1 3 A $end
$var wire 1 ^ Y $end
$upscope $end
$scope module _65_ $end
$var wire 1 3 A $end
$var wire 1 ] Y $end
$upscope $end
$scope module _66_ $end
$var wire 1 3 C $end
$var wire 1 !" D $end
$var reg 1 "" Q $end
$upscope $end
$scope module _67_ $end
$var wire 1 3 C $end
$var wire 1 #" D $end
$var reg 1 $" Q $end
$upscope $end
$scope module _68_ $end
$var wire 1 3 C $end
$var wire 1 %" D $end
$var reg 1 &" Q $end
$upscope $end
$scope module _69_ $end
$var wire 1 3 C $end
$var wire 1 '" D $end
$var reg 1 (" Q $end
$upscope $end
$scope module _70_ $end
$var wire 1 3 C $end
$var wire 1 )" D $end
$var reg 1 *" Q $end
$upscope $end
$scope module _71_ $end
$var wire 1 3 C $end
$var wire 1 +" D $end
$var reg 1 ," Q $end
$upscope $end
$scope module _72_ $end
$var wire 1 3 C $end
$var wire 1 -" D $end
$var reg 1 ." Q $end
$upscope $end
$scope module _73_ $end
$var wire 1 3 C $end
$var wire 1 /" D $end
$var reg 1 0" Q $end
$upscope $end
$scope module _74_ $end
$var wire 1 3 C $end
$var wire 1 1" D $end
$var reg 1 , Q $end
$upscope $end
$scope module _75_ $end
$var wire 1 d C $end
$var wire 1 2" D $end
$var reg 1 3" Q $end
$upscope $end
$scope module _76_ $end
$var wire 1 c C $end
$var wire 1 4" D $end
$var reg 1 5" Q $end
$upscope $end
$scope module _77_ $end
$var wire 1 b C $end
$var wire 1 6" D $end
$var reg 1 7" Q $end
$upscope $end
$scope module _78_ $end
$var wire 1 a C $end
$var wire 1 8" D $end
$var reg 1 9" Q $end
$upscope $end
$scope module _79_ $end
$var wire 1 ` C $end
$var wire 1 :" D $end
$var reg 1 ;" Q $end
$upscope $end
$scope module _80_ $end
$var wire 1 _ C $end
$var wire 1 <" D $end
$var reg 1 =" Q $end
$upscope $end
$scope module _81_ $end
$var wire 1 ^ C $end
$var wire 1 >" D $end
$var reg 1 ?" Q $end
$upscope $end
$scope module _82_ $end
$var wire 1 ] C $end
$var wire 1 @" D $end
$var reg 1 A" Q $end
$upscope $end
$scope module _83_ $end
$var wire 1 \ C $end
$var wire 1 B" D $end
$var reg 1 C" Q $end
$upscope $end
$upscope $end
$upscope $end
$enddefinitions $end
#0
$dumpvars
xC"
xB"
xA"
x@"
x?"
x>"
x="
x<"
x;"
x:"
x9"
x8"
x7"
x6"
x5"
x4"
x3"
x2"
x1"
x0"
x/"
x."
x-"
x,"
x+"
x*"
x)"
x("
x'"
x&"
x%"
x$"
x#"
x""
x!"
x~
x}
x|
x{
xz
xy
xx
xw
xv
xu
xt
xs
xr
xq
xp
xo
xn
xm
xl
xk
xj
xi
xh
xg
xf
bx e
0d
0c
0b
0a
0`
0_
0^
0]
0\
0[
xZ
1Y
xX
1W
xV
1U
xT
1S
xR
1Q
xP
1O
xN
1M
xL
1K
xJ
1I
bx H
bx G
bx F
bx E
bx D
bx C
xB
xA
bx @
bx ?
bx >
bx =
bx <
bx ;
bx :
bx 9
bx 8
bx 7
bx 6
bx 5
14
13
bx 2
bx 1
bx 0
bx /
x.
x-
x,
x+
x*
z)
z(
x'
z&
z%
z$
z#
z"
z!
$end
#1
1\
1d
1c
1b
1a
1`
1_
1^
1]
03
#2
x4"
x6"
x8"
x:"
x<"
x>"
x@"
xB"
x2"
xh
xk
xn
xq
xt
xw
xz
x}
bx e
x~
xY
xW
xU
xS
xQ
xO
xM
xK
xI
1Z
1X
1V
1T
1R
1P
1N
1L
1J
0\
0d
0c
0b
0a
0`
0_
0^
0]
1[
13
04
#3
1\
1d
1c
1b
1a
1`
1_
1^
1]
03
#4
14"
16"
18"
1:"
1<"
0>"
0@"
0B"
02"
1h
1k
1n
1q
1t
0w
0z
0}
b111110 e
0~
0g
1j
1m
1p
1s
0v
1y
0|
1f
1i
1l
1o
1r
0u
0x
0{
0+
0.
b10111100 E
b10111100 5
b1011110 /
b1011110 7
b1011110 ?
b1011110 D
b111110 F
b111110 6
b11111 2
b11111 8
b11111 =
b11111 C
1Y
1W
1U
1S
1Q
1O
1M
1K
1I
0Z
0X
0V
0T
0R
1P
1N
1L
1J
0\
0d
0c
0b
0a
0`
0_
0^
0]
0[
13
14
0A
0B
b1011110 @
b11111 >
#5
0/"
01"
1!"
1#"
1%"
1'"
1)"
0+"
0-"
0C"
03"
15"
17"
19"
1;"
1="
0?"
b111110 G
0A"
b111110 :
1\
1d
1c
1b
1a
1`
1_
1^
1]
03
#6
0,
00"
0."
0,"
1*"
1("
1&"
1$"
b11111 0
b11111 <
b11111 H
1""
b11111 1
b11111 9
b11111 ;
0-
1@"
1z
04"
16"
18"
1:"
1<"
0h
1k
1n
1q
b10111100 e
1t
0W
0U
0S
0Q
0M
1Z
1X
1V
1T
1R
0\
0d
0c
0b
0a
0`
0_
0^
0]
1[
13
04
#7
0!"
1-"
05"
b10111100 G
1A"
b10111100 :
1\
1d
1c
1b
1a
1`
1_
1^
1]
03
#8
b1011110 1
b1011110 9
b1011110 ;
0""
b1011110 0
b1011110 <
b1011110 H
1."
0@"
0z
14"
b111110 e
1h
1W
1U
1S
1Q
1M
0Z
0X
0V
0T
0R
0\
0d
0c
0b
0a
0`
0_
0^
0]
0[
13
14
#9
1!"
0-"
15"
b111110 G
0A"
b111110 :
1\
1d
1c
1b
1a
1`
1_
1^
1]
03
#10
0."
b11111 0
b11111 <
b11111 H
1""
b11111 1
b11111 9
b11111 ;
1@"
1z
04"
16"
18"
1:"
1<"
0h
1k
1n
1q
b10111100 e
1t
0W
0U
0S
0Q
0M
1Z
1X
1V
1T
1R
0\
0d
0c
0b
0a
0`
0_
0^
0]
1[
13
04
#11
0!"
1-"
05"
b10111100 G
1A"
b10111100 :
1\
1d
1c
1b
1a
1`
1_
1^
1]
03
#12
1>"
1B"
12"
1w
1}
1~
0P
0N
0L
0J
1g
0j
1|
1u
1x
1{
b1011110 1
b1011110 9
b1011110 ;
0""
b1011110 0
b1011110 <
b1011110 H
1."
1+
1.
b110111011 E
b110111011 5
b11011101 /
b11011101 7
b11011101 ?
b11011101 D
b111111111 F
b111111111 6
b11111111 2
b11111111 8
b11111111 =
b11111111 C
1@"
1z
14"
b111111111 e
1h
1W
1U
1S
1Q
1M
0Z
0X
0V
0T
0R
0\
0d
0c
0b
0a
0`
0_
0^
0]
0[
13
14
1A
1B
b11011101 @
b11111111 >
#13
1/"
11"
1!"
1+"
1C"
13"
15"
b111111111 G
1?"
b111111111 :
1\
1d
1c
1b
1a
1`
1_
1^
1]
03
#14
1,
10"
1,"
b11111111 0
b11111111 <
b11111111 H
1""
b11111111 1
b11111111 9
b11111111 ;
1-
14"
06"
18"
1:"
1<"
0>"
1@"
1B"
12"
1h
0k
1n
1q
1t
0w
1z
1}
b110111011 e
1~
0Y
0U
0S
0Q
0M
0K
0I
1Z
1X
1V
1T
1R
1P
1N
1L
1J
0\
0d
0c
0b
0a
0`
0_
0^
0]
1[
13
04
#15
0#"
0+"
07"
b110111011 G
0?"
b110111011 :
1\
1d
1c
1b
1a
1`
1_
1^
1]
03
#16
04"
0<"
0h
0t
0g
0s
0f
0r
b11011101 1
b11011101 9
b11011101 ;
0$"
b11011101 0
b11011101 <
b11011101 H
0,"
b110011001 E
b110011001 5
b11001100 /
b11001100 7
b11001100 ?
b11001100 D
b111011101 F
b111011101 6
b11101110 2
b11101110 8
b11101110 =
b11101110 C
16"
1>"
1k
b111011101 e
1w
1Y
1U
1S
1Q
1M
1K
1I
1Z
0X
0V
0T
1R
0P
0N
0L
0J
0\
0d
0c
0b
0a
0`
0_
0^
0]
0[
13
14
b11001100 @
b11101110 >
#17
0!"
1#"
0)"
1+"
05"
17"
0="
b111011101 G
1?"
b111011101 :
1\
1d
1c
1b
1a
1`
1_
1^
1]
03
#18
1,"
0*"
1$"
b11101110 0
b11101110 <
b11101110 H
0""
b11101110 1
b11101110 9
b11101110 ;
06"
18"
1:"
0>"
1@"
1B"
12"
0k
1n
1q
0w
1z
1}
b110011001 e
1~
0U
0S
0M
0K
0I
1X
1V
1T
1P
1N
1L
1J
0\
0d
0c
0b
0a
0`
0_
0^
0]
1[
13
04
#19
0#"
0+"
07"
b110011001 G
0?"
b110011001 :
1\
1d
1c
1b
1a
1`
1_
1^
1]
03
#20
14"
08"
1<"
0@"
1h
0n
1t
0z
0Z
0R
1g
0m
1s
0y
1f
0l
1r
0x
b11001100 1
b11001100 9
b11001100 ;
0$"
b11001100 0
b11001100 <
b11001100 H
0,"
b100110011 E
b100110011 5
b10011001 /
b10011001 7
b10011001 ?
b10011001 D
b101110111 F
b101110111 6
b10111011 2
b10111011 8
b10111011 =
b10111011 C
16"
1>"
1k
b101110111 e
1w
1U
1S
1M
1K
1I
0X
1V
0T
0P
1N
0L
0J
0\
0d
0c
0b
0a
0`
0_
0^
0]
0[
13
14
b10011001 @
b10111011 >
#21
1!"
1#"
0%"
1)"
1+"
0-"
15"
17"
09"
1="
1?"
b101110111 G
0A"
b101110111 :
1\
1d
1c
1b
1a
1`
1_
1^
1]
03
#22
0."
1,"
1*"
0&"
1$"
b10111011 0
b10111011 <
b10111011 H
1""
b10111011 1
b10111011 9
b10111011 ;
14"
06"
1:"
1<"
0>"
1B"
12"
1h
0k
1q
1t
0w
1}
b100110011 e
1~
0Y
0S
0Q
0K
0I
1Z
1X
1T
1R
1P
1L
1J
0\
0d
0c
0b
0a
0`
0_
0^
0]
1[
13
04
#23
0#"
0+"
07"
b100110011 G
0?"
b100110011 :
1\
1d
1c
1b
1a
1`
1_
1^
1]
03
#24
04"
0<"
0h
0t
0g
0s
0f
0r
b10011001 1
b10011001 9
b10011001 ;
0$"
b10011001 0
b10011001 <
b10011001 H
0,"
b100010001 E
b100010001 5
b10001000 /
b10001000 7
b10001000 ?
b10001000 D
b101010101 F
b101010101 6
b10101010 2
b10101010 8
b10101010 =
b10101010 C
16"
1>"
1k
b101010101 e
1w
1Y
1S
1Q
1K
1I
1Z
0X
0T
1R
0P
0L
0J
0\
0d
0c
0b
0a
0`
0_
0^
0]
0[
13
14
b10001000 @
b10101010 >
#25
0!"
1#"
0)"
1+"
05"
17"
0="
b101010101 G
1?"
b101010101 :
1\
1d
1c
1b
1a
1`
1_
1^
1]
03
#26
1,"
0*"
1$"
b10101010 0
b10101010 <
b10101010 H
0""
b10101010 1
b10101010 9
b10101010 ;
06"
1:"
0>"
1B"
12"
0k
1q
0w
1}
b100010001 e
1~
0S
0K
0I
1X
1T
1P
1L
1J
0\
0d
0c
0b
0a
0`
0_
0^
0]
1[
13
04
#27
0#"
0+"
07"
b100010001 G
0?"
b100010001 :
1\
1d
1c
1b
1a
1`
1_
1^
1]
03
#28
0:"
1<"
0B"
02"
0q
1t
0}
0~
0R
1g
1j
1m
0p
1s
1v
1y
0|
0i
0o
1r
0u
0{
b10001000 1
b10001000 9
b10001000 ;
0$"
b10001000 0
b10001000 <
b10001000 H
0,"
0.
b11101111 E
b11101111 5
b1110111 /
b1110111 7
b1110111 ?
b1110111 D
b100000 F
b100000 6
b10000 2
b10000 8
b10000 =
b10000 C
06"
0>"
0k
b100000 e
0w
1S
1K
1I
1X
1T
1P
1L
1J
0\
0d
0c
0b
0a
0`
0_
0^
0]
0[
13
14
0A
b1110111 @
b10000 >
#29
0/"
01"
0'"
1)"
0C"
03"
0;"
b100000 G
1="
b100000 :
1\
1d
1c
1b
1a
1`
1_
1^
1]
03
#30
0,
00"
1*"
b10000 0
b10000 <
b10000 H
0("
b10000 1
b10000 9
b10000 ;
0-
14"
16"
18"
1>"
1@"
12"
1h
1k
1n
1w
1z
1~
1<"
b11101111 e
1t
0Y
0W
0U
0Q
0O
0M
0I
1R
0\
0d
0c
0b
0a
0`
0_
0^
0]
1[
13
04
#31
11"
1!"
1#"
1%"
1+"
1-"
13"
15"
17"
19"
1?"
b11101111 G
1A"
b11101111 :
1\
1d
1c
1b
1a
1`
1_
1^
1]
03
#32
0<"
0t
0V
0P
0j
0m
0s
0v
0y
1|
1l
0r
1u
b1110111 1
b1110111 9
b1110111 ;
1-
1""
1$"
1&"
1,"
b1110111 0
b1110111 <
b1110111 H
1."
1,
0+
b100000010 E
b100000010 5
b10000001 /
b10000001 7
b10000001 ?
b10000001 D
b1001000 F
b1001000 6
b100100 2
b100100 8
b100100 =
b100100 C
04"
06"
18"
1>"
0@"
02"
0h
0k
1n
1w
0z
b1001000 e
0~
1Y
1W
1U
1Q
1O
1M
1I
1R
0\
0d
0c
0b
0a
0`
0_
0^
0]
0[
13
14
0B
b10000001 @
b100100 >
#33
01"
0!"
0#"
0)"
0-"
03"
05"
07"
0="
b1001000 G
0A"
b1001000 :
1\
1d
1c
1b
1a
1`
1_
1^
1]
03
#34
0,
0."
0*"
0$"
b100100 0
b100100 <
b100100 H
0""
b100100 1
b100100 9
b100100 ;
0-
14"
1B"
1h
1}
08"
0>"
0n
b100000010 e
0w
0Y
0K
1V
1P
0\
0d
0c
0b
0a
0`
0_
0^
0]
1[
13
04
#35
1/"
1!"
0%"
0+"
1C"
15"
09"
b100000010 G
0?"
b100000010 :
1\
1d
1c
1b
1a
1`
1_
1^
1]
03
#36
1:"
1q
0Z
0T
1j
1v
1y
0|
1f
0l
1o
0u
b10000001 1
b10000001 9
b10000001 ;
1""
0&"
0,"
b10000001 0
b10000001 <
b10000001 H
10"
1+
b11000111 E
b11000111 5
b1100011 /
b1100011 7
b1100011 ?
b1100011 D
b10010 F
b10010 6
b1001 2
b1001 8
b1001 =
b1001 C
14"
0B"
1h
0}
08"
0>"
0n
b10010 e
0w
1Y
1K
1V
1P
0\
0d
0c
0b
0a
0`
0_
0^
0]
0[
13
14
1B
b1100011 @
b1001 >
#37
0/"
1'"
0C"
b10010 G
1;"
b10010 :
1\
1d
1c
1b
1a
1`
1_
1^
1]
03
#38
00"
b1001 0
b1001 <
b1001 H
1("
b1001 1
b1001 9
b1001 ;
16"
1>"
1@"
12"
1k
1w
1z
1~
14"
0:"
1h
b11000111 e
0q
0Y
0W
0O
0M
0I
1Z
1T
0\
0d
0c
0b
0a
0`
0_
0^
0]
1[
13
04
#39
11"
1#"
0'"
1+"
1-"
13"
17"
0;"
1?"
b11000111 G
1A"
b11000111 :
1\
1d
1c
1b
1a
1`
1_
1^
1]
03
#40
18"
1B"
1n
1}
0V
0L
0J
0j
1m
1l
1{
b1100011 1
b1100011 9
b1100011 ;
1-
1$"
0("
1,"
b1100011 0
b1100011 <
b1100011 H
1."
1,
0+
1.
b11001010 E
b11001010 5
b1100101 /
b1100101 7
b1100101 ?
b1100101 D
b100011011 F
b100011011 6
b10001101 2
b10001101 8
b10001101 =
b10001101 C
06"
0>"
0@"
12"
0k
0w
0z
1~
1:"
b100011011 e
1q
1Y
1W
1O
1M
1I
0Z
0T
0\
0d
0c
0b
0a
0`
0_
0^
0]
0[
13
14
1A
0B
b1100101 @
b10001101 >
#41
1/"
0#"
1%"
1'"
0+"
0-"
1C"
07"
19"
1;"
0?"
b100011011 G
0A"
b100011011 :
1\
1d
1c
1b
1a
1`
1_
1^
1]
03
#42
10"
0."
0,"
1("
1&"
b10001101 0
b10001101 <
b10001101 H
0$"
b10001101 1
b10001101 9
b10001101 ;
1>"
1@"
1w
1z
14"
18"
0:"
0B"
02"
1h
1n
0q
0}
b11001010 e
0~
0Y
0U
0O
0M
1Z
1V
1T
1L
1J
0\
0d
0c
0b
0a
0`
0_
0^
0]
1[
13
04
#43
0/"
01"
0'"
1+"
1-"
0C"
03"
0;"
1?"
b11001010 G
1A"
b11001010 :
1\
1d
1c
1b
1a
1`
1_
1^
1]
03
#44
08"
0n
1p
0v
0y
0l
0o
0{
b1100101 1
b1100101 9
b1100101 ;
0-
0("
1,"
1."
b1100101 0
b1100101 <
b1100101 H
00"
0,
b11010 E
b11010 5
b1101 /
b1101 7
b1101 ?
b1101 D
b11 F
b11 6
b1 2
b1 8
b1 =
b1 C
0>"
0@"
0w
0z
0:"
0B"
12"
0q
0}
b11 e
1~
1Y
1U
1O
1M
0Z
1V
1T
1L
0J
0\
0d
0c
0b
0a
0`
0_
0^
0]
0[
13
14
b1101 @
b1 >
#45
11"
0%"
0+"
0-"
13"
09"
0?"
b11 G
0A"
b11 :
1\
1d
1c
1b
1a
1`
1_
1^
1]
03
#46
1,
0."
0,"
b1 0
b1 <
b1 H
0&"
b1 1
b1 9
b1 ;
1-
18"
1:"
1n
1q
14"
02"
1h
b11010 e
0~
0Y
0U
0S
1Z
1J
0\
0d
0c
0b
0a
0`
0_
0^
0]
1[
13
04
#47
01"
1%"
1'"
03"
19"
b11010 G
1;"
b11010 :
1\
1d
1c
1b
1a
1`
1_
1^
1]
03
#48
1<"
1>"
1t
1w
0V
0T
0R
0P
1v
1y
1|
1l
1o
1r
1u
b1101 1
b1101 9
b1101 ;
0-
1&"
b1101 0
b1101 <
b1101 H
1("
0,
0.
b111011010 E
b111011010 5
b11101101 /
b11101101 7
b11101101 ?
b11101101 D
b1111010 F
b1111010 6
b111101 2
b111101 8
b111101 =
b111101 C
18"
1:"
1n
1q
02"
b1111010 e
0~
1Y
1U
1S
0Z
1J
0\
0d
0c
0b
0a
0`
0_
0^
0]
0[
13
14
0A
b11101101 @
b111101 >
#49
1)"
1+"
1="
b1111010 G
1?"
b1111010 :
1\
1d
1c
1b
1a
1`
1_
1^
1]
03
#50
1,"
b111101 0
b111101 <
b111101 H
1*"
b111101 1
b111101 9
b111101 ;
1@"
1B"
1z
1}
14"
18"
1:"
0<"
1>"
1h
1n
1q
0t
b111011010 e
1w
0Y
0U
0S
0O
0M
0K
1Z
1V
1T
1R
1P
0\
0d
0c
0b
0a
0`
0_
0^
0]
1[
13
04
#51
1/"
0)"
1-"
1C"
0="
b111011010 G
1A"
b111011010 :
1\
1d
1c
1b
1a
1`
1_
1^
1]
03
#52
08"
0n
0N
0L
0g
1j
0p
0v
0l
1x
1{
b11101101 1
b11101101 9
b11101101 ;
0*"
1."
b11101101 0
b11101101 <
b11101101 H
10"
1+
b110001101 E
b110001101 5
b11000110 /
b11000110 7
b11000110 ?
b11000110 D
b111110010 F
b111110010 6
b11111001 2
b11111001 8
b11111001 =
b11111001 C
1@"
1B"
1z
1}
1<"
b111110010 e
1t
1Y
1U
1S
1O
1M
1K
0Z
1V
0T
0R
0P
0\
0d
0c
0b
0a
0`
0_
0^
0]
0[
13
14
1B
b11000110 @
b11111001 >
#53
0%"
1)"
09"
b111110010 G
1="
b111110010 :
1\
1d
1c
1b
1a
1`
1_
1^
1]
03
#54
1*"
b11111001 0
b11111001 <
b11111001 H
0&"
b11111001 1
b11111001 9
b11111001 ;
16"
18"
12"
1k
1n
1~
04"
0:"
0<"
0>"
1@"
1B"
0h
0q
0t
0w
1z
b110001101 e
1}
0W
0U
0M
0K
0I
1Z
1T
1R
1P
1N
1L
0\
0d
0c
0b
0a
0`
0_
0^
0]
1[
13
04
#55
11"
0!"
1#"
1%"
0'"
0)"
0+"
13"
05"
17"
19"
0;"
0="
b110001101 G
0?"
b110001101 :
1\
1d
1c
1b
1a
1`
1_
1^
1]
03
#56
0@"
0z
0X
0J
1g
0j
1v
0f
1i
0r
0x
b11000110 1
b11000110 9
b11000110 ;
1-
0""
1$"
1&"
0("
0*"
b11000110 0
b11000110 <
b11000110 H
0,"
1,
1.
b111001011 E
b111001011 5
b11100101 /
b11100101 7
b11100101 ?
b11100101 D
b101010101 F
b101010101 6
b10101010 2
b10101010 8
b10101010 =
b10101010 C
16"
08"
12"
1k
0n
1~
04"
1:"
0<"
1>"
0h
1q
0t
b101010101 e
1w
1W
1U
1M
1K
1I
1Z
0T
1R
0P
1N
0L
0\
0d
0c
0b
0a
0`
0_
0^
0]
0[
13
14
1A
b11100101 @
b10101010 >
#57
0%"
1'"
1+"
0-"
09"
1;"
1?"
b101010101 G
0A"
b101010101 :
1\
1d
1c
1b
1a
1`
1_
1^
1]
03
#58
0."
1,"
1("
b10101010 0
b10101010 <
b10101010 H
0&"
b10101010 1
b10101010 9
b10101010 ;
14"
18"
1@"
1h
1n
1z
06"
0:"
1>"
1B"
12"
0k
0q
1w
1}
b111001011 e
1~
0Y
0U
0O
0M
0K
0I
1X
1T
1P
1L
1J
0\
0d
0c
0b
0a
0`
0_
0^
0]
1[
13
04
#59
1!"
0#"
1%"
0'"
1-"
15"
07"
19"
0;"
b111001011 G
1A"
b111001011 :
1\
1d
1c
1b
1a
1`
1_
1^
1]
03
#60
1<"
0>"
0B"
1t
0w
0}
0R
1j
1p
0v
0y
0o
1r
0u
0{
b11100101 1
b11100101 9
b11100101 ;
1""
0$"
1&"
0("
b11100101 0
b11100101 <
b11100101 H
1."
0+
b100011110 E
b100011110 5
b10001111 /
b10001111 7
b10001111 ?
b10001111 D
b100101 F
b100101 6
b10010 2
b10010 8
b10010 =
b10010 C
04"
08"
0@"
0h
0n
0z
16"
0:"
1k
b100101 e
0q
1Y
1U
1O
1M
1K
1I
0X
1T
1P
1L
0J
0\
0d
0c
0b
0a
0`
0_
0^
0]
0[
13
14
0B
b10001111 @
b10010 >
#61
0/"
0!"
1#"
0%"
1)"
0+"
0-"
0C"
05"
17"
09"
1="
0?"
b100101 G
0A"
b100101 :
1\
1d
1c
1b
1a
1`
1_
1^
1]
03
#62
00"
0."
0,"
1*"
0&"
1$"
b10010 0
b10010 <
b10010 H
0""
b10010 1
b10010 9
b10010 ;
14"
18"
1:"
1B"
1h
1n
1q
1}
16"
0<"
02"
1k
0t
b100011110 e
0~
0Y
0W
0U
0S
0K
1X
1R
1J
0\
0d
0c
0b
0a
0`
0_
0^
0]
1[
13
04
#63
1/"
01"
1!"
1%"
1'"
0)"
1C"
03"
15"
19"
1;"
b100011110 G
0="
b100011110 :
1\
1d
1c
1b
1a
1`
1_
1^
1]
03
#64
1@"
1z
0V
0T
0N
0L
0g
0j
0m
1v
1y
1l
1o
0r
1x
1{
b10001111 1
b10001111 9
b10001111 ;
0-
1""
1&"
1("
0*"
b10001111 0
b10001111 <
b10001111 H
10"
0,
1+
0.
b111010001 E
b111010001 5
b11101000 /
b11101000 7
b11101000 ?
b11101000 D
b110011100 F
b110011100 6
b11001110 2
b11001110 8
b11001110 =
b11001110 C
04"
18"
1:"
1B"
0h
1n
1q
1}
0<"
02"
0t
b110011100 e
0~
1Y
1W
1U
1S
1K
0X
1R
1J
0\
0d
0c
0b
0a
0`
0_
0^
0]
0[
13
14
0A
1B
b11101000 @
b11001110 >
#65
0!"
1-"
05"
b110011100 G
1A"
b110011100 :
1\
1d
1c
1b
1a
1`
1_
1^
1]
03
