MUXL2/muxl2.vcd
$date
	Fri May 28 03:39:41 2021
$end
$version
	Icarus Verilog
$end
$timescale
	1s
$end
$scope module BUF $end
$var wire 1 ! A $end
$var wire 1 " Y $end
$upscope $end
$scope module DFFSR $end
$var wire 1 # C $end
$var wire 1 $ D $end
$var wire 1 % R $end
$var wire 1 & S $end
$var reg 1 ' Q $end
$upscope $end
$scope module NOR $end
$var wire 1 ( A $end
$var wire 1 ) B $end
$var wire 1 * Y $end
$upscope $end
$scope module testbench $end
$var wire 1 + valid_11 $end
$var wire 1 , valid_000_synt $end
$var wire 1 - valid_000_cond $end
$var wire 1 . valid_00 $end
$var wire 1 / reset $end
$var wire 8 0 data_11 [7:0] $end
$var wire 8 1 data_000_synt [7:0] $end
$var wire 8 2 data_000_cond [7:0] $end
$var wire 8 3 data_00 [7:0] $end
$var wire 1 4 clk_4f $end
$var wire 1 5 clk_2f $end
$scope module COND $end
$var wire 1 + valid_11 $end
$var wire 1 . valid_00 $end
$var wire 1 / reset $end
$var wire 9 6 paq_1_x [8:0] $end
$var wire 9 7 paq_0_x [8:0] $end
$var wire 8 8 data_11 [7:0] $end
$var wire 8 9 data_00 [7:0] $end
$var wire 1 4 clk_4f $end
$var wire 1 5 clk_2f $end
$var reg 8 : data_000_cond [7:0] $end
$var reg 9 ; paq_000 [8:0] $end
$var reg 1 < reset_s $end
$var reg 1 - valid_000_cond $end
$upscope $end
$scope module PROB $end
$var wire 8 = data_000_cond [7:0] $end
$var wire 1 - valid_000_cond $end
$var wire 1 , valid_000_synt $end
$var wire 8 > data_000_synt [7:0] $end
$var reg 1 5 clk_2f $end
$var reg 1 4 clk_4f $end
$var reg 8 ? data_00 [7:0] $end
$var reg 8 @ data_00_n [7:0] $end
$var reg 8 A data_11 [7:0] $end
$var reg 8 B data_11_n [7:0] $end
$var reg 1 / reset $end
$var reg 1 C reset_n $end
$var reg 1 . valid_00 $end
$var reg 1 D valid_00_n $end
$var reg 1 + valid_11 $end
$var reg 1 E valid_11_n $end
$scope begin CLK_BEHAVIOR $end
$upscope $end
$scope begin CLK_INIT $end
$upscope $end
$scope begin FILE_OUTPUT $end
$upscope $end
$scope begin OUTPUTS_BEHAVIOR $end
$upscope $end
$upscope $end
$scope module SYNT $end
$var wire 1 5 clk_2f $end
$var wire 1 4 clk_4f $end
$var wire 8 F data_00 [7:0] $end
$var wire 8 G data_11 [7:0] $end
$var wire 1 / reset $end
$var wire 1 . valid_00 $end
$var wire 1 + valid_11 $end
$var wire 1 , valid_000_synt $end
$var wire 1 H reset_s $end
$var wire 9 I paq_1_x [8:0] $end
$var wire 9 J paq_0_x [8:0] $end
$var wire 9 K paq_000 [8:0] $end
$var wire 8 L data_000_synt [7:0] $end
$var wire 1 M _039_ $end
$var wire 1 N _038_ $end
$var wire 1 O _037_ $end
$var wire 1 P _036_ $end
$var wire 1 Q _035_ $end
$var wire 1 R _034_ $end
$var wire 1 S _033_ $end
$var wire 1 T _032_ $end
$var wire 1 U _031_ $end
$var wire 1 V _030_ $end
$var wire 1 W _029_ $end
$var wire 1 X _028_ $end
$var wire 1 Y _027_ $end
$var wire 1 Z _026_ $end
$var wire 1 [ _025_ $end
$var wire 1 \ _024_ $end
$var wire 1 ] _023_ $end
$var wire 1 ^ _022_ $end
$var wire 1 _ _021_ $end
$var wire 1 ` _020_ $end
$var wire 1 a _019_ $end
$var wire 1 b _018_ $end
$var wire 1 c _017_ $end
$var wire 1 d _016_ $end
$var wire 1 e _015_ $end
$var wire 1 f _014_ $end
$var wire 1 g _013_ $end
$var wire 1 h _012_ $end
$var wire 1 i _011_ $end
$var wire 1 j _010_ $end
$var wire 1 k _009_ $end
$var wire 1 l _008_ $end
$var wire 1 m _007_ $end
$var wire 1 n _006_ $end
$var wire 1 o _005_ $end
$var wire 1 p _004_ $end
$var wire 1 q _003_ $end
$var wire 1 r _002_ $end
$var wire 9 s _001_ [8:0] $end
$var wire 8 t _000_ [7:0] $end
$scope module _040_ $end
$var wire 1 5 A $end
$var wire 1 e Y $end
$upscope $end
$scope module _041_ $end
$var wire 1 4 A $end
$var wire 1 q Y $end
$upscope $end
$scope module _042_ $end
$var wire 1 u A $end
$var wire 1 d Y $end
$var wire 1 H B $end
$upscope $end
$scope module _043_ $end
$var wire 1 d A $end
$var wire 1 v Y $end
$upscope $end
$scope module _044_ $end
$var wire 1 w B $end
$var wire 1 c Y $end
$var wire 1 H A $end
$upscope $end
$scope module _045_ $end
$var wire 1 c A $end
$var wire 1 x Y $end
$upscope $end
$scope module _046_ $end
$var wire 1 y B $end
$var wire 1 b Y $end
$var wire 1 H A $end
$upscope $end
$scope module _047_ $end
$var wire 1 b A $end
$var wire 1 z Y $end
$upscope $end
$scope module _048_ $end
$var wire 1 { B $end
$var wire 1 a Y $end
$var wire 1 H A $end
$upscope $end
$scope module _049_ $end
$var wire 1 a A $end
$var wire 1 | Y $end
$upscope $end
$scope module _050_ $end
$var wire 1 } B $end
$var wire 1 ` Y $end
$var wire 1 H A $end
$upscope $end
$scope module _051_ $end
$var wire 1 ` A $end
$var wire 1 ~ Y $end
$upscope $end
$scope module _052_ $end
$var wire 1 !" B $end
$var wire 1 _ Y $end
$var wire 1 H A $end
$upscope $end
$scope module _053_ $end
$var wire 1 _ A $end
$var wire 1 "" Y $end
$upscope $end
$scope module _054_ $end
$var wire 1 #" B $end
$var wire 1 ^ Y $end
$var wire 1 H A $end
$upscope $end
$scope module _055_ $end
$var wire 1 ^ A $end
$var wire 1 $" Y $end
$upscope $end
$scope module _056_ $end
$var wire 1 %" B $end
$var wire 1 ] Y $end
$var wire 1 H A $end
$upscope $end
$scope module _057_ $end
$var wire 1 ] A $end
$var wire 1 r Y $end
$upscope $end
$scope module _058_ $end
$var wire 1 . A $end
$var wire 1 5 B $end
$var wire 1 \ Y $end
$upscope $end
$scope module _059_ $end
$var wire 1 + A $end
$var wire 1 e B $end
$var wire 1 [ Y $end
$upscope $end
$scope module _060_ $end
$var wire 1 \ A $end
$var wire 1 [ B $end
$var wire 1 &" Y $end
$upscope $end
$scope module _061_ $end
$var wire 1 5 A $end
$var wire 1 '" B $end
$var wire 1 Z Y $end
$upscope $end
$scope module _062_ $end
$var wire 1 e A $end
$var wire 1 (" B $end
$var wire 1 Y Y $end
$upscope $end
$scope module _063_ $end
$var wire 1 Z A $end
$var wire 1 Y B $end
$var wire 1 )" Y $end
$upscope $end
$scope module _064_ $end
$var wire 1 5 A $end
$var wire 1 *" B $end
$var wire 1 X Y $end
$upscope $end
$scope module _065_ $end
$var wire 1 e A $end
$var wire 1 +" B $end
$var wire 1 W Y $end
$upscope $end
$scope module _066_ $end
$var wire 1 X A $end
$var wire 1 W B $end
$var wire 1 ," Y $end
$upscope $end
$scope module _067_ $end
$var wire 1 5 A $end
$var wire 1 -" B $end
$var wire 1 V Y $end
$upscope $end
$scope module _068_ $end
$var wire 1 e A $end
$var wire 1 ." B $end
$var wire 1 U Y $end
$upscope $end
$scope module _069_ $end
$var wire 1 V A $end
$var wire 1 U B $end
$var wire 1 /" Y $end
$upscope $end
$scope module _070_ $end
$var wire 1 5 A $end
$var wire 1 0" B $end
$var wire 1 T Y $end
$upscope $end
$scope module _071_ $end
$var wire 1 e A $end
$var wire 1 1" B $end
$var wire 1 S Y $end
$upscope $end
$scope module _072_ $end
$var wire 1 T A $end
$var wire 1 S B $end
$var wire 1 2" Y $end
$upscope $end
$scope module _073_ $end
$var wire 1 5 A $end
$var wire 1 3" B $end
$var wire 1 R Y $end
$upscope $end
$scope module _074_ $end
$var wire 1 e A $end
$var wire 1 4" B $end
$var wire 1 Q Y $end
$upscope $end
$scope module _075_ $end
$var wire 1 R A $end
$var wire 1 Q B $end
$var wire 1 5" Y $end
$upscope $end
$scope module _076_ $end
$var wire 1 5 A $end
$var wire 1 6" B $end
$var wire 1 P Y $end
$upscope $end
$scope module _077_ $end
$var wire 1 e A $end
$var wire 1 7" B $end
$var wire 1 O Y $end
$upscope $end
$scope module _078_ $end
$var wire 1 P A $end
$var wire 1 O B $end
$var wire 1 8" Y $end
$upscope $end
$scope module _079_ $end
$var wire 1 5 A $end
$var wire 1 9" B $end
$var wire 1 N Y $end
$upscope $end
$scope module _080_ $end
$var wire 1 e A $end
$var wire 1 :" B $end
$var wire 1 M Y $end
$upscope $end
$scope module _081_ $end
$var wire 1 N A $end
$var wire 1 M B $end
$var wire 1 ;" Y $end
$upscope $end
$scope module _082_ $end
$var wire 1 5 A $end
$var wire 1 <" B $end
$var wire 1 h Y $end
$upscope $end
$scope module _083_ $end
$var wire 1 e A $end
$var wire 1 =" B $end
$var wire 1 g Y $end
$upscope $end
$scope module _084_ $end
$var wire 1 h A $end
$var wire 1 g B $end
$var wire 1 >" Y $end
$upscope $end
$scope module _085_ $end
$var wire 1 ?" B $end
$var wire 1 f Y $end
$var wire 1 H A $end
$upscope $end
$scope module _086_ $end
$var wire 1 f A $end
$var wire 1 @" Y $end
$upscope $end
$scope module _087_ $end
$var wire 1 4 A $end
$var wire 1 p Y $end
$upscope $end
$scope module _088_ $end
$var wire 1 4 A $end
$var wire 1 o Y $end
$upscope $end
$scope module _089_ $end
$var wire 1 4 A $end
$var wire 1 n Y $end
$upscope $end
$scope module _090_ $end
$var wire 1 4 A $end
$var wire 1 m Y $end
$upscope $end
$scope module _091_ $end
$var wire 1 4 A $end
$var wire 1 l Y $end
$upscope $end
$scope module _092_ $end
$var wire 1 4 A $end
$var wire 1 k Y $end
$upscope $end
$scope module _093_ $end
$var wire 1 4 A $end
$var wire 1 j Y $end
$upscope $end
$scope module _094_ $end
$var wire 1 4 A $end
$var wire 1 i Y $end
$upscope $end
$scope module _095_ $end
$var wire 1 4 C $end
$var wire 1 A" D $end
$var reg 1 B" Q $end
$upscope $end
$scope module _096_ $end
$var wire 1 4 C $end
$var wire 1 C" D $end
$var reg 1 D" Q $end
$upscope $end
$scope module _097_ $end
$var wire 1 4 C $end
$var wire 1 E" D $end
$var reg 1 F" Q $end
$upscope $end
$scope module _098_ $end
$var wire 1 4 C $end
$var wire 1 G" D $end
$var reg 1 H" Q $end
$upscope $end
$scope module _099_ $end
$var wire 1 4 C $end
$var wire 1 I" D $end
$var reg 1 J" Q $end
$upscope $end
$scope module _100_ $end
$var wire 1 4 C $end
$var wire 1 K" D $end
$var reg 1 L" Q $end
$upscope $end
$scope module _101_ $end
$var wire 1 4 C $end
$var wire 1 M" D $end
$var reg 1 N" Q $end
$upscope $end
$scope module _102_ $end
$var wire 1 4 C $end
$var wire 1 O" D $end
$var reg 1 P" Q $end
$upscope $end
$scope module _103_ $end
$var wire 1 4 C $end
$var wire 1 r D $end
$var reg 1 , Q $end
$upscope $end
$scope module _104_ $end
$var wire 1 q C $end
$var wire 1 Q" D $end
$var reg 1 R" Q $end
$upscope $end
$scope module _105_ $end
$var wire 1 p C $end
$var wire 1 S" D $end
$var reg 1 T" Q $end
$upscope $end
$scope module _106_ $end
$var wire 1 o C $end
$var wire 1 U" D $end
$var reg 1 V" Q $end
$upscope $end
$scope module _107_ $end
$var wire 1 n C $end
$var wire 1 W" D $end
$var reg 1 X" Q $end
$upscope $end
$scope module _108_ $end
$var wire 1 m C $end
$var wire 1 Y" D $end
$var reg 1 Z" Q $end
$upscope $end
$scope module _109_ $end
$var wire 1 l C $end
$var wire 1 [" D $end
$var reg 1 \" Q $end
$upscope $end
$scope module _110_ $end
$var wire 1 k C $end
$var wire 1 ]" D $end
$var reg 1 ^" Q $end
$upscope $end
$scope module _111_ $end
$var wire 1 j C $end
$var wire 1 _" D $end
$var reg 1 `" Q $end
$upscope $end
$scope module _112_ $end
$var wire 1 i C $end
$var wire 1 a" D $end
$var reg 1 b" Q $end
$upscope $end
$scope module _113_ $end
$var wire 1 4 C $end
$var wire 1 / D $end
$var reg 1 H Q $end
$upscope $end
$upscope $end
$upscope $end
$enddefinitions $end
#0
$dumpvars
xb"
xa"
x`"
x_"
x^"
x]"
x\"
x["
xZ"
xY"
xX"
xW"
xV"
xU"
xT"
xS"
xR"
xQ"
xP"
xO"
xN"
xM"
xL"
xK"
xJ"
xI"
xH"
xG"
xF"
xE"
xD"
xC"
xB"
xA"
x@"
x?"
x>"
x="
x<"
x;"
x:"
x9"
x8"
x7"
x6"
x5"
x4"
x3"
x2"
x1"
x0"
x/"
x."
x-"
x,"
x+"
x*"
x)"
x("
x'"
x&"
x%"
x$"
x#"
x""
x!"
x~
x}
x|
x{
xz
xy
xx
xw
xv
xu
bx t
bx s
xr
0q
0p
0o
0n
0m
0l
0k
0j
0i
xh
1g
xf
0e
xd
xc
xb
xa
x`
x_
x^
x]
x\
1[
xZ
1Y
xX
1W
xV
1U
xT
1S
xR
1Q
xP
1O
xN
1M
bx L
bx K
bx J
bx I
xH
bx G
bx F
0E
0D
0C
b0 B
bx A
b0 @
bx ?
bx >
b0 =
x<
bx ;
b0 :
bx 9
bx 8
bx 7
bx 6
15
14
bx 3
b0 2
bx 1
bx 0
x/
x.
0-
x,
x+
x*
z)
z(
x'
z&
z%
z$
z#
z"
z!
$end
#1
1q
1p
1o
1n
1m
1l
1k
1j
1i
04
#2
xQ"
xS"
xU"
xW"
xY"
x["
x]"
x_"
xa"
x&"
x)"
x,"
x/"
x2"
x5"
x8"
x;"
bx s
x>"
x[
xY
xW
xU
xS
xQ
xO
xM
xg
1\
1Z
1X
1V
1T
1R
1P
1N
1h
0q
0p
0o
0n
0m
0l
0k
0j
0i
1e
14
05
#3
1q
1p
1o
1n
1m
1l
1k
1j
1i
04
#4
0S"
0U"
0W"
0Y"
0["
0]"
0_"
0a"
0Q"
0)"
0,"
0/"
02"
05"
08"
0;"
0>"
b0 s
0&"
0("
0+"
0."
01"
04"
07"
0:"
0="
0'"
0*"
0-"
00"
03"
06"
09"
0<"
0/
0+
0.
b0 I
b0 6
b0 0
b0 8
b0 A
b0 G
b0 J
b0 7
b0 3
b0 9
b0 ?
b0 F
1[
1Y
1W
1U
1S
1Q
1O
1M
1g
1\
1Z
1X
1V
1T
1R
1P
1N
1h
0q
0p
0o
0n
0m
0l
0k
0j
0i
0e
14
15
#5
0A"
0C"
0E"
0G"
0I"
0K"
0M"
0O"
0r
0@"
0v
0x
0z
0|
0~
0""
b0 t
0$"
1]
1f
1d
1c
1b
1a
1`
1_
1^
0%"
0?"
0u
0w
0y
0{
0}
0!"
0#"
0R"
0T"
0V"
0X"
0Z"
0\"
0^"
0`"
b0 K
0b"
b0 ;
1q
1p
1o
1n
1m
1l
1k
1j
1i
04
#6
0H
0,
0P"
0N"
0L"
0J"
0H"
0F"
0D"
b0 1
b0 >
b0 L
0B"
0<
0q
0p
0o
0n
0m
0l
0k
0j
0i
1e
14
05
#7
1q
1p
1o
1n
1m
1l
1k
1j
1i
04
#8
0q
0p
0o
0n
0m
0l
0k
0j
0i
0e
14
15
#9
1q
1p
1o
1n
1m
1l
1k
1j
1i
04
#10
0q
0p
0o
0n
0m
0l
0k
0j
0i
1e
14
05
1D
1E
b11011101 B
b11111111 @
1C
#11
1q
1p
1o
1n
1m
1l
1k
1j
1i
04
#12
1S"
1U"
1W"
1Y"
1["
1]"
1_"
1a"
1Q"
1)"
1,"
1/"
12"
15"
18"
1;"
1>"
b111111111 s
1&"
0Z
0X
0V
0T
0R
0P
0N
0h
0\
1("
1."
11"
14"
1:"
1="
1'"
1*"
1-"
10"
13"
16"
19"
1<"
1/
1+
1.
b110111011 I
b110111011 6
b11011101 0
b11011101 8
b11011101 A
b11011101 G
b111111111 J
b111111111 7
b11111111 3
b11111111 9
b11111111 ?
b11111111 F
0q
0p
0o
0n
0m
0l
0k
0j
0i
0e
14
15
#13
1%"
1?"
1u
1w
1y
1{
1}
1!"
1#"
1R"
1T"
1V"
1X"
1Z"
1\"
1^"
1`"
b111111111 K
1b"
b111111111 ;
1q
1p
1o
1n
1m
1l
1k
1j
1i
04
#14
1A"
1O"
1M"
1K"
1I"
1G"
1E"
1C"
1@"
1r
1$"
1""
1~
1|
1z
1x
b11111111 t
1v
0f
0]
0^
0_
0`
0a
0b
0c
0d
1H
1<
1Q"
1S"
0U"
1W"
1Y"
1["
0]"
1_"
1a"
1&"
1)"
0,"
1/"
12"
15"
08"
1;"
b110111011 s
1>"
0[
0Y
0U
0S
0Q
0M
0g
1\
1Z
1X
1V
1T
1R
1P
1N
1h
0q
0p
0o
0n
0m
0l
0k
0j
0i
1e
14
05
b11001100 B
b11101110 @
#15
0C"
0K"
0v
b11011101 t
0~
1d
1`
0u
0}
0V"
b110111011 K
0^"
b110111011 ;
1q
1p
1o
1n
1m
1l
1k
1j
1i
04
#16
0S"
0["
0)"
05"
0("
04"
0'"
03"
b11011101 2
b11011101 :
b11011101 =
1-
1B"
1F"
1H"
1J"
1N"
b11011101 1
b11011101 >
b11011101 L
1P"
1,
b110011001 I
b110011001 6
b11001100 0
b11001100 8
b11001100 A
b11001100 G
b111011101 J
b111011101 7
b11101110 3
b11101110 9
b11101110 ?
b11101110 F
1U"
1]"
1,"
b111011101 s
18"
1[
1Y
1U
1S
1Q
1M
1g
0\
1Z
0X
0V
0T
1R
0P
0N
0h
0q
0p
0o
0n
0m
0l
0k
0j
0i
0e
14
15
#17
0A"
1C"
0I"
1K"
0@"
1v
0|
b11101110 t
1~
1f
0d
1a
0`
0?"
1u
0{
1}
0T"
1V"
0\"
b111011101 K
1^"
b111011101 ;
1q
1p
1o
1n
1m
1l
1k
1j
1i
04
#18
1L"
0J"
1D"
b11101110 1
b11101110 >
b11101110 L
0B"
b11101110 2
b11101110 :
b11101110 =
1Q"
0U"
1W"
1Y"
0]"
1_"
1a"
1&"
0,"
1/"
12"
08"
1;"
b110011001 s
1>"
0[
0U
0S
0M
0g
1\
1X
1V
1T
1P
1N
1h
0q
0p
0o
0n
0m
0l
0k
0j
0i
1e
14
05
b10011001 B
b10111011 @
#19
0C"
0K"
0v
b11001100 t
0~
1d
1`
0u
0}
0V"
b110011001 K
0^"
b110011001 ;
1q
1p
1o
1n
1m
1l
1k
1j
1i
04
#20
1S"
0W"
1["
0_"
1)"
0/"
15"
0;"
0Z
0R
1("
0."
14"
0:"
1'"
0-"
13"
09"
b11001100 2
b11001100 :
b11001100 =
0D"
b11001100 1
b11001100 >
b11001100 L
0L"
b100110011 I
b100110011 6
b10011001 0
b10011001 8
b10011001 A
b10011001 G
b101110111 J
b101110111 7
b10111011 3
b10111011 9
b10111011 ?
b10111011 F
1U"
1]"
1,"
b101110111 s
18"
1[
1U
1S
1M
1g
0\
0X
1V
0T
0P
1N
0h
0q
0p
0o
0n
0m
0l
0k
0j
0i
0e
14
15
#21
1A"
1C"
0E"
1I"
1K"
0M"
1@"
1v
0x
1|
1~
b10111011 t
0""
0f
0d
1c
0a
0`
1_
1?"
1u
0w
1{
1}
0!"
1T"
1V"
0X"
1\"
1^"
b101110111 K
0`"
b101110111 ;
1q
1p
1o
1n
1m
1l
1k
1j
1i
04
#22
0N"
1L"
1J"
0F"
1D"
b10111011 1
b10111011 >
b10111011 L
1B"
b10111011 2
b10111011 :
b10111011 =
1Q"
1S"
0U"
1Y"
1["
0]"
1a"
1&"
1)"
0,"
12"
15"
08"
b100110011 s
1>"
0[
0Y
0S
0Q
0g
1\
1Z
1X
1T
1R
1P
1h
0q
0p
0o
0n
0m
0l
0k
0j
0i
1e
14
05
b10001000 B
b10101010 @
#23
0C"
0K"
0v
b10011001 t
0~
1d
1`
0u
0}
0V"
b100110011 K
0^"
b100110011 ;
1q
1p
1o
1n
1m
1l
1k
1j
1i
04
#24
0S"
0["
0)"
05"
0("
04"
0'"
03"
b10011001 2
b10011001 :
b10011001 =
0D"
b10011001 1
b10011001 >
b10011001 L
0L"
b100010001 I
b100010001 6
b10001000 0
b10001000 8
b10001000 A
b10001000 G
b101010101 J
b101010101 7
b10101010 3
b10101010 9
b10101010 ?
b10101010 F
1U"
1]"
1,"
b101010101 s
18"
1[
1Y
1S
1Q
1g
0\
1Z
0X
0T
1R
0P
0h
0q
0p
0o
0n
0m
0l
0k
0j
0i
0e
14
15
#25
0A"
1C"
0I"
1K"
0@"
1v
0|
b10101010 t
1~
1f
0d
1a
0`
0?"
1u
0{
1}
0T"
1V"
0\"
b101010101 K
1^"
b101010101 ;
1q
1p
1o
1n
1m
1l
1k
1j
1i
04
#26
1L"
0J"
1D"
b10101010 1
b10101010 >
b10101010 L
0B"
b10101010 2
b10101010 :
b10101010 =
1Q"
0U"
1Y"
0]"
1a"
1&"
0,"
12"
08"
b100010001 s
1>"
0[
0S
0g
1\
1X
1T
1P
1h
0q
0p
0o
0n
0m
0l
0k
0j
0i
1e
14
05
0D
b1110111 B
b10000 @
#27
0C"
0K"
0v
b10001000 t
0~
1d
1`
0u
0}
0V"
b100010001 K
0^"
b100010001 ;
1q
1p
1o
1n
1m
1l
1k
1j
1i
04
#28
0Y"
1["
0a"
0Q"
02"
15"
0>"
0&"
0R
1("
1+"
1."
01"
14"
17"
1:"
0="
0*"
00"
13"
06"
0<"
b10001000 2
b10001000 :
b10001000 =
0D"
b10001000 1
b10001000 >
b10001000 L
0L"
0.
b11101111 I
b11101111 6
b1110111 0
b1110111 8
b1110111 A
b1110111 G
b100000 J
b100000 7
b10000 3
b10000 9
b10000 ?
b10000 F
0U"
0]"
0,"
b100000 s
08"
1[
1S
1g
1\
1X
1T
1P
1h
0q
0p
0o
0n
0m
0l
0k
0j
0i
0e
14
15
#29
0G"
1I"
0O"
0r
0z
1|
b10000 t
0$"
1]
1b
0a
1^
0%"
0y
1{
0#"
0R"
0Z"
1\"
b100000 K
0b"
b100000 ;
1q
1p
1o
1n
1m
1l
1k
1j
1i
04
#30
0,
0P"
1J"
b10000 1
b10000 >
b10000 L
0H"
b10000 2
b10000 :
b10000 =
0-
1Q"
1S"
1U"
1W"
1]"
1_"
1&"
1)"
1,"
1/"
18"
1;"
1["
b11101111 s
15"
0[
0Y
0W
0U
0Q
0O
0M
1R
0q
0p
0o
0n
0m
0l
0k
0j
0i
1e
14
05
0E
b10000001 B
b100100 @
#31
1A"
1C"
1E"
1K"
1M"
1r
1@"
1v
1x
1~
b1110111 t
1""
0]
0f
0d
0c
0`
0_
1%"
1?"
1u
1w
1}
1!"
1R"
1T"
1V"
1X"
1^"
b11101111 K
1`"
b11101111 ;
1q
1p
1o
1n
1m
1l
1k
1j
1i
04
#32
0["
05"
0V
0P
0+"
0."
04"
07"
0:"
1="
1-"
03"
16"
b1110111 2
b1110111 :
b1110111 =
1-
1B"
1D"
1F"
1L"
b1110111 1
b1110111 >
b1110111 L
1N"
1,
0+
b100000010 I
b100000010 6
b10000001 0
b10000001 8
b10000001 A
b10000001 G
b1001000 J
b1001000 7
b100100 3
b100100 9
b100100 ?
b100100 F
0Q"
0S"
0U"
1W"
1]"
0_"
0&"
0)"
0,"
1/"
18"
b1001000 s
0;"
1[
1Y
1W
1U
1Q
1O
1M
1R
0q
0p
0o
0n
0m
0l
0k
0j
0i
0e
14
15
#33
0A"
0C"
0I"
0M"
0r
0@"
0v
0|
b100100 t
0""
1]
1f
1d
1a
1_
0%"
0?"
0u
0{
0!"
0R"
0T"
0V"
0\"
b1001000 K
0`"
b1001000 ;
1q
1p
1o
1n
1m
1l
1k
1j
1i
04
#34
0,
0N"
0J"
0D"
b100100 1
b100100 >
b100100 L
0B"
b100100 2
b100100 :
b100100 =
0-
1S"
1a"
1)"
1>"
0W"
0]"
0/"
b100000010 s
08"
0Y
0g
1V
1P
0q
0p
0o
0n
0m
0l
0k
0j
0i
1e
14
05
1E
b1100011 B
b1001 @
#35
1A"
0E"
0K"
1O"
1@"
0x
0~
b10000001 t
1$"
0f
1c
1`
0^
1?"
0w
0}
1#"
1T"
0X"
0^"
b100000010 K
1b"
b100000010 ;
1q
1p
1o
1n
1m
1l
1k
1j
1i
04
#36
1Y"
12"
0Z
0T
1+"
17"
1:"
0="
1'"
0-"
10"
06"
b10000001 2
b10000001 :
b10000001 =
1B"
0F"
0L"
b10000001 1
b10000001 >
b10000001 L
1P"
1+
b11000111 I
b11000111 6
b1100011 0
b1100011 8
b1100011 A
b1100011 G
b10010 J
b10010 7
b1001 3
b1001 9
b1001 ?
b1001 F
1S"
0a"
1)"
0>"
0W"
0]"
0/"
b10010 s
08"
1Y
1g
1V
1P
0q
0p
0o
0n
0m
0l
0k
0j
0i
0e
14
15
#37
1G"
0O"
1z
b1001 t
0$"
0b
1^
1y
0#"
1Z"
b10010 K
0b"
b10010 ;
1q
1p
1o
1n
1m
1l
1k
1j
1i
04
#38
0P"
b1001 1
b1001 >
b1001 L
1H"
b1001 2
b1001 :
b1001 =
1Q"
1U"
1]"
1_"
1&"
1,"
18"
1;"
1S"
0Y"
1)"
b11000111 s
02"
0[
0Y
0W
0O
0M
1Z
1T
0q
0p
0o
0n
0m
0l
0k
0j
0i
1e
14
05
1D
0E
b1100101 B
b10001101 @
#39
1C"
0G"
1K"
1M"
1r
1v
0z
1~
b1100011 t
1""
0]
0d
1b
0`
0_
1%"
1u
0y
1}
1!"
1R"
1V"
0Z"
1^"
b11000111 K
1`"
b11000111 ;
1q
1p
1o
1n
1m
1l
1k
1j
1i
04
#40
1W"
1a"
1/"
1>"
0V
0h
0\
0+"
1."
1-"
1<"
b1100011 2
b1100011 :
b1100011 =
1-
1D"
0H"
1L"
b1100011 1
b1100011 >
b1100011 L
1N"
1,
0+
1.
b11001010 I
b11001010 6
b1100101 0
b1100101 8
b1100101 A
b1100101 G
b100011011 J
b100011011 7
b10001101 3
b10001101 9
b10001101 ?
b10001101 F
1Q"
0U"
0]"
0_"
1&"
0,"
08"
0;"
1Y"
b100011011 s
12"
1[
1Y
1W
1O
1M
0Z
0T
0q
0p
0o
0n
0m
0l
0k
0j
0i
0e
14
15
#41
0C"
1E"
1G"
0K"
0M"
1O"
0v
1x
1z
0~
0""
b10001101 t
1$"
1d
0c
0b
1`
1_
0^
0u
1w
1y
0}
0!"
1#"
0V"
1X"
1Z"
0^"
0`"
b100011011 K
1b"
b100011011 ;
1q
1p
1o
1n
1m
1l
1k
1j
1i
04
#42
1P"
0N"
0L"
1H"
1F"
b10001101 1
b10001101 >
b10001101 L
0D"
b10001101 2
b10001101 :
b10001101 =
1]"
1_"
18"
1;"
0Q"
1S"
1W"
0Y"
0a"
0&"
1)"
1/"
02"
b11001010 s
0>"
0Y
0U
0O
0M
1\
1Z
1V
1T
1h
0q
0p
0o
0n
0m
0l
0k
0j
0i
1e
14
05
b1101 B
b1 @
#43
0G"
1K"
1M"
0O"
0r
0z
1~
1""
b1100101 t
0$"
1]
1b
0`
0_
1^
0%"
0y
1}
1!"
0#"
0R"
0Z"
1^"
1`"
b11001010 K
0b"
b11001010 ;
1q
1p
1o
1n
1m
1l
1k
1j
1i
04
#44
0W"
0/"
11"
07"
0:"
0-"
00"
0<"
b1100101 2
b1100101 :
b1100101 =
0-
0H"
1L"
1N"
b1100101 1
b1100101 >
b1100101 L
0P"
0,
b11010 I
b11010 6
b1101 0
b1101 8
b1101 A
b1101 G
b11 J
b11 7
b1 3
b1 9
b1 ?
b1 F
0]"
0_"
08"
0;"
1Q"
0Y"
0a"
1&"
02"
b11 s
0>"
1Y
1U
1O
1M
0\
0Z
1V
1T
1h
0q
0p
0o
0n
0m
0l
0k
0j
0i
0e
14
15
#45
0E"
0K"
0M"
1r
0x
0~
b1 t
0""
0]
1c
1`
1_
1%"
0w
0}
0!"
1R"
0X"
0^"
b11 K
0`"
b11 ;
1q
1p
1o
1n
1m
1l
1k
1j
1i
04
#46
1,
0N"
0L"
b1 1
b1 >
b1 L
0F"
b1 2
b1 :
b1 =
1-
1W"
1Y"
1/"
12"
0Q"
1S"
0&"
b11010 s
1)"
0Y
0U
0S
1\
1Z
0q
0p
0o
0n
0m
0l
0k
0j
0i
1e
14
05
0D
b11101101 B
b111101 @
#47
1E"
1G"
0r
1x
b1101 t
1z
1]
0c
0b
0%"
1w
1y
0R"
1X"
b11010 K
1Z"
b11010 ;
1q
1p
1o
1n
1m
1l
1k
1j
1i
04
#48
1["
1]"
15"
18"
0V
0T
0R
0P
17"
1:"
1="
1-"
10"
13"
16"
b1101 2
b1101 :
b1101 =
0-
1F"
b1101 1
b1101 >
b1101 L
1H"
0,
0.
b111011010 I
b111011010 6
b11101101 0
b11101101 8
b11101101 A
b11101101 G
b1111010 J
b1111010 7
b111101 3
b111101 9
b111101 ?
b111101 F
1W"
1Y"
1/"
12"
0Q"
b1111010 s
0&"
1Y
1U
1S
1\
0Z
0q
0p
0o
0n
0m
0l
0k
0j
0i
0e
14
15
#49
1I"
1K"
1|
b111101 t
1~
0a
0`
1{
1}
1\"
b1111010 K
1^"
b1111010 ;
1q
1p
1o
1n
1m
1l
1k
1j
1i
04
#50
1L"
b111101 1
b111101 >
b111101 L
1J"
b111101 2
b111101 :
b111101 =
1_"
1a"
1;"
1>"
1S"
1W"
1Y"
0["
1]"
1)"
1/"
12"
05"
b111011010 s
18"
0Y
0U
0S
0O
0M
0g
1Z
1V
1T
1R
1P
0q
0p
0o
0n
0m
0l
0k
0j
0i
1e
14
05
1E
b11000110 B
b11111001 @
#51
0I"
1M"
1O"
0|
1""
b11101101 t
1$"
1a
0_
0^
0{
1!"
1#"
0\"
1`"
b111011010 K
1b"
b111011010 ;
1q
1p
1o
1n
1m
1l
1k
1j
1i
04
