MUXL1/muxl1.vcd
$date
	Thu May 27 03:31:20 2021
$end
$version
	Icarus Verilog
$end
$timescale
	1s
$end
$scope module BUF $end
$var wire 1 ! A $end
$var wire 1 " Y $end
$upscope $end
$scope module DFFSR $end
$var wire 1 # C $end
$var wire 1 $ D $end
$var wire 1 % R $end
$var wire 1 & S $end
$var reg 1 ' Q $end
$upscope $end
$scope module NOR $end
$var wire 1 ( A $end
$var wire 1 ) B $end
$var wire 1 * Y $end
$upscope $end
$scope module testbench $end
$var wire 1 + valid_3 $end
$var wire 1 , valid_2 $end
$var wire 1 - valid_11_synt $end
$var wire 1 . valid_11 $end
$var wire 1 / valid_1 $end
$var wire 1 0 valid_00_synt $end
$var wire 1 1 valid_00 $end
$var wire 1 2 valid_0 $end
$var wire 1 3 reset $end
$var wire 8 4 data_3 [7:0] $end
$var wire 8 5 data_2 [7:0] $end
$var wire 8 6 data_11_synt [7:0] $end
$var wire 8 7 data_11 [7:0] $end
$var wire 8 8 data_1 [7:0] $end
$var wire 8 9 data_00_synt [7:0] $end
$var wire 8 : data_00 [7:0] $end
$var wire 8 ; data_0 [7:0] $end
$var wire 1 < clk_f $end
$var wire 1 = clk_2f $end
$scope module COND $end
$var wire 1 + valid_3 $end
$var wire 1 , valid_2 $end
$var wire 1 / valid_1 $end
$var wire 1 2 valid_0 $end
$var wire 1 3 reset $end
$var wire 9 > paq_3_x [8:0] $end
$var wire 9 ? paq_2_x [8:0] $end
$var wire 9 @ paq_1_x [8:0] $end
$var wire 9 A paq_0_x [8:0] $end
$var wire 8 B data_3 [7:0] $end
$var wire 8 C data_2 [7:0] $end
$var wire 8 D data_1 [7:0] $end
$var wire 8 E data_0 [7:0] $end
$var wire 1 < clk_f $end
$var wire 1 = clk_2f $end
$var reg 8 F data_00 [7:0] $end
$var reg 8 G data_11 [7:0] $end
$var reg 9 H paq_00 [8:0] $end
$var reg 9 I paq_11 [8:0] $end
$var reg 1 J reset_s $end
$var reg 1 1 valid_00 $end
$var reg 1 . valid_11 $end
$upscope $end
$scope module PROB $end
$var wire 8 K data_00 [7:0] $end
$var wire 8 L data_11 [7:0] $end
$var wire 1 1 valid_00 $end
$var wire 1 . valid_11 $end
$var wire 1 - valid_11_synt $end
$var wire 1 0 valid_00_synt $end
$var wire 8 M data_11_synt [7:0] $end
$var wire 8 N data_00_synt [7:0] $end
$var reg 1 = clk_2f $end
$var reg 1 < clk_f $end
$var reg 8 O data_0 [7:0] $end
$var reg 8 P data_0_n [7:0] $end
$var reg 8 Q data_1 [7:0] $end
$var reg 8 R data_1_n [7:0] $end
$var reg 8 S data_2 [7:0] $end
$var reg 8 T data_2_n [7:0] $end
$var reg 8 U data_3 [7:0] $end
$var reg 8 V data_3_n [7:0] $end
$var reg 1 3 reset $end
$var reg 1 2 valid_0 $end
$var reg 1 W valid_0_n $end
$var reg 1 / valid_1 $end
$var reg 1 X valid_1_n $end
$var reg 1 , valid_2 $end
$var reg 1 Y valid_2_n $end
$var reg 1 + valid_3 $end
$var reg 1 Z valid_3_n $end
$scope begin CLK_BEHAVIOR $end
$upscope $end
$scope begin CLK_INIT $end
$upscope $end
$scope begin FILE_OUTPUT $end
$upscope $end
$scope begin OUTPUTS_BEHAVIOR $end
$upscope $end
$upscope $end
$scope module SYNT $end
$var wire 1 = clk_2f $end
$var wire 1 < clk_f $end
$var wire 8 [ data_0 [7:0] $end
$var wire 8 \ data_1 [7:0] $end
$var wire 8 ] data_2 [7:0] $end
$var wire 8 ^ data_3 [7:0] $end
$var wire 1 3 reset $end
$var wire 1 2 valid_0 $end
$var wire 1 / valid_1 $end
$var wire 1 , valid_2 $end
$var wire 1 + valid_3 $end
$var wire 1 - valid_11_synt $end
$var wire 1 0 valid_00_synt $end
$var wire 1 _ reset_s $end
$var wire 9 ` paq_3_x [8:0] $end
$var wire 9 a paq_2_x [8:0] $end
$var wire 9 b paq_1_x [8:0] $end
$var wire 9 c paq_11_synt [8:0] $end
$var wire 9 d paq_0_x [8:0] $end
$var wire 9 e paq_00_synt [8:0] $end
$var wire 8 f data_11_synt [7:0] $end
$var wire 8 g data_00_synt [7:0] $end
$var wire 1 h _078_ $end
$var wire 1 i _077_ $end
$var wire 1 j _076_ $end
$var wire 1 k _075_ $end
$var wire 1 l _074_ $end
$var wire 1 m _073_ $end
$var wire 1 n _072_ $end
$var wire 1 o _071_ $end
$var wire 1 p _070_ $end
$var wire 1 q _069_ $end
$var wire 1 r _068_ $end
$var wire 1 s _067_ $end
$var wire 1 t _066_ $end
$var wire 1 u _065_ $end
$var wire 1 v _064_ $end
$var wire 1 w _063_ $end
$var wire 1 x _062_ $end
$var wire 1 y _061_ $end
$var wire 1 z _060_ $end
$var wire 1 { _059_ $end
$var wire 1 | _058_ $end
$var wire 1 } _057_ $end
$var wire 1 ~ _056_ $end
$var wire 1 !" _055_ $end
$var wire 1 "" _054_ $end
$var wire 1 #" _053_ $end
$var wire 1 $" _052_ $end
$var wire 1 %" _051_ $end
$var wire 1 &" _050_ $end
$var wire 1 '" _049_ $end
$var wire 1 (" _048_ $end
$var wire 1 )" _047_ $end
$var wire 1 *" _046_ $end
$var wire 1 +" _045_ $end
$var wire 1 ," _044_ $end
$var wire 1 -" _043_ $end
$var wire 1 ." _042_ $end
$var wire 1 /" _041_ $end
$var wire 1 0" _040_ $end
$var wire 1 1" _039_ $end
$var wire 1 2" _038_ $end
$var wire 1 3" _037_ $end
$var wire 1 4" _036_ $end
$var wire 1 5" _035_ $end
$var wire 1 6" _034_ $end
$var wire 1 7" _033_ $end
$var wire 1 8" _032_ $end
$var wire 1 9" _031_ $end
$var wire 1 :" _030_ $end
$var wire 1 ;" _029_ $end
$var wire 1 <" _028_ $end
$var wire 1 =" _027_ $end
$var wire 1 >" _026_ $end
$var wire 1 ?" _025_ $end
$var wire 1 @" _024_ $end
$var wire 1 A" _023_ $end
$var wire 1 B" _022_ $end
$var wire 1 C" _021_ $end
$var wire 1 D" _020_ $end
$var wire 1 E" _01_synt9_ $end
$var wire 1 F" _01_synt8_ $end
$var wire 1 G" _01_synt7_ $end
$var wire 1 H" _01_synt6_ $end
$var wire 1 I" _01_synt5_ $end
$var wire 1 J" _01_synt4_ $end
$var wire 1 K" _01_synt3_ $end
$var wire 1 L" _01_synt2_ $end
$var wire 1 M" _01_synt1_ $end
$var wire 1 N" _01_synt0_ $end
$var wire 1 O" _00_synt9_ $end
$var wire 1 P" _00_synt8_ $end
$var wire 1 Q" _00_synt7_ $end
$var wire 1 R" _00_synt6_ $end
$var wire 1 S" _00_synt5_ $end
$var wire 1 T" _00_synt4_ $end
$var wire 9 U" _00_synt3_ [8:0] $end
$var wire 9 V" _00_synt2_ [8:0] $end
$var wire 8 W" _00_synt1_ [7:0] $end
$var wire 8 X" _00_synt0_ [7:0] $end
$scope module _079_ $end
$var wire 1 < A $end
$var wire 1 @" Y $end
$upscope $end
$scope module _080_ $end
$var wire 1 = A $end
$var wire 1 R" Y $end
$upscope $end
$scope module _081_ $end
$var wire 1 , A $end
$var wire 1 < B $end
$var wire 1 ?" Y $end
$upscope $end
$scope module _082_ $end
$var wire 1 + A $end
$var wire 1 @" B $end
$var wire 1 >" Y $end
$upscope $end
$scope module _083_ $end
$var wire 1 ?" A $end
$var wire 1 >" B $end
$var wire 1 Y" Y $end
$upscope $end
$scope module _084_ $end
$var wire 1 < A $end
$var wire 1 Z" B $end
$var wire 1 =" Y $end
$upscope $end
$scope module _085_ $end
$var wire 1 @" A $end
$var wire 1 [" B $end
$var wire 1 <" Y $end
$upscope $end
$scope module _086_ $end
$var wire 1 =" A $end
$var wire 1 <" B $end
$var wire 1 \" Y $end
$upscope $end
$scope module _087_ $end
$var wire 1 < A $end
$var wire 1 ]" B $end
$var wire 1 ;" Y $end
$upscope $end
$scope module _088_ $end
$var wire 1 @" A $end
$var wire 1 ^" B $end
$var wire 1 :" Y $end
$upscope $end
$scope module _089_ $end
$var wire 1 ;" A $end
$var wire 1 :" B $end
$var wire 1 _" Y $end
$upscope $end
$scope module _090_ $end
$var wire 1 < A $end
$var wire 1 `" B $end
$var wire 1 9" Y $end
$upscope $end
$scope module _091_ $end
$var wire 1 @" A $end
$var wire 1 a" B $end
$var wire 1 8" Y $end
$upscope $end
$scope module _092_ $end
$var wire 1 9" A $end
$var wire 1 8" B $end
$var wire 1 b" Y $end
$upscope $end
$scope module _093_ $end
$var wire 1 < A $end
$var wire 1 c" B $end
$var wire 1 7" Y $end
$upscope $end
$scope module _094_ $end
$var wire 1 @" A $end
$var wire 1 d" B $end
$var wire 1 6" Y $end
$upscope $end
$scope module _095_ $end
$var wire 1 7" A $end
$var wire 1 6" B $end
$var wire 1 e" Y $end
$upscope $end
$scope module _096_ $end
$var wire 1 < A $end
$var wire 1 f" B $end
$var wire 1 5" Y $end
$upscope $end
$scope module _097_ $end
$var wire 1 @" A $end
$var wire 1 g" B $end
$var wire 1 4" Y $end
$upscope $end
$scope module _098_ $end
$var wire 1 5" A $end
$var wire 1 4" B $end
$var wire 1 h" Y $end
$upscope $end
$scope module _099_ $end
$var wire 1 < A $end
$var wire 1 i" B $end
$var wire 1 3" Y $end
$upscope $end
$scope module _10_synt0_ $end
$var wire 1 @" A $end
$var wire 1 j" B $end
$var wire 1 2" Y $end
$upscope $end
$scope module _10_synt1_ $end
$var wire 1 3" A $end
$var wire 1 2" B $end
$var wire 1 k" Y $end
$upscope $end
$scope module _10_synt2_ $end
$var wire 1 < A $end
$var wire 1 l" B $end
$var wire 1 1" Y $end
$upscope $end
$scope module _10_synt3_ $end
$var wire 1 @" A $end
$var wire 1 m" B $end
$var wire 1 0" Y $end
$upscope $end
$scope module _10_synt4_ $end
$var wire 1 1" A $end
$var wire 1 0" B $end
$var wire 1 n" Y $end
$upscope $end
$scope module _10_synt5_ $end
$var wire 1 < A $end
$var wire 1 o" B $end
$var wire 1 /" Y $end
$upscope $end
$scope module _10_synt6_ $end
$var wire 1 @" A $end
$var wire 1 p" B $end
$var wire 1 ." Y $end
$upscope $end
$scope module _10_synt7_ $end
$var wire 1 /" A $end
$var wire 1 ." B $end
$var wire 1 q" Y $end
$upscope $end
$scope module _10_synt8_ $end
$var wire 1 r" A $end
$var wire 1 -" Y $end
$var wire 1 _ B $end
$upscope $end
$scope module _10_synt9_ $end
$var wire 1 -" A $end
$var wire 1 s" Y $end
$upscope $end
$scope module _11_synt0_ $end
$var wire 1 t" B $end
$var wire 1 ," Y $end
$var wire 1 _ A $end
$upscope $end
$scope module _11_synt1_ $end
$var wire 1 ," A $end
$var wire 1 u" Y $end
$upscope $end
$scope module _11_synt2_ $end
$var wire 1 v" B $end
$var wire 1 +" Y $end
$var wire 1 _ A $end
$upscope $end
$scope module _11_synt3_ $end
$var wire 1 +" A $end
$var wire 1 w" Y $end
$upscope $end
$scope module _11_synt4_ $end
$var wire 1 x" B $end
$var wire 1 *" Y $end
$var wire 1 _ A $end
$upscope $end
$scope module _11_synt5_ $end
$var wire 1 *" A $end
$var wire 1 y" Y $end
$upscope $end
$scope module _11_synt6_ $end
$var wire 1 z" B $end
$var wire 1 )" Y $end
$var wire 1 _ A $end
$upscope $end
$scope module _11_synt7_ $end
$var wire 1 )" A $end
$var wire 1 {" Y $end
$upscope $end
$scope module _11_synt8_ $end
$var wire 1 |" B $end
$var wire 1 (" Y $end
$var wire 1 _ A $end
$upscope $end
$scope module _11_synt9_ $end
$var wire 1 (" A $end
$var wire 1 }" Y $end
$upscope $end
$scope module _120_ $end
$var wire 1 ~" B $end
$var wire 1 '" Y $end
$var wire 1 _ A $end
$upscope $end
$scope module _121_ $end
$var wire 1 '" A $end
$var wire 1 !# Y $end
$upscope $end
$scope module _122_ $end
$var wire 1 "# B $end
$var wire 1 &" Y $end
$var wire 1 _ A $end
$upscope $end
$scope module _123_ $end
$var wire 1 &" A $end
$var wire 1 ## Y $end
$upscope $end
$scope module _124_ $end
$var wire 1 $# B $end
$var wire 1 %" Y $end
$var wire 1 _ A $end
$upscope $end
$scope module _125_ $end
$var wire 1 %" A $end
$var wire 1 T" Y $end
$upscope $end
$scope module _126_ $end
$var wire 1 %# B $end
$var wire 1 $" Y $end
$var wire 1 _ A $end
$upscope $end
$scope module _127_ $end
$var wire 1 $" A $end
$var wire 1 &# Y $end
$upscope $end
$scope module _128_ $end
$var wire 1 '# B $end
$var wire 1 #" Y $end
$var wire 1 _ A $end
$upscope $end
$scope module _129_ $end
$var wire 1 #" A $end
$var wire 1 (# Y $end
$upscope $end
$scope module _130_ $end
$var wire 1 )# B $end
$var wire 1 "" Y $end
$var wire 1 _ A $end
$upscope $end
$scope module _131_ $end
$var wire 1 "" A $end
$var wire 1 *# Y $end
$upscope $end
$scope module _132_ $end
$var wire 1 +# B $end
$var wire 1 !" Y $end
$var wire 1 _ A $end
$upscope $end
$scope module _133_ $end
$var wire 1 !" A $end
$var wire 1 ,# Y $end
$upscope $end
$scope module _134_ $end
$var wire 1 -# B $end
$var wire 1 ~ Y $end
$var wire 1 _ A $end
$upscope $end
$scope module _135_ $end
$var wire 1 ~ A $end
$var wire 1 .# Y $end
$upscope $end
$scope module _136_ $end
$var wire 1 /# B $end
$var wire 1 } Y $end
$var wire 1 _ A $end
$upscope $end
$scope module _137_ $end
$var wire 1 } A $end
$var wire 1 0# Y $end
$upscope $end
$scope module _138_ $end
$var wire 1 1# B $end
$var wire 1 | Y $end
$var wire 1 _ A $end
$upscope $end
$scope module _139_ $end
$var wire 1 | A $end
$var wire 1 2# Y $end
$upscope $end
$scope module _140_ $end
$var wire 1 3# B $end
$var wire 1 { Y $end
$var wire 1 _ A $end
$upscope $end
$scope module _141_ $end
$var wire 1 { A $end
$var wire 1 4# Y $end
$upscope $end
$scope module _142_ $end
$var wire 1 < A $end
$var wire 1 2 B $end
$var wire 1 z Y $end
$upscope $end
$scope module _143_ $end
$var wire 1 @" A $end
$var wire 1 / B $end
$var wire 1 y Y $end
$upscope $end
$scope module _144_ $end
$var wire 1 z A $end
$var wire 1 y B $end
$var wire 1 5# Y $end
$upscope $end
$scope module _145_ $end
$var wire 1 < A $end
$var wire 1 6# B $end
$var wire 1 x Y $end
$upscope $end
$scope module _146_ $end
$var wire 1 @" A $end
$var wire 1 7# B $end
$var wire 1 w Y $end
$upscope $end
$scope module _147_ $end
$var wire 1 x A $end
$var wire 1 w B $end
$var wire 1 8# Y $end
$upscope $end
$scope module _148_ $end
$var wire 1 < A $end
$var wire 1 9# B $end
$var wire 1 v Y $end
$upscope $end
$scope module _149_ $end
$var wire 1 @" A $end
$var wire 1 :# B $end
$var wire 1 u Y $end
$upscope $end
$scope module _150_ $end
$var wire 1 v A $end
$var wire 1 u B $end
$var wire 1 ;# Y $end
$upscope $end
$scope module _151_ $end
$var wire 1 < A $end
$var wire 1 <# B $end
$var wire 1 t Y $end
$upscope $end
$scope module _152_ $end
$var wire 1 @" A $end
$var wire 1 =# B $end
$var wire 1 s Y $end
$upscope $end
$scope module _153_ $end
$var wire 1 t A $end
$var wire 1 s B $end
$var wire 1 ># Y $end
$upscope $end
$scope module _154_ $end
$var wire 1 < A $end
$var wire 1 ?# B $end
$var wire 1 r Y $end
$upscope $end
$scope module _155_ $end
$var wire 1 @" A $end
$var wire 1 @# B $end
$var wire 1 q Y $end
$upscope $end
$scope module _156_ $end
$var wire 1 r A $end
$var wire 1 q B $end
$var wire 1 A# Y $end
$upscope $end
$scope module _157_ $end
$var wire 1 < A $end
$var wire 1 B# B $end
$var wire 1 p Y $end
$upscope $end
$scope module _158_ $end
$var wire 1 @" A $end
$var wire 1 C# B $end
$var wire 1 o Y $end
$upscope $end
$scope module _159_ $end
$var wire 1 p A $end
$var wire 1 o B $end
$var wire 1 D# Y $end
$upscope $end
$scope module _160_ $end
$var wire 1 < A $end
$var wire 1 E# B $end
$var wire 1 n Y $end
$upscope $end
$scope module _161_ $end
$var wire 1 @" A $end
$var wire 1 F# B $end
$var wire 1 m Y $end
$upscope $end
$scope module _162_ $end
$var wire 1 n A $end
$var wire 1 m B $end
$var wire 1 G# Y $end
$upscope $end
$scope module _163_ $end
$var wire 1 < A $end
$var wire 1 H# B $end
$var wire 1 l Y $end
$upscope $end
$scope module _164_ $end
$var wire 1 @" A $end
$var wire 1 I# B $end
$var wire 1 k Y $end
$upscope $end
$scope module _165_ $end
$var wire 1 l A $end
$var wire 1 k B $end
$var wire 1 J# Y $end
$upscope $end
$scope module _166_ $end
$var wire 1 < A $end
$var wire 1 K# B $end
$var wire 1 j Y $end
$upscope $end
$scope module _167_ $end
$var wire 1 @" A $end
$var wire 1 L# B $end
$var wire 1 i Y $end
$upscope $end
$scope module _168_ $end
$var wire 1 j A $end
$var wire 1 i B $end
$var wire 1 M# Y $end
$upscope $end
$scope module _169_ $end
$var wire 1 N# B $end
$var wire 1 h Y $end
$var wire 1 _ A $end
$upscope $end
$scope module _170_ $end
$var wire 1 h A $end
$var wire 1 S" Y $end
$upscope $end
$scope module _171_ $end
$var wire 1 = A $end
$var wire 1 Q" Y $end
$upscope $end
$scope module _172_ $end
$var wire 1 = A $end
$var wire 1 P" Y $end
$upscope $end
$scope module _173_ $end
$var wire 1 = A $end
$var wire 1 O" Y $end
$upscope $end
$scope module _174_ $end
$var wire 1 = A $end
$var wire 1 N" Y $end
$upscope $end
$scope module _175_ $end
$var wire 1 = A $end
$var wire 1 M" Y $end
$upscope $end
$scope module _176_ $end
$var wire 1 = A $end
$var wire 1 L" Y $end
$upscope $end
$scope module _177_ $end
$var wire 1 = A $end
$var wire 1 K" Y $end
$upscope $end
$scope module _178_ $end
$var wire 1 = A $end
$var wire 1 J" Y $end
$upscope $end
$scope module _179_ $end
$var wire 1 = A $end
$var wire 1 I" Y $end
$upscope $end
$scope module _180_ $end
$var wire 1 = A $end
$var wire 1 H" Y $end
$upscope $end
$scope module _181_ $end
$var wire 1 = A $end
$var wire 1 G" Y $end
$upscope $end
$scope module _182_ $end
$var wire 1 = A $end
$var wire 1 F" Y $end
$upscope $end
$scope module _183_ $end
$var wire 1 = A $end
$var wire 1 E" Y $end
$upscope $end
$scope module _184_ $end
$var wire 1 = A $end
$var wire 1 D" Y $end
$upscope $end
$scope module _185_ $end
$var wire 1 = A $end
$var wire 1 C" Y $end
$upscope $end
$scope module _186_ $end
$var wire 1 = A $end
$var wire 1 B" Y $end
$upscope $end
$scope module _187_ $end
$var wire 1 = A $end
$var wire 1 A" Y $end
$upscope $end
$scope module _188_ $end
$var wire 1 = C $end
$var wire 1 O# D $end
$var reg 1 P# Q $end
$upscope $end
$scope module _189_ $end
$var wire 1 = C $end
$var wire 1 Q# D $end
$var reg 1 R# Q $end
$upscope $end
$scope module _190_ $end
$var wire 1 = C $end
$var wire 1 S# D $end
$var reg 1 T# Q $end
$upscope $end
$scope module _191_ $end
$var wire 1 = C $end
$var wire 1 U# D $end
$var reg 1 V# Q $end
$upscope $end
$scope module _192_ $end
$var wire 1 = C $end
$var wire 1 W# D $end
$var reg 1 X# Q $end
$upscope $end
$scope module _193_ $end
$var wire 1 = C $end
$var wire 1 Y# D $end
$var reg 1 Z# Q $end
$upscope $end
$scope module _194_ $end
$var wire 1 = C $end
$var wire 1 [# D $end
$var reg 1 \# Q $end
$upscope $end
$scope module _195_ $end
$var wire 1 = C $end
$var wire 1 ]# D $end
$var reg 1 ^# Q $end
$upscope $end
$scope module _196_ $end
$var wire 1 = C $end
$var wire 1 _# D $end
$var reg 1 `# Q $end
$upscope $end
$scope module _197_ $end
$var wire 1 = C $end
$var wire 1 a# D $end
$var reg 1 b# Q $end
$upscope $end
$scope module _198_ $end
$var wire 1 = C $end
$var wire 1 c# D $end
$var reg 1 d# Q $end
$upscope $end
$scope module _199_ $end
$var wire 1 = C $end
$var wire 1 e# D $end
$var reg 1 f# Q $end
$upscope $end
$scope module _200_synt_ $end
$var wire 1 = C $end
$var wire 1 g# D $end
$var reg 1 h# Q $end
$upscope $end
$scope module _201_synt_ $end
$var wire 1 = C $end
$var wire 1 i# D $end
$var reg 1 j# Q $end
$upscope $end
$scope module _202_ $end
$var wire 1 = C $end
$var wire 1 k# D $end
$var reg 1 l# Q $end
$upscope $end
$scope module _203_ $end
$var wire 1 = C $end
$var wire 1 m# D $end
$var reg 1 n# Q $end
$upscope $end
$scope module _204_ $end
$var wire 1 = C $end
$var wire 1 T" D $end
$var reg 1 0 Q $end
$upscope $end
$scope module _205_ $end
$var wire 1 = C $end
$var wire 1 S" D $end
$var reg 1 - Q $end
$upscope $end
$scope module _206_ $end
$var wire 1 R" C $end
$var wire 1 o# D $end
$var reg 1 p# Q $end
$upscope $end
$scope module _207_ $end
$var wire 1 Q" C $end
$var wire 1 q# D $end
$var reg 1 r# Q $end
$upscope $end
$scope module _208_ $end
$var wire 1 P" C $end
$var wire 1 s# D $end
$var reg 1 t# Q $end
$upscope $end
$scope module _209_ $end
$var wire 1 O" C $end
$var wire 1 u# D $end
$var reg 1 v# Q $end
$upscope $end
$scope module _210_synt_ $end
$var wire 1 N" C $end
$var wire 1 w# D $end
$var reg 1 x# Q $end
$upscope $end
$scope module _211_synt_ $end
$var wire 1 M" C $end
$var wire 1 y# D $end
$var reg 1 z# Q $end
$upscope $end
$scope module _212_ $end
$var wire 1 L" C $end
$var wire 1 {# D $end
$var reg 1 |# Q $end
$upscope $end
$scope module _213_ $end
$var wire 1 K" C $end
$var wire 1 }# D $end
$var reg 1 ~# Q $end
$upscope $end
$scope module _214_ $end
$var wire 1 J" C $end
$var wire 1 !$ D $end
$var reg 1 "$ Q $end
$upscope $end
$scope module _215_ $end
$var wire 1 I" C $end
$var wire 1 #$ D $end
$var reg 1 $$ Q $end
$upscope $end
$scope module _216_ $end
$var wire 1 H" C $end
$var wire 1 %$ D $end
$var reg 1 &$ Q $end
$upscope $end
$scope module _217_ $end
$var wire 1 G" C $end
$var wire 1 '$ D $end
$var reg 1 ($ Q $end
$upscope $end
$scope module _218_ $end
$var wire 1 F" C $end
$var wire 1 )$ D $end
$var reg 1 *$ Q $end
$upscope $end
$scope module _219_ $end
$var wire 1 E" C $end
$var wire 1 +$ D $end
$var reg 1 ,$ Q $end
$upscope $end
$scope module _220_ $end
$var wire 1 D" C $end
$var wire 1 -$ D $end
$var reg 1 .$ Q $end
$upscope $end
$scope module _221_ $end
$var wire 1 C" C $end
$var wire 1 /$ D $end
$var reg 1 0$ Q $end
$upscope $end
$scope module _222_ $end
$var wire 1 B" C $end
$var wire 1 1$ D $end
$var reg 1 2$ Q $end
$upscope $end
$scope module _223_ $end
$var wire 1 A" C $end
$var wire 1 3$ D $end
$var reg 1 4$ Q $end
$upscope $end
$scope module _224_ $end
$var wire 1 = C $end
$var wire 1 3 D $end
$var reg 1 _ Q $end
$upscope $end
$upscope $end
$upscope $end
$enddefinitions $end
#0
$dumpvars
x4$
x3$
x2$
x1$
x0$
x/$
x.$
x-$
x,$
x+$
x*$
x)$
x($
x'$
x&$
x%$
x$$
x#$
x"$
x!$
x~#
x}#
x|#
x{#
xz#
xy#
xx#
xw#
xv#
xu#
xt#
xs#
xr#
xq#
xp#
xo#
xn#
0m#
xl#
0k#
xj#
0i#
xh#
0g#
xf#
0e#
xd#
0c#
xb#
0a#
x`#
0_#
x^#
0]#
x\#
0[#
xZ#
0Y#
xX#
0W#
xV#
0U#
xT#
0S#
xR#
0Q#
xP#
0O#
xN#
xM#
xL#
xK#
xJ#
xI#
xH#
xG#
xF#
xE#
xD#
xC#
xB#
xA#
x@#
x?#
x>#
x=#
x<#
x;#
x:#
x9#
x8#
x7#
x6#
x5#
04#
x3#
02#
x1#
00#
x/#
0.#
x-#
0,#
x+#
0*#
x)#
0(#
x'#
0&#
x%#
x$#
0##
x"#
0!#
x~"
0}"
x|"
0{"
xz"
0y"
xx"
0w"
xv"
0u"
xt"
0s"
xr"
xq"
xp"
xo"
xn"
xm"
xl"
xk"
xj"
xi"
xh"
xg"
xf"
xe"
xd"
xc"
xb"
xa"
x`"
x_"
x^"
x]"
x\"
x["
xZ"
xY"
b0 X"
b0 W"
bx V"
bx U"
0T"
0S"
0R"
0Q"
0P"
0O"
0N"
0M"
0L"
0K"
0J"
0I"
0H"
0G"
0F"
0E"
0D"
0C"
0B"
0A"
1@"
1?"
x>"
1="
x<"
1;"
x:"
19"
x8"
17"
x6"
15"
x4"
13"
x2"
11"
x0"
1/"
x."
1-"
1,"
1+"
1*"
1)"
1("
1'"
1&"
1%"
1$"
1#"
1""
1!"
1~
1}
1|
1{
1z
xy
1x
xw
1v
xu
1t
xs
1r
xq
1p
xo
1n
xm
1l
xk
1j
xi
1h
bx g
bx f
bx e
bx d
bx c
bx b
bx a
bx `
0_
bx ^
bx ]
bx \
bx [
0Z
0Y
0X
0W
b0 V
bx U
b0 T
bx S
b0 R
bx Q
b0 P
bx O
bx N
bx M
b0 L
b0 K
0J
bx I
bx H
b0 G
b0 F
bx E
bx D
bx C
bx B
bx A
bx @
bx ?
bx >
1=
0<
bx ;
b0 :
bx 9
bx 8
b0 7
bx 6
bx 5
bx 4
03
x2
01
x0
x/
0.
x-
x,
x+
x*
z)
z(
x'
z&
z%
z$
z#
z"
z!
$end
#2
1R"
1Q"
1P"
1O"
1N"
1M"
1L"
1K"
1J"
1I"
1H"
1G"
1F"
1E"
1D"
1C"
1B"
1A"
0=
#4
0%$
0'$
0)$
0+$
0-$
0/$
01$
03$
0q#
0s#
0u#
0w#
0y#
0{#
0}#
0!$
0#$
0o#
0\"
0_"
0b"
0e"
0h"
0k"
0n"
0q"
08#
0;#
0>#
0A#
0D#
0G#
0J#
0M#
b0 U"
0Y"
b0 V"
05#
0["
0^"
0a"
0d"
0g"
0j"
0m"
0p"
0Z"
0]"
0`"
0c"
0f"
0i"
0l"
0o"
07#
0:#
0=#
0@#
0C#
0F#
0I#
0L#
06#
09#
0<#
0?#
0B#
0E#
0H#
0K#
0-
00
0n#
0l#
0j#
0h#
0f#
0d#
0b#
b0 6
b0 M
b0 f
0`#
0^#
0\#
0Z#
0X#
0V#
0T#
0R#
b0 9
b0 N
b0 g
0P#
0+
0,
0/
02
b0 `
b0 >
b0 4
b0 B
b0 U
b0 ^
b0 a
b0 ?
b0 5
b0 C
b0 S
b0 ]
b0 b
b0 @
b0 8
b0 D
b0 Q
b0 \
b0 d
b0 A
b0 ;
b0 E
b0 O
b0 [
1>"
1<"
1:"
18"
16"
14"
12"
10"
1."
1y
1w
1u
1s
1q
1o
1m
1k
1i
1?"
1="
1;"
19"
17"
15"
13"
11"
1/"
1z
1x
1v
1t
1r
1p
1n
1l
1j
0R"
0Q"
0P"
0O"
0N"
0M"
0L"
0K"
0J"
0I"
0H"
0G"
0F"
0E"
0D"
0C"
0B"
0A"
0@"
1=
1<
#6
0$#
0%#
0'#
0)#
0+#
0-#
0/#
01#
03#
0N#
0r"
0t"
0v"
0x"
0z"
0|"
0~"
0"#
0p#
0r#
0t#
0v#
0x#
0z#
0|#
0~#
b0 e
0"$
0$$
0&$
0($
0*$
0,$
0.$
00$
02$
b0 c
04$
b0 I
b0 H
1R"
1Q"
1P"
1O"
1N"
1M"
1L"
1K"
1J"
1I"
1H"
1G"
1F"
1E"
1D"
1C"
1B"
1A"
0=
#7
13
#8
1J
1_
0R"
0Q"
0P"
0O"
0N"
0M"
0L"
0K"
0J"
0I"
0H"
0G"
0F"
0E"
0D"
0C"
0B"
0A"
1@"
1=
0<
#10
1R"
1Q"
1P"
1O"
1N"
1M"
1L"
1K"
1J"
1I"
1H"
1G"
1F"
1E"
1D"
1C"
1B"
1A"
0=
#11
1W
1X
1Y
1Z
b11001100 V
b11011101 T
b11101110 R
b11111111 P
#12
1%$
1)$
1+$
1-$
11$
13$
1q#
1s#
1u#
1w#
1y#
1{#
1}#
1!$
1#$
1o#
1\"
1b"
1e"
1h"
1n"
1q"
18#
1;#
1>#
1A#
1D#
1G#
1J#
1M#
b110111011 U"
1Y"
b111111111 V"
15#
0="
09"
07"
05"
01"
0/"
0x
0v
0t
0r
0p
0n
0l
0j
0?"
0z
1a"
1d"
1m"
1p"
1Z"
1`"
1c"
1f"
1l"
1o"
1:#
1=#
1@#
1F#
1I#
1L#
16#
19#
1<#
1?#
1B#
1E#
1H#
1K#
1+
1,
1/
12
b110011001 `
b110011001 >
b11001100 4
b11001100 B
b11001100 U
b11001100 ^
b110111011 a
b110111011 ?
b11011101 5
b11011101 C
b11011101 S
b11011101 ]
b111011101 b
b111011101 @
b11101110 8
b11101110 D
b11101110 Q
b11101110 \
b111111111 d
b111111111 A
b11111111 ;
b11111111 E
b11111111 O
b11111111 [
0R"
0Q"
0P"
0O"
0N"
0M"
0L"
0K"
0J"
0I"
0H"
0G"
0F"
0E"
0D"
0C"
0B"
0A"
0@"
1=
1<
#14
1O#
1Q#
1S#
1U#
1W#
1Y#
1[#
1]#
1_#
1c#
1e#
1g#
1k#
1m#
1T"
1&#
1(#
1*#
1,#
1.#
10#
12#
b11111111 X"
14#
1S"
1s"
1w"
1y"
1{"
1!#
b11011101 W"
1##
0%"
0$"
0#"
0""
0!"
0~
0}
0|
0{
0h
0-"
0+"
0*"
0)"
0'"
0&"
1$#
1%#
1'#
1)#
1+#
1-#
1/#
11#
13#
1N#
1r"
1v"
1x"
1z"
1~"
1"#
1p#
1r#
1t#
1v#
1x#
1z#
1|#
1~#
b111111111 e
1"$
1$$
1&$
1*$
1,$
1.$
12$
b110111011 c
14$
b110111011 I
b111111111 H
1R"
1Q"
1P"
1O"
1N"
1M"
1L"
1K"
1J"
1I"
1H"
1G"
1F"
1E"
1D"
1C"
1B"
1A"
0=
