MUXL1/muxl1.vcd
$date
	Tue May 25 16:17:20 2021
$end
$version
	Icarus Verilog
$end
$timescale
	1s
$end
$scope module BUF $end
$var wire 1 ! A $end
$var wire 1 " Y $end
$upscope $end
$scope module DFFSR $end
$var wire 1 # C $end
$var wire 1 $ D $end
$var wire 1 % R $end
$var wire 1 & S $end
$var reg 1 ' Q $end
$upscope $end
$scope module NOR $end
$var wire 1 ( A $end
$var wire 1 ) B $end
$var wire 1 * Y $end
$upscope $end
$scope module testbench $end
$var wire 1 + valid_3 $end
$var wire 1 , valid_2 $end
$var wire 1 - valid_11_synt $end
$var wire 1 . valid_11_cond $end
$var wire 1 / valid_1 $end
$var wire 1 0 valid_00_synt $end
$var wire 1 1 valid_00_cond $end
$var wire 1 2 valid_0 $end
$var wire 8 3 data_3 [7:0] $end
$var wire 8 4 data_2 [7:0] $end
$var wire 8 5 data_11_synt [7:0] $end
$var wire 8 6 data_11_cond [7:0] $end
$var wire 8 7 data_1 [7:0] $end
$var wire 8 8 data_00_synt [7:0] $end
$var wire 8 9 data_00_cond [7:0] $end
$var wire 8 : data_0 [7:0] $end
$var wire 1 ; clk_f $end
$var wire 1 < clk_2f $end
$scope module COND $end
$var wire 1 + valid_3 $end
$var wire 1 , valid_2 $end
$var wire 1 / valid_1 $end
$var wire 1 2 valid_0 $end
$var wire 9 = paq_3_x [8:0] $end
$var wire 9 > paq_2_x [8:0] $end
$var wire 9 ? paq_1_x [8:0] $end
$var wire 9 @ paq_0_x [8:0] $end
$var wire 8 A data_3 [7:0] $end
$var wire 8 B data_2 [7:0] $end
$var wire 8 C data_1 [7:0] $end
$var wire 8 D data_0 [7:0] $end
$var wire 1 ; clk_f $end
$var wire 1 < clk_2f $end
$var reg 8 E data_00_cond [7:0] $end
$var reg 8 F data_11_cond [7:0] $end
$var reg 9 G paq_00 [8:0] $end
$var reg 9 H paq_11 [8:0] $end
$var reg 1 1 valid_00_cond $end
$var reg 1 . valid_11_cond $end
$upscope $end
$scope module PROB $end
$var wire 8 I data_00_cond [7:0] $end
$var wire 8 J data_11_cond [7:0] $end
$var wire 1 1 valid_00_cond $end
$var wire 1 . valid_11_cond $end
$var wire 1 - valid_11_synt $end
$var wire 1 0 valid_00_synt $end
$var wire 8 K data_11_synt [7:0] $end
$var wire 8 L data_00_synt [7:0] $end
$var reg 1 < clk_2f $end
$var reg 1 ; clk_f $end
$var reg 8 M data_0 [7:0] $end
$var reg 8 N data_0_n [7:0] $end
$var reg 8 O data_1 [7:0] $end
$var reg 8 P data_1_n [7:0] $end
$var reg 8 Q data_2 [7:0] $end
$var reg 8 R data_2_n [7:0] $end
$var reg 8 S data_3 [7:0] $end
$var reg 8 T data_3_n [7:0] $end
$var reg 1 2 valid_0 $end
$var reg 1 U valid_0_n $end
$var reg 1 / valid_1 $end
$var reg 1 V valid_1_n $end
$var reg 1 , valid_2 $end
$var reg 1 W valid_2_n $end
$var reg 1 + valid_3 $end
$var reg 1 X valid_3_n $end
$scope begin CLK_BEHAVIOR $end
$upscope $end
$scope begin CLK_INIT $end
$upscope $end
$scope begin FILE_OUTPUT $end
$upscope $end
$scope begin OUTPUTS_BEHAVIOR $end
$upscope $end
$upscope $end
$scope module SYNT $end
$var wire 1 < clk_2f $end
$var wire 1 ; clk_f $end
$var wire 8 Y data_0 [7:0] $end
$var wire 8 Z data_1 [7:0] $end
$var wire 8 [ data_2 [7:0] $end
$var wire 8 \ data_3 [7:0] $end
$var wire 1 2 valid_0 $end
$var wire 1 / valid_1 $end
$var wire 1 , valid_2 $end
$var wire 1 + valid_3 $end
$var wire 1 - valid_11_synt $end
$var wire 1 0 valid_00_synt $end
$var wire 9 ] paq_3_x [8:0] $end
$var wire 9 ^ paq_2_x [8:0] $end
$var wire 9 _ paq_1_x [8:0] $end
$var wire 9 ` paq_11 [8:0] $end
$var wire 9 a paq_0_x [8:0] $end
$var wire 9 b paq_00 [8:0] $end
$var wire 8 c data_11_synt [7:0] $end
$var wire 8 d data_00_synt [7:0] $end
$var wire 1 e _056_ $end
$var wire 1 f _055_ $end
$var wire 1 g _054_ $end
$var wire 1 h _053_ $end
$var wire 1 i _052_ $end
$var wire 1 j _051_ $end
$var wire 1 k _050_ $end
$var wire 1 l _049_ $end
$var wire 1 m _048_ $end
$var wire 1 n _047_ $end
$var wire 1 o _046_ $end
$var wire 1 p _045_ $end
$var wire 1 q _044_ $end
$var wire 1 r _043_ $end
$var wire 1 s _042_ $end
$var wire 1 t _041_ $end
$var wire 1 u _040_ $end
$var wire 1 v _039_ $end
$var wire 1 w _038_ $end
$var wire 1 x _037_ $end
$var wire 1 y _036_ $end
$var wire 1 z _035_ $end
$var wire 1 { _034_ $end
$var wire 1 | _033_ $end
$var wire 1 } _032_ $end
$var wire 1 ~ _031_ $end
$var wire 1 !" _030_ $end
$var wire 1 "" _029_ $end
$var wire 1 #" _028_ $end
$var wire 1 $" _027_ $end
$var wire 1 %" _026_ $end
$var wire 1 &" _025_ $end
$var wire 1 '" _024_ $end
$var wire 1 (" _023_ $end
$var wire 1 )" _022_ $end
$var wire 1 *" _021_ $end
$var wire 1 +" _020_ $end
$var wire 1 ," _019_ $end
$var wire 1 -" _018_ $end
$var wire 1 ." _017_ $end
$var wire 1 /" _016_ $end
$var wire 1 0" _015_ $end
$var wire 1 1" _014_ $end
$var wire 1 2" _013_ $end
$var wire 1 3" _012_ $end
$var wire 1 4" _011_ $end
$var wire 1 5" _010_ $end
$var wire 1 6" _009_ $end
$var wire 1 7" _008_ $end
$var wire 1 8" _007_ $end
$var wire 1 9" _006_ $end
$var wire 1 :" _005_ $end
$var wire 1 ;" _004_ $end
$var wire 1 <" _003_ $end
$var wire 1 =" _002_ $end
$var wire 9 >" _001_ [8:0] $end
$var wire 9 ?" _000_ [8:0] $end
$scope module _057_ $end
$var wire 1 < A $end
$var wire 1 ," Y $end
$upscope $end
$scope module _058_ $end
$var wire 1 ; A $end
$var wire 1 u Y $end
$upscope $end
$scope module _059_ $end
$var wire 1 @" A $end
$var wire 1 ; B $end
$var wire 1 t Y $end
$upscope $end
$scope module _060_ $end
$var wire 1 A" A $end
$var wire 1 u B $end
$var wire 1 s Y $end
$upscope $end
$scope module _061_ $end
$var wire 1 t A $end
$var wire 1 s B $end
$var wire 1 B" Y $end
$upscope $end
$scope module _062_ $end
$var wire 1 ; A $end
$var wire 1 C" B $end
$var wire 1 r Y $end
$upscope $end
$scope module _063_ $end
$var wire 1 u A $end
$var wire 1 D" B $end
$var wire 1 q Y $end
$upscope $end
$scope module _064_ $end
$var wire 1 r A $end
$var wire 1 q B $end
$var wire 1 E" Y $end
$upscope $end
$scope module _065_ $end
$var wire 1 ; A $end
$var wire 1 F" B $end
$var wire 1 p Y $end
$upscope $end
$scope module _066_ $end
$var wire 1 u A $end
$var wire 1 G" B $end
$var wire 1 o Y $end
$upscope $end
$scope module _067_ $end
$var wire 1 p A $end
$var wire 1 o B $end
$var wire 1 H" Y $end
$upscope $end
$scope module _068_ $end
$var wire 1 ; A $end
$var wire 1 I" B $end
$var wire 1 n Y $end
$upscope $end
$scope module _069_ $end
$var wire 1 u A $end
$var wire 1 J" B $end
$var wire 1 m Y $end
$upscope $end
$scope module _070_ $end
$var wire 1 n A $end
$var wire 1 m B $end
$var wire 1 K" Y $end
$upscope $end
$scope module _071_ $end
$var wire 1 ; A $end
$var wire 1 L" B $end
$var wire 1 l Y $end
$upscope $end
$scope module _072_ $end
$var wire 1 u A $end
$var wire 1 M" B $end
$var wire 1 k Y $end
$upscope $end
$scope module _073_ $end
$var wire 1 l A $end
$var wire 1 k B $end
$var wire 1 N" Y $end
$upscope $end
$scope module _074_ $end
$var wire 1 ; A $end
$var wire 1 O" B $end
$var wire 1 j Y $end
$upscope $end
$scope module _075_ $end
$var wire 1 u A $end
$var wire 1 P" B $end
$var wire 1 i Y $end
$upscope $end
$scope module _076_ $end
$var wire 1 j A $end
$var wire 1 i B $end
$var wire 1 Q" Y $end
$upscope $end
$scope module _077_ $end
$var wire 1 ; A $end
$var wire 1 R" B $end
$var wire 1 h Y $end
$upscope $end
$scope module _078_ $end
$var wire 1 u A $end
$var wire 1 S" B $end
$var wire 1 g Y $end
$upscope $end
$scope module _079_ $end
$var wire 1 h A $end
$var wire 1 g B $end
$var wire 1 T" Y $end
$upscope $end
$scope module _080_ $end
$var wire 1 ; A $end
$var wire 1 U" B $end
$var wire 1 f Y $end
$upscope $end
$scope module _081_ $end
$var wire 1 u A $end
$var wire 1 V" B $end
$var wire 1 e Y $end
$upscope $end
$scope module _082_ $end
$var wire 1 f A $end
$var wire 1 e B $end
$var wire 1 W" Y $end
$upscope $end
$scope module _083_ $end
$var wire 1 ; A $end
$var wire 1 2 B $end
$var wire 1 +" Y $end
$upscope $end
$scope module _084_ $end
$var wire 1 u A $end
$var wire 1 / B $end
$var wire 1 *" Y $end
$upscope $end
$scope module _085_ $end
$var wire 1 +" A $end
$var wire 1 *" B $end
$var wire 1 X" Y $end
$upscope $end
$scope module _086_ $end
$var wire 1 ; A $end
$var wire 1 Y" B $end
$var wire 1 )" Y $end
$upscope $end
$scope module _087_ $end
$var wire 1 u A $end
$var wire 1 Z" B $end
$var wire 1 (" Y $end
$upscope $end
$scope module _088_ $end
$var wire 1 )" A $end
$var wire 1 (" B $end
$var wire 1 [" Y $end
$upscope $end
$scope module _089_ $end
$var wire 1 ; A $end
$var wire 1 \" B $end
$var wire 1 '" Y $end
$upscope $end
$scope module _090_ $end
$var wire 1 u A $end
$var wire 1 ]" B $end
$var wire 1 &" Y $end
$upscope $end
$scope module _091_ $end
$var wire 1 '" A $end
$var wire 1 &" B $end
$var wire 1 ^" Y $end
$upscope $end
$scope module _092_ $end
$var wire 1 ; A $end
$var wire 1 _" B $end
$var wire 1 %" Y $end
$upscope $end
$scope module _093_ $end
$var wire 1 u A $end
$var wire 1 `" B $end
$var wire 1 $" Y $end
$upscope $end
$scope module _094_ $end
$var wire 1 %" A $end
$var wire 1 $" B $end
$var wire 1 a" Y $end
$upscope $end
$scope module _095_ $end
$var wire 1 ; A $end
$var wire 1 b" B $end
$var wire 1 #" Y $end
$upscope $end
$scope module _096_ $end
$var wire 1 u A $end
$var wire 1 c" B $end
$var wire 1 "" Y $end
$upscope $end
$scope module _097_ $end
$var wire 1 #" A $end
$var wire 1 "" B $end
$var wire 1 d" Y $end
$upscope $end
$scope module _098_ $end
$var wire 1 ; A $end
$var wire 1 e" B $end
$var wire 1 !" Y $end
$upscope $end
$scope module _099_ $end
$var wire 1 u A $end
$var wire 1 f" B $end
$var wire 1 ~ Y $end
$upscope $end
$scope module _100_ $end
$var wire 1 !" A $end
$var wire 1 ~ B $end
$var wire 1 g" Y $end
$upscope $end
$scope module _101_ $end
$var wire 1 ; A $end
$var wire 1 h" B $end
$var wire 1 } Y $end
$upscope $end
$scope module _102_ $end
$var wire 1 u A $end
$var wire 1 i" B $end
$var wire 1 | Y $end
$upscope $end
$scope module _103_ $end
$var wire 1 } A $end
$var wire 1 | B $end
$var wire 1 j" Y $end
$upscope $end
$scope module _104_ $end
$var wire 1 ; A $end
$var wire 1 k" B $end
$var wire 1 { Y $end
$upscope $end
$scope module _105_ $end
$var wire 1 u A $end
$var wire 1 l" B $end
$var wire 1 z Y $end
$upscope $end
$scope module _106_ $end
$var wire 1 { A $end
$var wire 1 z B $end
$var wire 1 m" Y $end
$upscope $end
$scope module _107_ $end
$var wire 1 ; A $end
$var wire 1 n" B $end
$var wire 1 y Y $end
$upscope $end
$scope module _108_ $end
$var wire 1 u A $end
$var wire 1 o" B $end
$var wire 1 x Y $end
$upscope $end
$scope module _109_ $end
$var wire 1 y A $end
$var wire 1 x B $end
$var wire 1 p" Y $end
$upscope $end
$scope module _110_ $end
$var wire 1 ; A $end
$var wire 1 , B $end
$var wire 1 w Y $end
$upscope $end
$scope module _111_ $end
$var wire 1 u A $end
$var wire 1 + B $end
$var wire 1 v Y $end
$upscope $end
$scope module _112_ $end
$var wire 1 w A $end
$var wire 1 v B $end
$var wire 1 q" Y $end
$upscope $end
$scope module _113_ $end
$var wire 1 < A $end
$var wire 1 =" Y $end
$upscope $end
$scope module _114_ $end
$var wire 1 < A $end
$var wire 1 <" Y $end
$upscope $end
$scope module _115_ $end
$var wire 1 < A $end
$var wire 1 ;" Y $end
$upscope $end
$scope module _116_ $end
$var wire 1 < A $end
$var wire 1 :" Y $end
$upscope $end
$scope module _117_ $end
$var wire 1 < A $end
$var wire 1 9" Y $end
$upscope $end
$scope module _118_ $end
$var wire 1 < A $end
$var wire 1 8" Y $end
$upscope $end
$scope module _119_ $end
$var wire 1 < A $end
$var wire 1 7" Y $end
$upscope $end
$scope module _120_ $end
$var wire 1 < A $end
$var wire 1 6" Y $end
$upscope $end
$scope module _121_ $end
$var wire 1 < A $end
$var wire 1 5" Y $end
$upscope $end
$scope module _122_ $end
$var wire 1 < A $end
$var wire 1 4" Y $end
$upscope $end
$scope module _123_ $end
$var wire 1 < A $end
$var wire 1 3" Y $end
$upscope $end
$scope module _124_ $end
$var wire 1 < A $end
$var wire 1 2" Y $end
$upscope $end
$scope module _125_ $end
$var wire 1 < A $end
$var wire 1 1" Y $end
$upscope $end
$scope module _126_ $end
$var wire 1 < A $end
$var wire 1 0" Y $end
$upscope $end
$scope module _127_ $end
$var wire 1 < A $end
$var wire 1 /" Y $end
$upscope $end
$scope module _128_ $end
$var wire 1 < A $end
$var wire 1 ." Y $end
$upscope $end
$scope module _129_ $end
$var wire 1 < A $end
$var wire 1 -" Y $end
$upscope $end
$scope module _130_ $end
$var wire 1 =" C $end
$var wire 1 r" D $end
$var reg 1 s" Q $end
$upscope $end
$scope module _131_ $end
$var wire 1 <" C $end
$var wire 1 t" D $end
$var reg 1 u" Q $end
$upscope $end
$scope module _132_ $end
$var wire 1 ;" C $end
$var wire 1 v" D $end
$var reg 1 w" Q $end
$upscope $end
$scope module _133_ $end
$var wire 1 :" C $end
$var wire 1 x" D $end
$var reg 1 y" Q $end
$upscope $end
$scope module _134_ $end
$var wire 1 9" C $end
$var wire 1 z" D $end
$var reg 1 {" Q $end
$upscope $end
$scope module _135_ $end
$var wire 1 8" C $end
$var wire 1 |" D $end
$var reg 1 }" Q $end
$upscope $end
$scope module _136_ $end
$var wire 1 7" C $end
$var wire 1 ~" D $end
$var reg 1 !# Q $end
$upscope $end
$scope module _137_ $end
$var wire 1 6" C $end
$var wire 1 "# D $end
$var reg 1 ## Q $end
$upscope $end
$scope module _138_ $end
$var wire 1 5" C $end
$var wire 1 $# D $end
$var reg 1 %# Q $end
$upscope $end
$scope module _139_ $end
$var wire 1 4" C $end
$var wire 1 &# D $end
$var reg 1 '# Q $end
$upscope $end
$scope module _140_ $end
$var wire 1 3" C $end
$var wire 1 (# D $end
$var reg 1 )# Q $end
$upscope $end
$scope module _141_ $end
$var wire 1 2" C $end
$var wire 1 *# D $end
$var reg 1 +# Q $end
$upscope $end
$scope module _142_ $end
$var wire 1 1" C $end
$var wire 1 ,# D $end
$var reg 1 -# Q $end
$upscope $end
$scope module _143_ $end
$var wire 1 0" C $end
$var wire 1 .# D $end
$var reg 1 /# Q $end
$upscope $end
$scope module _144_ $end
$var wire 1 < C $end
$var wire 1 0# D $end
$var reg 1 1# Q $end
$upscope $end
$scope module _145_ $end
$var wire 1 < C $end
$var wire 1 2# D $end
$var reg 1 3# Q $end
$upscope $end
$scope module _146_ $end
$var wire 1 < C $end
$var wire 1 4# D $end
$var reg 1 5# Q $end
$upscope $end
$scope module _147_ $end
$var wire 1 < C $end
$var wire 1 6# D $end
$var reg 1 7# Q $end
$upscope $end
$scope module _148_ $end
$var wire 1 < C $end
$var wire 1 8# D $end
$var reg 1 9# Q $end
$upscope $end
$scope module _149_ $end
$var wire 1 < C $end
$var wire 1 :# D $end
$var reg 1 ;# Q $end
$upscope $end
$scope module _150_ $end
$var wire 1 < C $end
$var wire 1 <# D $end
$var reg 1 =# Q $end
$upscope $end
$scope module _151_ $end
$var wire 1 < C $end
$var wire 1 ># D $end
$var reg 1 ?# Q $end
$upscope $end
$scope module _152_ $end
$var wire 1 < C $end
$var wire 1 @# D $end
$var reg 1 A# Q $end
$upscope $end
$scope module _153_ $end
$var wire 1 < C $end
$var wire 1 B# D $end
$var reg 1 C# Q $end
$upscope $end
$scope module _154_ $end
$var wire 1 < C $end
$var wire 1 D# D $end
$var reg 1 E# Q $end
$upscope $end
$scope module _155_ $end
$var wire 1 < C $end
$var wire 1 F# D $end
$var reg 1 G# Q $end
$upscope $end
$scope module _156_ $end
$var wire 1 < C $end
$var wire 1 H# D $end
$var reg 1 I# Q $end
$upscope $end
$scope module _157_ $end
$var wire 1 < C $end
$var wire 1 J# D $end
$var reg 1 K# Q $end
$upscope $end
$scope module _158_ $end
$var wire 1 < C $end
$var wire 1 L# D $end
$var reg 1 M# Q $end
$upscope $end
$scope module _159_ $end
$var wire 1 < C $end
$var wire 1 N# D $end
$var reg 1 O# Q $end
$upscope $end
$scope module _160_ $end
$var wire 1 < C $end
$var wire 1 P# D $end
$var reg 1 0 Q $end
$upscope $end
$scope module _161_ $end
$var wire 1 < C $end
$var wire 1 Q# D $end
$var reg 1 - Q $end
$upscope $end
$scope module _162_ $end
$var wire 1 /" C $end
$var wire 1 R# D $end
$var reg 1 S# Q $end
$upscope $end
$scope module _163_ $end
$var wire 1 ." C $end
$var wire 1 T# D $end
$var reg 1 U# Q $end
$upscope $end
$scope module _164_ $end
$var wire 1 -" C $end
$var wire 1 V# D $end
$var reg 1 W# Q $end
$upscope $end
$scope module _165_ $end
$var wire 1 ," C $end
$var wire 1 X# D $end
$var reg 1 Y# Q $end
$upscope $end
$upscope $end
$upscope $end
$enddefinitions $end
#0
$dumpvars
xY#
xX#
xW#
xV#
xU#
xT#
xS#
xR#
xQ#
xP#
xO#
xN#
xM#
xL#
xK#
xJ#
xI#
xH#
xG#
xF#
xE#
xD#
xC#
xB#
xA#
x@#
x?#
x>#
x=#
x<#
x;#
x:#
x9#
x8#
x7#
x6#
x5#
x4#
x3#
x2#
x1#
x0#
x/#
x.#
x-#
x,#
x+#
x*#
x)#
x(#
x'#
x&#
x%#
x$#
x##
x"#
x!#
x~"
x}"
x|"
x{"
xz"
xy"
xx"
xw"
xv"
xu"
xt"
xs"
xr"
xq"
xp"
xo"
xn"
xm"
xl"
xk"
xj"
xi"
xh"
xg"
xf"
xe"
xd"
xc"
xb"
xa"
x`"
x_"
x^"
x]"
x\"
x["
xZ"
xY"
xX"
xW"
xV"
xU"
xT"
xS"
xR"
xQ"
xP"
xO"
xN"
xM"
xL"
xK"
xJ"
xI"
xH"
xG"
xF"
xE"
xD"
xC"
xB"
xA"
x@"
bx ?"
bx >"
0="
0<"
0;"
0:"
09"
08"
07"
06"
05"
04"
03"
02"
01"
00"
0/"
0."
0-"
0,"
1+"
x*"
1)"
x("
1'"
x&"
1%"
x$"
1#"
x""
1!"
x~
1}
x|
1{
xz
1y
xx
1w
xv
1u
1t
xs
1r
xq
1p
xo
1n
xm
1l
xk
1j
xi
1h
xg
1f
xe
bx d
bx c
bx b
bx a
bx `
bx _
bx ^
bx ]
bx \
bx [
bx Z
bx Y
xX
xW
xV
xU
bx T
bx S
bx R
bx Q
bx P
bx O
bx N
bx M
bx L
bx K
bx J
bx I
bx H
bx G
bx F
bx E
bx D
bx C
bx B
bx A
bx @
bx ?
bx >
bx =
1<
0;
bx :
bx 9
bx 8
bx 7
bx 6
bx 5
bx 4
bx 3
x2
x1
x0
x/
x.
x-
x,
x+
x*
z)
z(
x'
z&
z%
z$
z#
z"
z!
$end
#2
1,"
1="
1<"
1;"
1:"
19"
18"
17"
16"
15"
14"
13"
12"
11"
10"
1/"
1."
1-"
0<
#4
1s
1q
1o
1m
1k
1i
1g
1e
1*"
1("
1&"
1$"
1""
1~
1|
1z
1x
1v
xt
xr
xp
xn
xl
xj
xh
xf
x+"
x)"
x'"
x%"
x#"
x!"
x}
x{
xy
xw
0,"
0="
0<"
0;"
0:"
09"
08"
07"
06"
05"
04"
03"
02"
01"
00"
0/"
0."
0-"
0u
1<
1;
#6
1,"
1="
1<"
1;"
1:"
19"
18"
17"
16"
15"
14"
13"
12"
11"
10"
1/"
1."
1-"
0<
#8
x~"
x"#
x$#
x&#
x(#
x*#
x,#
x.#
xR#
xT#
xV#
xX#
xr"
xt"
xv"
xx"
xz"
x|"
xB"
xE"
xH"
xK"
xN"
xQ"
xT"
xW"
xX"
x["
x^"
xa"
xd"
xg"
xj"
xm"
bx ?"
xp"
bx >"
xq"
xs
xq
xo
xm
xk
xi
xg
xe
x*"
x("
x&"
x$"
x""
x~
x|
xz
xx
xv
1t
1r
1p
1n
1l
1j
1h
1f
1+"
1)"
1'"
1%"
1#"
1!"
1}
1{
1y
1w
0,"
0="
0<"
0;"
0:"
09"
08"
07"
06"
05"
04"
03"
02"
01"
00"
0/"
0."
0-"
1u
1<
0;
0U
0V
0W
0X
b1100011 T
b1001 R
b10000001 P
b100100 N
#10
1,"
1="
1<"
1;"
1:"
19"
18"
17"
16"
15"
14"
13"
12"
11"
10"
1/"
1."
1-"
0<
#12
1~"
0"#
0$#
1&#
0(#
0*#
0,#
0.#
0T#
0V#
1X#
0r"
0t"
1v"
0x"
0z"
0|"
0R#
1B"
0E"
0H"
1K"
0N"
0Q"
0T"
0W"
0["
0^"
1a"
0d"
0g"
1j"
0m"
0p"
b10010 >"
0q"
b1001000 ?"
0X"
1A"
1D"
0G"
0J"
0M"
1P"
1S"
0V"
1@"
0C"
0F"
1I"
0L"
0O"
0R"
0U"
1Z"
0]"
0`"
0c"
0f"
0i"
0l"
1o"
0Y"
0\"
1_"
0b"
0e"
1h"
0k"
0n"
0+
0,
0/
02
b11000110 ]
b11000110 =
b1100011 3
b1100011 A
b1100011 S
b1100011 \
b10010 ^
b10010 >
b1001 4
b1001 B
b1001 Q
b1001 [
b100000010 _
b100000010 ?
b10000001 7
b10000001 C
b10000001 O
b10000001 Z
b1001000 a
b1001000 @
b100100 :
b100100 D
b100100 M
b100100 Y
1s
1q
1o
1m
1k
1i
1g
1e
1*"
1("
1&"
1$"
1""
1~
1|
1z
1x
1v
0t
1r
1p
0n
1l
1j
1h
1f
1+"
1)"
1'"
0%"
1#"
1!"
0}
1{
1y
1w
0,"
0="
0<"
0;"
0:"
09"
08"
07"
06"
05"
04"
03"
02"
01"
00"
0/"
0."
0-"
0u
1<
1;
#14
14#
06#
08#
1:#
0<#
0>#
0Q#
1@#
0B#
0D#
1F#
0H#
0J#
0L#
0N#
0P#
00#
02#
1Y#
0s"
0u"
1w"
0y"
0{"
0}"
1!#
0##
0%#
1'#
0)#
0+#
0-#
b10010 `
0/#
0S#
0U#
b1001000 b
0W#
b10010 H
b1001000 G
1,"
1="
1<"
1;"
1:"
19"
18"
17"
16"
15"
14"
13"
12"
11"
10"
1/"
1."
1-"
0<
#16
b1001 6
b1001 F
b1001 J
0.
b100100 9
b100100 E
b100100 I
01
01#
03#
15#
07#
09#
1;#
0=#
b100100 8
b100100 L
b100100 d
0?#
1A#
0C#
0E#
1G#
0I#
0K#
0M#
b1001 5
b1001 K
b1001 c
0O#
00
0-
1"#
1*#
1,#
1T#
1z"
1E"
1Q"
1T"
1["
1p"
1~"
0&#
0X#
0v"
1B"
b11000110 >"
0K"
0a"
b100000010 ?"
0j"
0s
0q
0i
0g
0("
0x
1t
1n
1%"
1}
0,"
0="
0<"
0;"
0:"
09"
08"
07"
06"
05"
04"
03"
02"
01"
00"
0/"
0."
0-"
1u
1<
0;
b10010 T
b1100101 R
b10001101 P
b1101 N
#18
04#
0:#
1>#
1B#
0F#
1J#
1L#
10#
0Y#
0w"
1{"
1##
0'#
1+#
b11000110 `
1-#
b100000010 b
1U#
b11000110 H
b100000010 G
1,"
1="
1<"
1;"
1:"
19"
18"
17"
16"
15"
14"
13"
12"
11"
10"
1/"
1."
1-"
0<
#20
1$#
1r"
1H"
1d"
0p
0j
0h
0)"
0#"
0A"
1M"
0P"
0S"
1F"
0I"
1O"
1R"
1`"
1c"
1Y"
1b"
0h"
1M#
1K#
0G#
b1100011 5
b1100011 K
b1100011 c
1C#
1?#
0;#
05#
b10000001 8
b10000001 L
b10000001 d
11#
b1100011 6
b1100011 F
b1100011 J
b10000001 9
b10000001 E
b10000001 I
b100100 ]
b100100 =
b10010 3
b10010 A
b10010 S
b10010 \
b11001010 ^
b11001010 >
b1100101 4
b1100101 B
b1100101 Q
b1100101 [
b100011010 _
b100011010 ?
b10001101 7
b10001101 C
b10001101 O
b10001101 Z
b11010 a
b11010 @
b1101 :
b1101 D
b1101 M
b1101 Y
0"#
1*#
1,#
1T#
0z"
0E"
1Q"
1T"
1["
0p"
0&#
1X#
0v"
b11001010 >"
0K"
1a"
b11010 ?"
0j"
1s
1q
1i
1g
1("
1x
0t
1n
0%"
1}
0,"
0="
0<"
0;"
0:"
09"
08"
07"
06"
05"
04"
03"
02"
01"
00"
0/"
0."
0-"
0u
1<
1;
#22
14#
16#
0>#
0B#
1D#
1Y#
1s"
b11010 b
0{"
0##
b11001010 `
1%#
b11001010 H
b11010 G
1,"
1="
1<"
1;"
1:"
19"
18"
17"
16"
15"
14"
13"
12"
11"
10"
1/"
1."
1-"
0<
#24
b1100101 6
b1100101 F
b1100101 J
b1101 9
b1101 E
b1101 I
15#
17#
b1101 8
b1101 L
b1101 d
0?#
0C#
b1100101 5
b1100101 K
b1100101 c
1E#
1"#
1(#
1z"
1E"
1N"
1p"
0~"
0$#
0*#
0,#
1T#
1X#
1r"
0B"
0H"
0Q"
b100100 >"
0T"
1["
1a"
b100011010 ?"
1d"
0q
0k
0("
0$"
0""
0x
1t
1p
1j
1h
1)"
1%"
1#"
0,"
0="
0<"
0;"
0:"
09"
08"
07"
06"
05"
04"
03"
02"
01"
00"
0/"
0."
0-"
1u
1<
0;
1U
1V
1W
1X
b11001100 T
b11011101 R
b11101110 P
b11111111 N
#26
1>#
0@#
1B#
0D#
1H#
0J#
0L#
b100011010 b
1{"
0!#
1##
0%#
1)#
0+#
b100100 `
0-#
b100100 H
b100011010 G
1,"
1="
1<"
1;"
1:"
19"
18"
17"
16"
15"
14"
13"
12"
11"
10"
1/"
1."
1-"
0<
#28
1&#
1.#
1V#
1t"
1v"
1x"
1|"
1R#
1K"
1W"
1^"
1g"
1j"
1m"
1q"
1X"
0n
0l
0f
0'"
0!"
0}
0{
0y
0w
0+"
0D"
1G"
1J"
0M"
1S"
1V"
1I"
1L"
0O"
1U"
0Z"
1]"
1i"
1l"
1\"
1e"
1h"
1k"
1n"
0M#
0K#
1I#
0E#
1C#
b10010 5
b10010 K
b10010 c
0A#
b10001101 8
b10001101 L
b10001101 d
1?#
b10010 6
b10010 F
b10010 J
b10001101 9
b10001101 E
b10001101 I
1+
1,
1/
12
b110011001 ]
b110011001 =
b11001100 3
b11001100 A
b11001100 S
b11001100 \
b110111011 ^
b110111011 >
b11011101 4
b11011101 B
b11011101 Q
b11011101 [
b111011101 _
b111011101 ?
b11101110 7
b11101110 C
b11101110 O
b11101110 Z
b111111111 a
b111111111 @
b11111111 :
b11111111 D
b11111111 M
b11111111 Y
0"#
1(#
1z"
0E"
1N"
b111111111 ?"
1p"
1~"
1$#
0*#
1,#
1B"
1H"
0Q"
b110111011 >"
1T"
1q
1k
1("
1$"
1""
1x
0t
0p
1j
0h
0)"
0%"
0#"
0,"
0="
0<"
0;"
0:"
09"
08"
07"
06"
05"
04"
03"
02"
01"
00"
0/"
0."
0-"
0u
1<
1;
#30
18#
1:#
1<#
1Q#
1@#
0B#
1D#
1F#
1L#
1N#
1P#
12#
1u"
1w"
1y"
1}"
1!#
0##
1%#
1'#
1-#
b110111011 `
1/#
1S#
b111111111 b
1W#
b110111011 H
b111111111 G
1,"
1="
1<"
1;"
1:"
19"
18"
17"
16"
15"
14"
13"
12"
11"
10"
1/"
1."
1-"
0<
#32
b11011101 6
b11011101 F
b11011101 J
1.
b11111111 9
b11111111 E
b11111111 I
11
13#
19#
1;#
b11111111 8
b11111111 L
b11111111 d
1=#
1A#
0C#
1E#
1G#
1M#
b11011101 5
b11011101 K
b11011101 c
1O#
10
1-
0~"
1$#
1&#
0(#
1,#
1.#
1R#
0T#
1V#
1X#
1r"
0t"
1v"
1x"
1z"
1|"
0B"
1H"
1K"
0N"
1T"
1W"
1X"
0["
1^"
1a"
1d"
0g"
1j"
1m"
b111011101 ?"
1p"
b110011001 >"
1q"
0o
0m
0g
0e
0*"
0&"
0$"
0""
0|
0z
0x
0v
1t
1p
1n
1l
1h
1f
1+"
1)"
1'"
1%"
1#"
1!"
1}
1{
1y
1w
0,"
0="
0<"
0;"
0:"
09"
08"
07"
06"
05"
04"
03"
02"
01"
00"
0/"
0."
0-"
1u
1<
0;
b10001000 T
b10011001 R
b10101010 P
b10111011 N
#34
08#
0@#
0H#
00#
0u"
0!#
b110011001 `
0)#
b111011101 b
0U#
b110011001 H
b111011101 G
1,"
1="
1<"
1;"
1:"
19"
18"
17"
16"
15"
14"
13"
12"
11"
10"
1/"
1."
1-"
0<
