SERIALPARALELO1/000serialparalelo1.vcd
$date
	Mon May 31 21:38:36 2021
$end
$version
	Icarus Verilog
$end
$timescale
	1s
$end
$scope module BUF $end
$var wire 1 ! A $end
$var wire 1 " Y $end
$upscope $end
$scope module DFFSR $end
$var wire 1 # C $end
$var wire 1 $ D $end
$var wire 1 % R $end
$var wire 1 & S $end
$var reg 1 ' Q $end
$upscope $end
$scope module testbench $end
$var wire 1 ( valid_rx000_synt $end
$var wire 1 ) valid_rx000 $end
$var wire 1 * reset $end
$var wire 8 + data_rx000_synt [7:0] $end
$var wire 8 , data_rx000 [7:0] $end
$var wire 1 - data_out $end
$var wire 1 . clk_4f $end
$var wire 1 / clk_32f $end
$var wire 1 0 active_synt $end
$var wire 1 1 active $end
$scope module PROB $end
$var wire 1 2 active_synt $end
$var wire 1 3 valid_rx000 $end
$var wire 1 4 valid_rx000_synt $end
$var wire 8 5 data_rx000_synt [7:0] $end
$var wire 8 6 data_rx000 [7:0] $end
$var wire 1 1 active $end
$var reg 1 / clk_32f $end
$var reg 1 . clk_4f $end
$var reg 1 - data_out $end
$var reg 1 * reset $end
$upscope $end
$scope module SP1_COND $end
$var wire 1 / clk_32f $end
$var wire 1 . clk_4f $end
$var wire 1 - data_out $end
$var wire 1 * reset $end
$var reg 3 7 BC_counter [2:0] $end
$var reg 1 1 active $end
$var reg 8 8 container [7:0] $end
$var reg 3 9 counter [2:0] $end
$var reg 8 : data_rx000 [7:0] $end
$var reg 1 ; reset_s $end
$var reg 1 ) valid_rx000 $end
$upscope $end
$scope module SP1_SYNT $end
$var wire 1 / clk_32f $end
$var wire 1 . clk_4f $end
$var wire 1 - data_out $end
$var wire 1 * reset $end
$var wire 1 ( valid_rx000_synt $end
$var wire 1 < reset_s $end
$var wire 8 = data_rx000_synt [7:0] $end
$var wire 3 > counter [2:0] $end
$var wire 8 ? container [7:0] $end
$var wire 1 0 active_synt $end
$var wire 1 @ _080_ $end
$var wire 1 A _079_ $end
$var wire 1 B _078_ $end
$var wire 1 C _077_ $end
$var wire 1 D _076_ $end
$var wire 1 E _075_ $end
$var wire 1 F _074_ $end
$var wire 1 G _073_ $end
$var wire 1 H _072_ $end
$var wire 1 I _071_ $end
$var wire 1 J _070_ $end
$var wire 1 K _069_ $end
$var wire 1 L _068_ $end
$var wire 1 M _067_ $end
$var wire 1 N _066_ $end
$var wire 1 O _065_ $end
$var wire 1 P _064_ $end
$var wire 1 Q _063_ $end
$var wire 1 R _062_ $end
$var wire 1 S _061_ $end
$var wire 1 T _060_ $end
$var wire 1 U _059_ $end
$var wire 1 V _058_ $end
$var wire 1 W _057_ $end
$var wire 1 X _056_ $end
$var wire 1 Y _055_ $end
$var wire 1 Z _054_ $end
$var wire 1 [ _053_ $end
$var wire 1 \ _052_ $end
$var wire 1 ] _051_ $end
$var wire 1 ^ _050_ $end
$var wire 1 _ _049_ $end
$var wire 1 ` _048_ $end
$var wire 1 a _047_ $end
$var wire 1 b _046_ $end
$var wire 1 c _045_ $end
$var wire 1 d _044_ $end
$var wire 1 e _043_ $end
$var wire 1 f _042_ $end
$var wire 1 g _041_ $end
$var wire 1 h _040_ $end
$var wire 1 i _039_ $end
$var wire 1 j _038_ $end
$var wire 1 k _037_ $end
$var wire 1 l _036_ $end
$var wire 1 m _035_ $end
$var wire 1 n _034_ $end
$var wire 1 o _033_ $end
$var wire 1 p _032_ $end
$var wire 1 q _031_ $end
$var wire 1 r _030_ $end
$var wire 1 s _029_ $end
$var wire 1 t _028_ $end
$var wire 1 u _027_ $end
$var wire 1 v _026_ $end
$var wire 1 w _025_ $end
$var wire 1 x _024_ $end
$var wire 1 y _023_ $end
$var wire 1 z _022_ $end
$var wire 1 { _021_ $end
$var wire 1 | _020_ $end
$var wire 1 } _019_ $end
$var wire 1 ~ _018_ $end
$var wire 1 !" _017_ $end
$var wire 1 "" _016_ $end
$var wire 1 #" _015_ $end
$var wire 1 $" _014_ $end
$var wire 1 %" _013_ $end
$var wire 1 &" _012_ $end
$var wire 1 '" _011_ $end
$var wire 1 (" _010_ $end
$var wire 1 )" _009_ $end
$var wire 1 *" _008_ $end
$var wire 1 +" _007_ $end
$var wire 1 ," _006_ $end
$var wire 1 -" _005_ $end
$var wire 1 ." _004_ $end
$var wire 1 /" _003_ $end
$var wire 3 0" _002_ [2:0] $end
$var wire 8 1" _001_ [7:0] $end
$var wire 3 2" _000_ [2:0] $end
$var wire 3 3" BC_counter [2:0] $end
$scope module _081_ $end
$var wire 1 4" A $end
$var wire 1 p Y $end
$upscope $end
$scope module _082_ $end
$var wire 1 5" A $end
$var wire 1 o Y $end
$upscope $end
$scope module _083_ $end
$var wire 1 6" A $end
$var wire 1 n Y $end
$upscope $end
$scope module _084_ $end
$var wire 1 7" A $end
$var wire 1 m Y $end
$upscope $end
$scope module _085_ $end
$var wire 1 8" A $end
$var wire 1 l Y $end
$upscope $end
$scope module _086_ $end
$var wire 1 k Y $end
$var wire 1 < A $end
$upscope $end
$scope module _087_ $end
$var wire 1 9" A $end
$var wire 1 j Y $end
$upscope $end
$scope module _088_ $end
$var wire 1 :" A $end
$var wire 1 i Y $end
$upscope $end
$scope module _089_ $end
$var wire 1 - A $end
$var wire 1 h Y $end
$upscope $end
$scope module _090_ $end
$var wire 1 ;" A $end
$var wire 1 g Y $end
$upscope $end
$scope module _091_ $end
$var wire 1 <" A $end
$var wire 1 f Y $end
$upscope $end
$scope module _092_ $end
$var wire 1 / A $end
$var wire 1 ." Y $end
$upscope $end
$scope module _093_ $end
$var wire 1 j A $end
$var wire 1 =" B $end
$var wire 1 e Y $end
$upscope $end
$scope module _094_ $end
$var wire 1 >" A $end
$var wire 1 e B $end
$var wire 1 0 Y $end
$upscope $end
$scope module _095_ $end
$var wire 1 ?" A $end
$var wire 1 @" B $end
$var wire 1 d Y $end
$upscope $end
$scope module _096_ $end
$var wire 1 A" A $end
$var wire 1 B" B $end
$var wire 1 c Y $end
$upscope $end
$scope module _097_ $end
$var wire 1 d A $end
$var wire 1 c B $end
$var wire 1 b Y $end
$upscope $end
$scope module _098_ $end
$var wire 1 p A $end
$var wire 1 o B $end
$var wire 1 a Y $end
$upscope $end
$scope module _099_ $end
$var wire 1 n A $end
$var wire 1 C" B $end
$var wire 1 ` Y $end
$upscope $end
$scope module _100_ $end
$var wire 1 a A $end
$var wire 1 ` B $end
$var wire 1 _ Y $end
$upscope $end
$scope module _101_ $end
$var wire 1 b A $end
$var wire 1 _ B $end
$var wire 1 ^ Y $end
$upscope $end
$scope module _102_ $end
$var wire 1 ^ B $end
$var wire 1 ] Y $end
$var wire 1 < A $end
$upscope $end
$scope module _103_ $end
$var wire 1 i A $end
$var wire 1 ] B $end
$var wire 1 /" Y $end
$upscope $end
$scope module _104_ $end
$var wire 1 D" A $end
$var wire 1 ^ B $end
$var wire 1 \ Y $end
$upscope $end
$scope module _105_ $end
$var wire 1 E" A $end
$var wire 1 \ B $end
$var wire 1 [ Y $end
$upscope $end
$scope module _106_ $end
$var wire 1 F" A $end
$var wire 1 \ B $end
$var wire 1 Z Y $end
$upscope $end
$scope module _107_ $end
$var wire 1 [ B $end
$var wire 1 Y Y $end
$var wire 1 < A $end
$upscope $end
$scope module _108_ $end
$var wire 1 Z A $end
$var wire 1 Y B $end
$var wire 1 G" Y $end
$upscope $end
$scope module _109_ $end
$var wire 1 j A $end
$var wire 1 [ B $end
$var wire 1 X Y $end
$upscope $end
$scope module _110_ $end
$var wire 1 j A $end
$var wire 1 [ B $end
$var wire 1 W Y $end
$upscope $end
$scope module _111_ $end
$var wire 1 W B $end
$var wire 1 V Y $end
$var wire 1 < A $end
$upscope $end
$scope module _112_ $end
$var wire 1 X A $end
$var wire 1 V B $end
$var wire 1 H" Y $end
$upscope $end
$scope module _113_ $end
$var wire 1 I" A $end
$var wire 1 X B $end
$var wire 1 U Y $end
$upscope $end
$scope module _114_ $end
$var wire 1 k A $end
$var wire 1 U B $end
$var wire 1 J" Y $end
$upscope $end
$scope module _115_ $end
$var wire 1 K" A $end
$var wire 1 L" B $end
$var wire 1 T Y $end
$upscope $end
$scope module _116_ $end
$var wire 1 T A $end
$var wire 1 S Y $end
$upscope $end
$scope module _117_ $end
$var wire 1 M" A $end
$var wire 1 S B $end
$var wire 1 R Y $end
$upscope $end
$scope module _118_ $end
$var wire 1 - A $end
$var wire 1 R B $end
$var wire 1 Q Y $end
$upscope $end
$scope module _119_ $end
$var wire 1 Q A $end
$var wire 1 P Y $end
$upscope $end
$scope module _120_ $end
$var wire 1 g A $end
$var wire 1 R B $end
$var wire 1 O Y $end
$upscope $end
$scope module _121_ $end
$var wire 1 P A $end
$var wire 1 O B $end
$var wire 1 N Y $end
$upscope $end
$scope module _122_ $end
$var wire 1 N B $end
$var wire 1 N" Y $end
$var wire 1 < A $end
$upscope $end
$scope module _123_ $end
$var wire 1 O" A $end
$var wire 1 l B $end
$var wire 1 M Y $end
$upscope $end
$scope module _124_ $end
$var wire 1 P" A $end
$var wire 1 M B $end
$var wire 1 L Y $end
$upscope $end
$scope module _125_ $end
$var wire 1 h A $end
$var wire 1 L B $end
$var wire 1 K Y $end
$upscope $end
$scope module _126_ $end
$var wire 1 Q" A $end
$var wire 1 L B $end
$var wire 1 J Y $end
$upscope $end
$scope module _127_ $end
$var wire 1 k A $end
$var wire 1 K B $end
$var wire 1 I Y $end
$upscope $end
$scope module _128_ $end
$var wire 1 J A $end
$var wire 1 I B $end
$var wire 1 R" Y $end
$upscope $end
$scope module _129_ $end
$var wire 1 S" A $end
$var wire 1 T" B $end
$var wire 1 H Y $end
$upscope $end
$scope module _130_ $end
$var wire 1 U" A $end
$var wire 1 H B $end
$var wire 1 G Y $end
$upscope $end
$scope module _131_ $end
$var wire 1 h A $end
$var wire 1 G B $end
$var wire 1 F Y $end
$upscope $end
$scope module _132_ $end
$var wire 1 V" A $end
$var wire 1 G B $end
$var wire 1 E Y $end
$upscope $end
$scope module _133_ $end
$var wire 1 k A $end
$var wire 1 F B $end
$var wire 1 D Y $end
$upscope $end
$scope module _134_ $end
$var wire 1 E A $end
$var wire 1 D B $end
$var wire 1 W" Y $end
$upscope $end
$scope module _135_ $end
$var wire 1 m A $end
$var wire 1 S B $end
$var wire 1 C Y $end
$upscope $end
$scope module _136_ $end
$var wire 1 h A $end
$var wire 1 C B $end
$var wire 1 B Y $end
$upscope $end
$scope module _137_ $end
$var wire 1 X" A $end
$var wire 1 C B $end
$var wire 1 A Y $end
$upscope $end
$scope module _138_ $end
$var wire 1 k A $end
$var wire 1 B B $end
$var wire 1 @ Y $end
$upscope $end
$scope module _139_ $end
$var wire 1 A A $end
$var wire 1 @ B $end
$var wire 1 Y" Y $end
$upscope $end
$scope module _140_ $end
$var wire 1 Z" A $end
$var wire 1 l B $end
$var wire 1 &" Y $end
$upscope $end
$scope module _141_ $end
$var wire 1 [" A $end
$var wire 1 &" B $end
$var wire 1 %" Y $end
$upscope $end
$scope module _142_ $end
$var wire 1 - A $end
$var wire 1 %" B $end
$var wire 1 $" Y $end
$upscope $end
$scope module _143_ $end
$var wire 1 f A $end
$var wire 1 %" B $end
$var wire 1 #" Y $end
$upscope $end
$scope module _144_ $end
$var wire 1 k A $end
$var wire 1 #" B $end
$var wire 1 "" Y $end
$upscope $end
$scope module _145_ $end
$var wire 1 $" A $end
$var wire 1 "" B $end
$var wire 1 \" Y $end
$upscope $end
$scope module _146_ $end
$var wire 1 m A $end
$var wire 1 M B $end
$var wire 1 !" Y $end
$upscope $end
$scope module _147_ $end
$var wire 1 o A $end
$var wire 1 !" B $end
$var wire 1 ~ Y $end
$upscope $end
$scope module _148_ $end
$var wire 1 - A $end
$var wire 1 !" B $end
$var wire 1 } Y $end
$upscope $end
$scope module _149_ $end
$var wire 1 ~ B $end
$var wire 1 | Y $end
$var wire 1 < A $end
$upscope $end
$scope module _150_ $end
$var wire 1 } A $end
$var wire 1 | B $end
$var wire 1 ]" Y $end
$upscope $end
$scope module _151_ $end
$var wire 1 m A $end
$var wire 1 H B $end
$var wire 1 { Y $end
$upscope $end
$scope module _152_ $end
$var wire 1 p A $end
$var wire 1 { B $end
$var wire 1 z Y $end
$upscope $end
$scope module _153_ $end
$var wire 1 - A $end
$var wire 1 { B $end
$var wire 1 y Y $end
$upscope $end
$scope module _154_ $end
$var wire 1 z B $end
$var wire 1 x Y $end
$var wire 1 < A $end
$upscope $end
$scope module _155_ $end
$var wire 1 y A $end
$var wire 1 x B $end
$var wire 1 ^" Y $end
$upscope $end
$scope module _156_ $end
$var wire 1 m A $end
$var wire 1 &" B $end
$var wire 1 w Y $end
$upscope $end
$scope module _157_ $end
$var wire 1 _" A $end
$var wire 1 w B $end
$var wire 1 v Y $end
$upscope $end
$scope module _158_ $end
$var wire 1 h A $end
$var wire 1 w B $end
$var wire 1 u Y $end
$upscope $end
$scope module _159_ $end
$var wire 1 u B $end
$var wire 1 t Y $end
$var wire 1 < A $end
$upscope $end
$scope module _160_ $end
$var wire 1 v A $end
$var wire 1 t B $end
$var wire 1 `" Y $end
$upscope $end
$scope module _161_ $end
$var wire 1 a" A $end
$var wire 1 k B $end
$var wire 1 b" Y $end
$upscope $end
$scope module _162_ $end
$var wire 1 T B $end
$var wire 1 s Y $end
$var wire 1 < A $end
$upscope $end
$scope module _163_ $end
$var wire 1 H A $end
$var wire 1 s B $end
$var wire 1 c" Y $end
$upscope $end
$scope module _164_ $end
$var wire 1 d" A $end
$var wire 1 S B $end
$var wire 1 r Y $end
$upscope $end
$scope module _165_ $end
$var wire 1 R B $end
$var wire 1 q Y $end
$var wire 1 < A $end
$upscope $end
$scope module _166_ $end
$var wire 1 r A $end
$var wire 1 q B $end
$var wire 1 e" Y $end
$upscope $end
$scope module _167_ $end
$var wire 1 / A $end
$var wire 1 -" Y $end
$upscope $end
$scope module _168_ $end
$var wire 1 / A $end
$var wire 1 ," Y $end
$upscope $end
$scope module _169_ $end
$var wire 1 / A $end
$var wire 1 +" Y $end
$upscope $end
$scope module _170_ $end
$var wire 1 / A $end
$var wire 1 *" Y $end
$upscope $end
$scope module _171_ $end
$var wire 1 / A $end
$var wire 1 )" Y $end
$upscope $end
$scope module _172_ $end
$var wire 1 / A $end
$var wire 1 (" Y $end
$upscope $end
$scope module _173_ $end
$var wire 1 / A $end
$var wire 1 '" Y $end
$upscope $end
$scope module _174_ $end
$var wire 1 . C $end
$var wire 1 f" D $end
$var reg 1 g" Q $end
$upscope $end
$scope module _175_ $end
$var wire 1 . C $end
$var wire 1 h" D $end
$var reg 1 i" Q $end
$upscope $end
$scope module _176_ $end
$var wire 1 . C $end
$var wire 1 j" D $end
$var reg 1 k" Q $end
$upscope $end
$scope module _177_ $end
$var wire 1 . C $end
$var wire 1 l" D $end
$var reg 1 m" Q $end
$upscope $end
$scope module _178_ $end
$var wire 1 . C $end
$var wire 1 n" D $end
$var reg 1 o" Q $end
$upscope $end
$scope module _179_ $end
$var wire 1 . C $end
$var wire 1 p" D $end
$var reg 1 q" Q $end
$upscope $end
$scope module _180_ $end
$var wire 1 . C $end
$var wire 1 r" D $end
$var reg 1 s" Q $end
$upscope $end
$scope module _181_ $end
$var wire 1 . C $end
$var wire 1 t" D $end
$var reg 1 u" Q $end
$upscope $end
$scope module _182_ $end
$var wire 1 . C $end
$var wire 1 /" D $end
$var reg 1 ( Q $end
$upscope $end
$scope module _183_ $end
$var wire 1 . C $end
$var wire 1 v" D $end
$var reg 1 w" Q $end
$upscope $end
$scope module _184_ $end
$var wire 1 . C $end
$var wire 1 x" D $end
$var reg 1 y" Q $end
$upscope $end
$scope module _185_ $end
$var wire 1 . C $end
$var wire 1 z" D $end
$var reg 1 {" Q $end
$upscope $end
$scope module _186_ $end
$var wire 1 ." C $end
$var wire 1 |" D $end
$var reg 1 }" Q $end
$upscope $end
$scope module _187_ $end
$var wire 1 -" C $end
$var wire 1 ~" D $end
$var reg 1 !# Q $end
$upscope $end
$scope module _188_ $end
$var wire 1 ," C $end
$var wire 1 "# D $end
$var reg 1 ## Q $end
$upscope $end
$scope module _189_ $end
$var wire 1 +" C $end
$var wire 1 $# D $end
$var reg 1 %# Q $end
$upscope $end
$scope module _190_ $end
$var wire 1 *" C $end
$var wire 1 &# D $end
$var reg 1 '# Q $end
$upscope $end
$scope module _191_ $end
$var wire 1 )" C $end
$var wire 1 (# D $end
$var reg 1 )# Q $end
$upscope $end
$scope module _192_ $end
$var wire 1 (" C $end
$var wire 1 *# D $end
$var reg 1 +# Q $end
$upscope $end
$scope module _193_ $end
$var wire 1 '" C $end
$var wire 1 ,# D $end
$var reg 1 -# Q $end
$upscope $end
$scope module _194_ $end
$var wire 1 / C $end
$var wire 1 .# D $end
$var reg 1 /# Q $end
$upscope $end
$scope module _195_ $end
$var wire 1 / C $end
$var wire 1 0# D $end
$var reg 1 1# Q $end
$upscope $end
$scope module _196_ $end
$var wire 1 / C $end
$var wire 1 2# D $end
$var reg 1 3# Q $end
$upscope $end
$scope module _197_ $end
$var wire 1 . C $end
$var wire 1 * D $end
$var reg 1 < Q $end
$upscope $end
$upscope $end
$upscope $end
$enddefinitions $end
#0
$dumpvars
x3#
x2#
x1#
x0#
x/#
x.#
x-#
x,#
x+#
x*#
x)#
x(#
x'#
x&#
x%#
x$#
x##
x"#
x!#
x~"
x}"
x|"
x{"
xz"
xy"
xx"
xw"
xv"
xu"
xt"
xs"
xr"
xq"
xp"
xo"
xn"
xm"
xl"
xk"
xj"
xi"
xh"
xg"
xf"
xe"
xd"
xc"
xb"
xa"
x`"
x_"
x^"
x]"
x\"
x["
xZ"
xY"
xX"
xW"
xV"
xU"
xT"
xS"
xR"
xQ"
xP"
xO"
xN"
xM"
xL"
xK"
xJ"
xI"
xH"
xG"
xF"
xE"
xD"
xC"
xB"
xA"
x@"
x?"
x>"
x="
x<"
x;"
x:"
x9"
x8"
x7"
x6"
x5"
x4"
bx 3"
bx 2"
bx 1"
bx 0"
x/"
0."
0-"
0,"
0+"
0*"
0)"
0("
0'"
x&"
x%"
1$"
x#"
x""
x!"
x~
x}
x|
x{
xz
xy
xx
xw
xv
xu
xt
xs
xr
xq
xp
xo
xn
xm
xl
xk
xj
xi
1h
xg
xf
xe
xd
xc
xb
xa
x`
x_
x^
x]
x\
x[
xZ
xY
xX
xW
xV
xU
xT
xS
xR
xQ
xP
xO
xN
xM
xL
0K
xJ
xI
xH
xG
0F
xE
xD
xC
0B
xA
x@
bx ?
bx >
bx =
x<
x;
bx :
bx 9
bx 8
bx 7
bx 6
bx 5
z4
z3
z2
x1
x0
1/
0.
0-
bx ,
bx +
0*
x)
x(
x'
z&
z%
z$
z#
z"
z!
$end
#1
b10111100 8
1."
1-"
1,"
1+"
1*"
1)"
1("
1'"
0/
#2
b0 9
0."
0-"
0,"
0+"
0*"
0)"
0("
0'"
1/
#3
1."
1-"
1,"
1+"
1*"
1)"
1("
1'"
0/
#4
0."
0-"
0,"
0+"
0*"
0)"
0("
0'"
1/
#5
1."
1-"
1,"
1+"
1*"
1)"
1("
1'"
0/
#6
0."
0-"
0,"
0+"
0*"
0)"
0("
0'"
1/
#7
1."
1-"
1,"
1+"
1*"
1)"
1("
1'"
0/
#8
1(#
1&#
1$#
1"#
02#
00#
0*#
0|"
0~"
0x"
0v"
1R"
1W"
1Y"
1\"
0e"
0c"
0`"
0^"
0]"
0H"
0G"
0/"
0z"
0.#
1,#
b0 2"
0J"
0I
0D
0@
0""
b0 0"
0b"
1q
1s
1t
1x
1|
b10111100 1"
1N"
1V
1Y
1]
1k
0;
0)
b10111100 ,
b10111100 6
b10111100 :
0<
0."
0-"
0,"
0+"
0*"
0)"
0("
0'"
1/
1.
#9
0^
1_
1b
0a
0`
1O
0c
0d
1p
1o
0f
1n
0g
0f"
04"
0h"
05"
1j"
1B"
1<"
1l"
1X"
1A"
1n"
1V"
1@"
1p"
1Q"
1?"
0r"
0_"
06"
1t"
1C"
1;"
0}"
0!#
1##
1%#
1'#
1)#
0+#
b10111100 ?
1-#
1."
1-"
1,"
1+"
1*"
1)"
1("
1'"
0/
#10
0~
0}
0A
0N
1#"
1z
1y
1!"
1C
1r
1P
1v
1u
0%"
0{
0E
0J
0Q
0M
0S
0w
1&"
1H
1T
1G
1L
1R
1l
1m
0a"
0T"
0L"
08"
0Z"
0S"
0O"
0K"
0d"
0["
0U"
0P"
0M"
07"
0/#
01#
b0 >
03#
0."
0-"
0,"
0+"
0*"
0)"
0("
0'"
1/
#11
1."
1-"
1,"
1+"
1*"
1)"
1("
1'"
0/
#12
0."
0-"
0,"
0+"
0*"
0)"
0("
0'"
1/
#13
1."
1-"
1,"
1+"
1*"
1)"
1("
1'"
0/
#14
0."
0-"
0,"
0+"
0*"
0)"
0("
0'"
1/
#15
1."
1-"
1,"
1+"
1*"
1)"
1("
1'"
0/
#16
0."
0-"
0,"
0+"
0*"
0)"
0("
0'"
1/
0.
#17
1."
1-"
1,"
1+"
1*"
1)"
1("
1'"
0/
#18
0."
0-"
0,"
0+"
0*"
0)"
0("
0'"
1/
#19
1."
1-"
1,"
1+"
1*"
1)"
1("
1'"
0/
#20
0."
0-"
0,"
0+"
0*"
0)"
0("
0'"
1/
#21
1."
1-"
1,"
1+"
1*"
1)"
1("
1'"
0/
#22
0."
0-"
0,"
0+"
0*"
0)"
0("
0'"
1/
#23
1."
1-"
1,"
1+"
1*"
1)"
1("
1'"
0/
#24
1U
0x"
1v"
0Z
00
0H"
1G"
0z"
1.#
0X
0W
b1 2"
0J"
1I
1D
1@
b1 0"
1b"
1\
1e
1[
0q
0s
0t
0x
1V
0Y
1i
1j
0k
0I"
0D"
0="
0:"
09"
0F"
0E"
0>"
01
1<
0{"
0y"
b0 3"
0w"
0(
1u"
0s"
1q"
1o"
1m"
1k"
0i"
b10111100 +
b10111100 5
b10111100 =
0g"
b0 7
1;
0."
0-"
0,"
0+"
0*"
0)"
0("
0'"
1/
1.
1*
#25
1."
1-"
1,"
1+"
1*"
1)"
1("
1'"
0/
#26
0|"
0|
1x
b10111100 1"
0^"
1~
1}
0z
0y
10#
0!"
1{
1c"
0.#
1M
b10 0"
0b"
0H
0l
1a"
1T"
1L"
18"
b1 9
b1 >
1/#
0."
0-"
0,"
0+"
0*"
0)"
0("
0'"
1/
#27
1."
1-"
1,"
1+"
1*"
1)"
1("
1'"
0/
#28
0"#
0\"
0~"
1""
1|
b10111000 1"
0]"
0#"
0~
0}
1%"
1!"
1.#
0&"
0M
b11 0"
1b"
1l
1Z"
1S"
1O"
1K"
0a"
0T"
0L"
08"
11#
b10 >
0/#
b10 9
0."
0-"
0,"
0+"
0*"
0)"
0("
0'"
1/
#29
0v"
b0 2"
0G"
1Z
0]
0\
1^
0b
1c
1f
0j"
0B"
0<"
b10111000 ?
0##
b10111000 8
1."
1-"
1,"
1+"
1*"
1)"
1("
1'"
0/
#30
0$#
b10110000 1"
0Y"
12#
1A
1e"
00#
0c"
0C
0r
0%"
1s
0.#
1S
1&"
b100 0"
0b"
0T
0l
1a"
1T"
1L"
18"
b11 9
b11 >
1/#
0."
0-"
0,"
0+"
0*"
0)"
0("
0'"
1/
#31
0l"
0X"
0A"
b10110000 ?
0%#
b10110000 8
1."
1-"
1,"
1+"
1*"
1)"
1("
1'"
0/
#32
1,#
1N"
0&#
b10100000 1"
0W"
0N
12#
1e"
1E
1P
0Q
0q
0G
0s
1C
1.#
0S
1R
b101 0"
1b"
1H
1T
0m
1l
1d"
1["
1U"
1P"
1M"
17"
0Z"
0S"
0O"
0K"
0a"
0T"
0L"
08"
13#
01#
b100 >
0/#
b100 9
0."
0-"
0,"
0+"
0*"
0)"
0("
0'"
1/
0.
#33
1d
0n"
0V"
0@"
b10100000 ?
0'#
b10100000 8
1."
1-"
1,"
1+"
1*"
1)"
1("
1'"
0/
#34
0(#
b10000000 1"
0R"
1J
10#
0L
1G
1c"
0.#
1M
b110 0"
0b"
0H
0l
1a"
1T"
1L"
18"
b101 9
b101 >
1/#
0."
0-"
0,"
0+"
0*"
0)"
0("
0'"
1/
#35
0p"
0Q"
0?"
b10000000 ?
0)#
b10000000 8
1."
1-"
1,"
1+"
1*"
1)"
1("
1'"
0/
#36
0*#
b10000000 1"
0`"
1t
0v
0u
1w
1L
1.#
0&"
0M
b111 0"
1b"
1l
1Z"
1S"
1O"
1K"
0a"
0T"
0L"
08"
11#
b110 >
0/#
b110 9
0."
0-"
0,"
0+"
0*"
0)"
0("
0'"
1/
#37
1."
1-"
1,"
1+"
1*"
1)"
1("
1'"
0/
#38
0,#
b0 1"
0N"
1N
02#
0e"
0t
0P
1Q
1q
00#
1v
1u
0c"
0R
0w
1s
0.#
1S
1&"
b0 0"
0b"
0T
0l
1a"
1T"
1L"
18"
b111 9
b111 >
1/#
0."
0-"
0,"
0+"
0*"
0)"
0("
0'"
1/
#39
0_
1`
1g
0t"
0C"
0;"
b0 ?
0-#
b0 8
1."
1-"
1,"
1+"
1*"
1)"
1("
1'"
0/
#40
0x
1P
1z
1y
1r
0Q
0O
0q
0s
1C
0{
1.#
0S
1R
b1 0"
1b"
1H
1T
1m
1l
0d"
0["
0U"
0P"
0M"
07"
0Z"
0S"
0O"
0K"
0a"
0T"
0L"
08"
03#
01#
b0 >
0/#
b0 9
b0 ,
b0 6
b0 :
0k"
0m"
0o"
0q"
b0 +
b0 5
b0 =
0u"
0."
0-"
0,"
0+"
0*"
0)"
0("
0'"
1/
1.
#41
1."
1-"
1,"
1+"
1*"
1)"
1("
1'"
0/
#42
0|"
0|
1x
b0 1"
0^"
1~
1}
0z
0y
10#
0!"
1{
1c"
0.#
1M
b10 0"
0b"
0H
0l
1a"
1T"
1L"
18"
b1 9
b1 >
1/#
0."
0-"
0,"
0+"
0*"
0)"
0("
0'"
1/
#43
1."
1-"
1,"
1+"
1*"
1)"
1("
1'"
0/
#44
0~"
1|
b0 1"
0]"
0~
0}
1%"
1!"
1.#
0&"
0M
b11 0"
1b"
1l
1Z"
1S"
1O"
1K"
0a"
0T"
0L"
08"
11#
b10 >
0/#
b10 9
0."
0-"
0,"
0+"
0*"
0)"
0("
0'"
1/
#45
1."
1-"
1,"
1+"
1*"
1)"
1("
1'"
0/
#46
12#
1e"
00#
0c"
0C
0r
0%"
1s
0.#
1S
1&"
b100 0"
0b"
0T
0l
1a"
1T"
1L"
18"
b11 9
b11 >
1/#
0."
0-"
0,"
0+"
0*"
0)"
0("
0'"
1/
#47
1."
1-"
1,"
1+"
1*"
1)"
1("
1'"
0/
#48
0,#
b0 1"
0N"
12#
1N
1e"
1P
0Q
0O
0q
0G
0s
1C
1.#
0S
1R
b101 0"
1b"
1H
1T
0m
1l
1d"
1["
1U"
1P"
1M"
17"
0Z"
0S"
0O"
0K"
0a"
0T"
0L"
08"
13#
01#
b100 >
0/#
b100 9
0."
0-"
0,"
0+"
0*"
0)"
0("
0'"
1/
0.
#49
1."
1-"
1,"
1+"
1*"
1)"
1("
1'"
0/
#50
10#
0L
1G
1c"
0.#
1M
b110 0"
0b"
0H
0l
1a"
1T"
1L"
18"
b101 9
b101 >
1/#
0."
0-"
0,"
0+"
0*"
0)"
0("
0'"
1/
#51
1."
1-"
1,"
1+"
1*"
1)"
1("
1'"
0/
#52
0*#
b0 1"
0`"
1t
0v
0u
1w
1L
1.#
0&"
0M
b111 0"
1b"
1l
1Z"
1S"
1O"
1K"
0a"
0T"
0L"
08"
11#
b110 >
0/#
b110 9
0."
0-"
0,"
0+"
0*"
0)"
0("
0'"
1/
#53
1."
1-"
1,"
1+"
1*"
1)"
1("
1'"
0/
#54
0,#
b0 1"
0N"
02#
1N
0e"
0t
0P
1Q
1O
1q
00#
1v
1u
0c"
0R
0w
1s
0.#
1S
1&"
b0 0"
0b"
0T
0l
1a"
1T"
1L"
18"
b111 9
b111 >
1/#
0."
0-"
0,"
0+"
0*"
0)"
0("
0'"
1/
#55
1."
1-"
1,"
1+"
1*"
1)"
1("
1'"
0/
#56
0x
1P
1z
1y
1r
0Q
0O
0q
0s
1C
0{
1.#
0S
1R
b1 0"
1b"
1H
1T
1m
1l
0d"
0["
0U"
0P"
0M"
07"
0Z"
0S"
0O"
0K"
0a"
0T"
0L"
08"
03#
01#
b0 >
0/#
b0 9
0."
0-"
0,"
0+"
0*"
0)"
0("
0'"
1/
1.
#57
1."
1-"
1,"
1+"
1*"
1)"
1("
1'"
0/
#58
0|"
0|
1x
b0 1"
0^"
1~
1}
0z
0y
10#
0!"
1{
1c"
0.#
1M
b10 0"
0b"
0H
0l
1a"
1T"
1L"
18"
b1 9
b1 >
1/#
0."
0-"
0,"
0+"
0*"
0)"
0("
0'"
1/
#59
1."
1-"
1,"
1+"
1*"
1)"
1("
1'"
0/
#60
0~"
1|
b0 1"
0]"
0~
0}
1%"
1!"
1.#
0&"
0M
b11 0"
1b"
1l
1Z"
1S"
1O"
1K"
0a"
0T"
0L"
08"
11#
b10 >
0/#
b10 9
0."
0-"
0,"
0+"
0*"
0)"
0("
0'"
1/
#61
1."
1-"
1,"
1+"
1*"
1)"
1("
1'"
0/
#62
12#
1e"
00#
0c"
0C
0r
0%"
1s
0.#
1S
1&"
b100 0"
0b"
0T
0l
1a"
1T"
1L"
18"
b11 9
b11 >
1/#
0."
0-"
0,"
0+"
0*"
0)"
0("
0'"
1/
#63
1."
1-"
1,"
1+"
1*"
1)"
1("
1'"
0/
#64
0,#
b0 1"
0N"
12#
1N
1e"
1P
0Q
0O
0q
0G
0s
1C
1.#
0S
1R
b101 0"
1b"
1H
1T
0m
1l
1d"
1["
1U"
1P"
1M"
17"
0Z"
0S"
0O"
0K"
0a"
0T"
0L"
08"
13#
01#
b100 >
0/#
b100 9
0."
0-"
0,"
0+"
0*"
0)"
0("
0'"
1/
0.
