PARALELOSERIAL2/000paraleloserial2.vcd
$date
	Sun May 30 10:57:39 2021
$end
$version
	Icarus Verilog
$end
$timescale
	1s
$end
$scope module BUF $end
$var wire 1 ! A $end
$var wire 1 " Y $end
$upscope $end
$scope module DFFSR $end
$var wire 1 # C $end
$var wire 1 $ D $end
$var wire 1 % R $end
$var wire 1 & S $end
$var reg 1 ' Q $end
$upscope $end
$scope module testbench $end
$var wire 1 ( reset $end
$var wire 1 ) inserter_synt $end
$var wire 1 * inserter $end
$var wire 1 + clk_4f $end
$var wire 1 , clk_32f $end
$var wire 1 - active $end
$scope module PROB $end
$var wire 1 ) inserter_synt $end
$var wire 1 * inserter $end
$var reg 1 - active $end
$var reg 1 , clk_32f $end
$var reg 1 + clk_4f $end
$var reg 1 ( reset $end
$upscope $end
$scope module PS2_COND $end
$var wire 1 - active $end
$var wire 1 , clk_32f $end
$var wire 1 + clk_4f $end
$var wire 1 ( reset $end
$var reg 8 . IDLE_COM [7:0] $end
$var reg 3 / counter [2:0] $end
$var reg 1 * inserter $end
$var reg 1 0 reset_s $end
$upscope $end
$scope module PS2_SYNT $end
$var wire 1 - active $end
$var wire 1 , clk_32f $end
$var wire 1 + clk_4f $end
$var wire 1 ( reset $end
$var wire 1 1 reset_s $end
$var wire 1 ) inserter_synt $end
$var wire 3 2 counter [2:0] $end
$var wire 1 3 _19_ $end
$var wire 1 4 _18_ $end
$var wire 1 5 _17_ $end
$var wire 1 6 _16_ $end
$var wire 1 7 _15_ $end
$var wire 1 8 _14_ $end
$var wire 1 9 _13_ $end
$var wire 1 : _12_ $end
$var wire 1 ; _11_ $end
$var wire 1 < _10_ $end
$var wire 1 = _09_ $end
$var wire 1 > _08_ $end
$var wire 1 ? _07_ $end
$var wire 1 @ _06_ $end
$var wire 1 A _05_ $end
$var wire 1 B _04_ $end
$var wire 1 C _03_ $end
$var wire 1 D _02_ $end
$var wire 1 E _01_ $end
$var wire 3 F _00_ [2:0] $end
$var wire 8 G IDLE_COM [7:0] $end
$scope module _20_ $end
$var wire 1 E Y $end
$var wire 1 1 A $end
$upscope $end
$scope module _21_ $end
$var wire 1 H A $end
$var wire 1 D Y $end
$upscope $end
$scope module _22_ $end
$var wire 1 I A $end
$var wire 1 C Y $end
$upscope $end
$scope module _23_ $end
$var wire 1 J A $end
$var wire 1 K B $end
$var wire 1 B Y $end
$upscope $end
$scope module _24_ $end
$var wire 1 - A $end
$var wire 1 L B $end
$var wire 1 A Y $end
$upscope $end
$scope module _25_ $end
$var wire 1 - A $end
$var wire 1 M B $end
$var wire 1 @ Y $end
$upscope $end
$scope module _26_ $end
$var wire 1 @ A $end
$var wire 1 ? Y $end
$upscope $end
$scope module _27_ $end
$var wire 1 A A $end
$var wire 1 ? B $end
$var wire 1 > Y $end
$upscope $end
$scope module _28_ $end
$var wire 1 B A $end
$var wire 1 > B $end
$var wire 1 = Y $end
$upscope $end
$scope module _29_ $end
$var wire 1 N A $end
$var wire 1 O B $end
$var wire 1 < Y $end
$upscope $end
$scope module _30_ $end
$var wire 1 < A $end
$var wire 1 ; Y $end
$upscope $end
$scope module _31_ $end
$var wire 1 ; B $end
$var wire 1 : Y $end
$var wire 1 1 A $end
$upscope $end
$scope module _32_ $end
$var wire 1 = A $end
$var wire 1 : B $end
$var wire 1 ) Y $end
$upscope $end
$scope module _33_ $end
$var wire 1 E A $end
$var wire 1 P B $end
$var wire 1 Q Y $end
$upscope $end
$scope module _34_ $end
$var wire 1 D A $end
$var wire 1 C B $end
$var wire 1 9 Y $end
$upscope $end
$scope module _35_ $end
$var wire 1 R A $end
$var wire 1 S B $end
$var wire 1 8 Y $end
$upscope $end
$scope module _36_ $end
$var wire 1 8 A $end
$var wire 1 7 Y $end
$upscope $end
$scope module _37_ $end
$var wire 1 7 B $end
$var wire 1 6 Y $end
$var wire 1 1 A $end
$upscope $end
$scope module _38_ $end
$var wire 1 9 A $end
$var wire 1 6 B $end
$var wire 1 T Y $end
$upscope $end
$scope module _39_ $end
$var wire 1 U A $end
$var wire 1 9 B $end
$var wire 1 5 Y $end
$upscope $end
$scope module _40_ $end
$var wire 1 V A $end
$var wire 1 9 B $end
$var wire 1 4 Y $end
$upscope $end
$scope module _41_ $end
$var wire 1 5 B $end
$var wire 1 3 Y $end
$var wire 1 1 A $end
$upscope $end
$scope module _42_ $end
$var wire 1 4 A $end
$var wire 1 3 B $end
$var wire 1 W Y $end
$upscope $end
$scope module _43_ $end
$var wire 1 , C $end
$var wire 1 X D $end
$var reg 1 Y Q $end
$upscope $end
$scope module _44_ $end
$var wire 1 , C $end
$var wire 1 Z D $end
$var reg 1 [ Q $end
$upscope $end
$scope module _45_ $end
$var wire 1 , C $end
$var wire 1 \ D $end
$var reg 1 ] Q $end
$upscope $end
$scope module _46_ $end
$var wire 1 + C $end
$var wire 1 ( D $end
$var reg 1 1 Q $end
$upscope $end
$upscope $end
$upscope $end
$enddefinitions $end
#0
$dumpvars
x]
x\
x[
xZ
xY
xX
xW
xV
xU
xT
xS
xR
xQ
xP
xO
xN
xM
xL
xK
xJ
xI
xH
bzxxxx00 G
bx F
xE
xD
xC
xB
xA
1@
0?
x>
x=
x<
x;
x:
x9
x8
x7
x6
x5
x4
x3
bx 2
x1
x0
bx /
b10111100 .
0-
1,
0+
x*
x)
0(
x'
z&
z%
z$
z#
z"
z!
$end
#1
0,
#2
0*
b0 /
1,
#3
0,
#4
1,
#5
0,
#6
1,
#7
0,
#8
0\
0Z
0W
0T
0)
0X
b0 F
0Q
13
16
1:
b0 .
1E
00
bz000000 G
01
1,
1+
#9
0,
#10
14
0>
0=
07
09
0;
1A
18
15
1<
1B
1C
1D
0S
0P
0M
0L
0I
0R
0N
0J
0H
0V
0U
0O
0K
0Y
0[
b0 2
0]
1,
#11
0,
#12
1,
#13
0,
#14
1,
#15
0,
#16
1,
0+
#17
0,
#18
1,
#19
0,
#20
1,
#21
0,
#22
1,
#23
0,
#24
1X
b1 F
1Q
03
0E
b10111100 .
bz111100 G
11
10
1,
1+
1(
#25
0,
#26
1Z
1T
06
1>
17
0X
08
b10 F
0Q
0A
0C
1S
1P
1M
1L
1I
b1 2
1Y
b1 /
1,
#27
0,
#28
1)
0:
0>
1;
1X
0<
b11 F
1Q
1A
0D
1C
1R
1N
1J
1H
0S
0P
0M
0L
0I
1[
b10 2
0Y
1*
b10 /
1,
#29
0,
#30
1\
1W
0Z
0T
04
1>
0X
19
b100 F
0Q
0A
0C
1S
1P
1M
1L
1I
b11 2
1Y
b11 /
1,
#31
0,
#32
1\
1W
0Z
16
0T
03
0>
07
1X
09
15
18
b101 F
1Q
1A
1D
1C
1V
1U
1O
1K
0R
0N
0J
0H
0S
0P
0M
0L
0I
1]
0[
b100 2
0Y
b100 /
1,
0+
#33
0,
#34
1Z
1T
06
1>
17
0X
08
b110 F
0Q
0A
0C
1S
1P
1M
1L
1I
b101 2
1Y
b101 /
1,
#35
0,
#36
0)
1=
0>
1X
0B
b111 F
1Q
1A
0D
1C
1R
1N
1J
1H
0S
0P
0M
0L
0I
1[
b110 2
0Y
0*
b110 /
1,
#37
0,
#38
0\
0W
1)
13
0=
0Z
0T
05
1>
0X
19
b0 F
0Q
0A
0C
1S
1P
1M
1L
1I
b111 2
1Y
1*
b111 /
1,
#39
0,
#40
0)
0Z
1:
16
0T
14
03
0>
0;
07
1X
09
15
1<
1B
18
b1 F
1Q
1A
1D
1C
0V
0U
0O
0K
0R
0N
0J
0H
0S
0P
0M
0L
0I
0]
0[
b0 2
0Y
0*
b0 /
1,
1+
#41
0,
#42
1Z
1T
06
1>
17
0X
08
b10 F
0Q
0A
0C
1S
1P
1M
1L
1I
b1 2
1Y
b1 /
1,
#43
0,
#44
1)
0:
0>
1;
1X
0<
b11 F
1Q
1A
0D
1C
1R
1N
1J
1H
0S
0P
0M
0L
0I
1[
b10 2
0Y
1*
b10 /
1,
#45
0,
#46
1\
1W
0Z
0T
04
1>
0X
19
b100 F
0Q
0A
0C
1S
1P
1M
1L
1I
b11 2
1Y
b11 /
1,
#47
0,
#48
1\
1W
0Z
16
0T
03
0>
07
1X
09
15
18
b101 F
1Q
1A
1D
1C
1V
1U
1O
1K
0R
0N
0J
0H
0S
0P
0M
0L
0I
1]
0[
b100 2
0Y
b100 /
1,
0+
#49
0,
#50
1Z
1T
06
1>
17
0X
08
b110 F
0Q
0A
0C
1S
1P
1M
1L
1I
b101 2
1Y
b101 /
1,
#51
0,
#52
0)
1=
0>
1X
0B
b111 F
1Q
1A
0D
1C
1R
1N
1J
1H
0S
0P
0M
0L
0I
1[
b110 2
0Y
0*
b110 /
1,
#53
0,
#54
0\
0W
1)
13
0=
0Z
0T
05
1>
0X
19
b0 F
0Q
0A
0C
1S
1P
1M
1L
1I
b111 2
1Y
1*
b111 /
1,
#55
0,
#56
0)
0Z
1:
16
0T
14
03
0>
0;
07
1X
09
15
1<
1B
18
b1 F
1Q
1A
1D
1C
0V
0U
0O
0K
0R
0N
0J
0H
0S
0P
0M
0L
0I
0]
0[
b0 2
0Y
0*
b0 /
1,
1+
#57
0,
#58
1Z
1T
06
1>
17
0X
08
b10 F
0Q
0A
0C
1S
1P
1M
1L
1I
b1 2
1Y
b1 /
1,
#59
0,
#60
1)
0:
0>
1;
1X
0<
b11 F
1Q
1A
0D
1C
1R
1N
1J
1H
0S
0P
0M
0L
0I
1[
b10 2
0Y
1*
b10 /
1,
#61
0,
#62
1\
1W
0Z
0T
04
1>
0X
19
b100 F
0Q
0A
0C
1S
1P
1M
1L
1I
b11 2
1Y
b11 /
1,
#63
0,
#64
1\
1W
0Z
16
0T
03
0>
07
1X
09
15
18
b101 F
1Q
1A
1D
1C
1V
1U
1O
1K
0R
0N
0J
0H
0S
0P
0M
0L
0I
1]
0[
b100 2
0Y
b100 /
1,
0+
#65
0,
#66
1Z
1T
06
1>
17
0X
08
b110 F
0Q
0A
0C
1S
1P
1M
1L
1I
b101 2
1Y
b101 /
1,
#67
0,
#68
0)
1=
0>
1X
0B
b111 F
1Q
1A
0D
1C
1R
1N
1J
1H
0S
0P
0M
0L
0I
1[
b110 2
0Y
0*
b110 /
1,
#69
0,
#70
0\
0W
1)
13
0=
0Z
0T
05
1>
0X
19
b0 F
0Q
0A
0C
1S
1P
1M
1L
1I
b111 2
1Y
1*
b111 /
1,
#71
0,
#72
0)
0Z
1:
16
0T
14
03
0>
0;
07
1X
09
15
1<
1B
18
b1 F
1Q
1A
1D
1C
0V
0U
0O
0K
0R
0N
0J
0H
0S
0P
0M
0L
0I
0]
0[
b0 2
0Y
0*
b0 /
1,
1+
#73
0,
#74
1Z
1T
06
1>
17
0X
08
b10 F
0Q
0A
0C
1S
1P
1M
1L
1I
b1 2
1Y
b1 /
1,
#75
0,
#76
1)
0:
0>
1;
1X
0<
b11 F
1Q
1A
0D
1C
1R
1N
1J
1H
0S
0P
0M
0L
0I
1[
b10 2
0Y
1*
b10 /
1,
#77
0,
#78
1\
1W
0Z
0T
04
1>
0X
19
b100 F
0Q
0A
0C
1S
1P
1M
1L
1I
b11 2
1Y
b11 /
1,
#79
0,
#80
1\
1W
0Z
16
0T
03
0>
07
1X
09
15
18
b101 F
1Q
1A
1D
1C
1V
1U
1O
1K
0R
0N
0J
0H
0S
0P
0M
0L
0I
1]
0[
b100 2
0Y
b100 /
1,
0+
#81
0,
#82
1Z
1T
06
1>
17
0X
08
b110 F
0Q
0A
0C
1S
1P
1M
1L
1I
b101 2
1Y
b101 /
1,
#83
0,
#84
0)
1=
0>
1X
0B
b111 F
1Q
1A
0D
1C
1R
1N
1J
1H
0S
0P
0M
0L
0I
1[
b110 2
0Y
0*
b110 /
1,
#85
0,
#86
0\
0W
1)
13
0=
0Z
0T
05
1>
0X
19
b0 F
0Q
0A
0C
1S
1P
1M
1L
1I
b111 2
1Y
1*
b111 /
1,
#87
0,
#88
0Z
1:
16
0T
14
03
0;
07
1X
09
15
1<
1B
18
b1 F
1Q
1D
1C
0V
0U
0O
0K
0R
0N
0J
0H
0S
0P
0M
0L
0I
0]
0[
b0 2
0Y
0)
0=
1>
0?
0*
1@
b0 /
b1111100 .
1,
1+
1-
#89
0,
#90
1Z
1T
06
0>
17
0X
1?
08
b10 F
0Q
0@
0C
1S
1P
1M
1L
1I
b1 2
1Y
b1 /
1,
#91
0,
#92
1)
0:
1>
1;
1X
0?
0<
b11 F
1Q
1@
0D
1C
1R
1N
1J
1H
0S
0P
0M
0L
0I
1[
b10 2
0Y
1*
b10 /
1,
#93
0,
#94
1\
1W
0Z
0>
0T
04
0X
1?
19
b100 F
0Q
0@
0C
1S
1P
1M
1L
1I
b11 2
1Y
b11 /
1,
#95
0,
#96
1\
1W
0Z
16
1>
0T
03
07
1X
0?
09
15
18
b101 F
1Q
1@
1D
1C
1V
1U
1O
1K
0R
0N
0J
0H
0S
0P
0M
0L
0I
1]
0[
b100 2
0Y
b100 /
1,
0+
#97
0,
#98
1Z
1T
06
0>
17
0X
1?
08
b110 F
0Q
0@
0C
1S
1P
1M
1L
1I
b101 2
1Y
b101 /
1,
#99
0,
#100
1)
1>
0=
1X
0?
0B
b111 F
1Q
1@
0D
1C
1R
1N
1J
1H
0S
0P
0M
0L
0I
1[
b110 2
0Y
b110 /
1,
#101
0,
#102
0\
0)
0W
1=
13
0Z
0>
0T
05
0X
1?
19
b0 F
0Q
0@
0C
1S
1P
1M
1L
1I
b111 2
1Y
0*
b111 /
1,
#103
0,
#104
0)
0Z
1:
16
1>
0T
14
03
0=
0;
07
1X
0?
09
15
1<
1B
18
b1 F
1Q
1@
1D
1C
0V
0U
0O
0K
0R
0N
0J
0H
0S
0P
0M
0L
0I
0]
0[
b0 2
0Y
b0 /
1,
1+
#105
0,
#106
1Z
1T
06
0>
17
0X
1?
08
b10 F
0Q
0@
0C
1S
1P
1M
1L
1I
b1 2
1Y
b1 /
1,
#107
0,
#108
1)
0:
1>
1;
1X
0?
0<
b11 F
1Q
1@
0D
1C
1R
1N
1J
1H
0S
0P
0M
0L
0I
1[
b10 2
0Y
1*
b10 /
1,
#109
0,
#110
1\
1W
0Z
0>
0T
04
0X
1?
19
b100 F
0Q
0@
0C
1S
1P
1M
1L
1I
b11 2
1Y
b11 /
1,
#111
0,
#112
1\
1W
0Z
16
1>
0T
03
07
1X
0?
09
15
18
b101 F
1Q
1@
1D
1C
1V
1U
1O
1K
0R
0N
0J
0H
0S
0P
0M
0L
0I
1]
0[
b100 2
0Y
b100 /
1,
0+
#113
0,
#114
1Z
1T
06
0>
17
0X
1?
08
b110 F
0Q
0@
0C
1S
1P
1M
1L
1I
b101 2
1Y
b101 /
1,
#115
0,
#116
1)
1>
0=
1X
0?
0B
b111 F
1Q
1@
0D
1C
1R
1N
1J
1H
0S
0P
0M
0L
0I
1[
b110 2
0Y
b110 /
1,
#117
0,
#118
0\
0)
0W
1=
13
0Z
0>
0T
05
0X
1?
19
b0 F
0Q
0@
0C
1S
1P
1M
1L
1I
b111 2
1Y
0*
b111 /
1,
#119
0,
#120
0)
0Z
1:
16
1>
0T
14
03
0=
0;
07
1X
0?
09
15
1<
1B
18
b1 F
1Q
1@
1D
1C
0V
0U
0O
0K
0R
0N
0J
0H
0S
0P
0M
0L
0I
0]
0[
b0 2
0Y
b0 /
1,
1+
#121
0,
#122
1Z
1T
06
0>
17
0X
1?
08
b10 F
0Q
0@
0C
1S
1P
1M
1L
1I
b1 2
1Y
b1 /
1,
#123
0,
#124
1)
0:
1>
1;
1X
0?
0<
b11 F
1Q
1@
0D
1C
1R
1N
1J
1H
0S
0P
0M
0L
0I
1[
b10 2
0Y
1*
b10 /
1,
#125
0,
#126
1\
1W
0Z
0>
0T
04
0X
1?
19
b100 F
0Q
0@
0C
1S
1P
1M
1L
1I
b11 2
1Y
b11 /
1,
#127
0,
#128
1\
1W
0Z
16
1>
0T
03
07
1X
0?
09
15
18
b101 F
1Q
1@
1D
1C
1V
1U
1O
1K
0R
0N
0J
0H
0S
0P
0M
0L
0I
1]
0[
b100 2
0Y
b100 /
1,
0+
#129
0,
#130
1Z
1T
06
0>
17
0X
1?
08
b110 F
0Q
0@
0C
1S
1P
1M
1L
1I
b101 2
1Y
b101 /
1,
#131
0,
#132
1)
1>
0=
1X
0?
0B
b111 F
1Q
1@
0D
1C
1R
1N
1J
1H
0S
0P
0M
0L
0I
1[
b110 2
0Y
b110 /
1,
#133
0,
#134
0\
0)
0W
1=
13
0Z
0>
0T
05
0X
1?
19
b0 F
0Q
0@
0C
1S
1P
1M
1L
1I
b111 2
1Y
0*
b111 /
1,
#135
0,
#136
0)
0Z
1:
16
1>
0T
14
03
0=
0;
07
1X
0?
09
15
1<
1B
18
b1 F
1Q
1@
1D
1C
0V
0U
0O
0K
0R
0N
0J
0H
0S
0P
0M
0L
0I
0]
0[
b0 2
0Y
b0 /
1,
1+
#137
0,
#138
1Z
1T
06
0>
17
0X
1?
08
b10 F
0Q
0@
0C
1S
1P
1M
1L
1I
b1 2
1Y
b1 /
1,
#139
0,
#140
1)
0:
1>
1;
1X
0?
0<
b11 F
1Q
1@
0D
1C
1R
1N
1J
1H
0S
0P
0M
0L
0I
1[
b10 2
0Y
1*
b10 /
1,
#141
0,
#142
1\
1W
0Z
0>
0T
04
0X
1?
19
b100 F
0Q
0@
0C
1S
1P
1M
1L
1I
b11 2
1Y
b11 /
1,
#143
0,
#144
1\
1W
0Z
16
1>
0T
03
07
1X
0?
09
15
18
b101 F
1Q
1@
1D
1C
1V
1U
1O
1K
0R
0N
0J
0H
0S
0P
0M
0L
0I
1]
0[
b100 2
0Y
b100 /
1,
0+
#145
0,
#146
1Z
1T
06
0>
17
0X
1?
08
b110 F
0Q
0@
0C
1S
1P
1M
1L
1I
b101 2
1Y
b101 /
1,
#147
0,
#148
1)
1>
0=
1X
0?
0B
b111 F
1Q
1@
0D
1C
1R
1N
1J
1H
0S
0P
0M
0L
0I
1[
b110 2
0Y
b110 /
1,
#149
0,
#150
0\
0)
0W
1=
13
0Z
0>
0T
05
0X
1?
19
b0 F
0Q
0@
0C
1S
1P
1M
1L
1I
b111 2
1Y
0*
b111 /
1,
#151
0,
#152
0)
0Z
1:
16
1>
0T
14
03
0=
0;
07
1X
0?
09
15
1<
1B
18
b1 F
1Q
1@
1D
1C
0V
0U
0O
0K
0R
0N
0J
0H
0S
0P
0M
0L
0I
0]
0[
b0 2
0Y
b0 /
1,
1+
#153
0,
#154
1Z
1T
06
0>
17
0X
1?
08
b10 F
0Q
0@
0C
1S
1P
1M
1L
1I
b1 2
1Y
b1 /
1,
#155
0,
#156
1)
0:
1>
1;
1X
0?
0<
b11 F
1Q
1@
0D
1C
1R
1N
1J
1H
0S
0P
0M
0L
0I
1[
b10 2
0Y
1*
b10 /
1,
#157
0,
#158
1\
1W
0Z
0>
0T
04
0X
1?
19
b100 F
0Q
0@
0C
1S
1P
1M
1L
1I
b11 2
1Y
b11 /
1,
#159
0,
#160
1\
1W
0Z
16
1>
0T
03
07
1X
0?
09
15
18
b101 F
1Q
1@
1D
1C
1V
1U
1O
1K
0R
0N
0J
0H
0S
0P
0M
0L
0I
1]
0[
b100 2
0Y
b100 /
1,
0+
#161
0,
#162
1Z
1T
06
0>
17
0X
1?
08
b110 F
0Q
0@
0C
1S
1P
1M
1L
1I
b101 2
1Y
b101 /
1,
#163
0,
#164
1)
1>
0=
1X
0?
0B
b111 F
1Q
1@
0D
1C
1R
1N
1J
1H
0S
0P
0M
0L
0I
1[
b110 2
0Y
b110 /
1,
#165
0,
#166
0\
0)
0W
1=
13
0Z
0>
0T
05
0X
1?
19
b0 F
0Q
0@
0C
1S
1P
1M
1L
1I
b111 2
1Y
0*
b111 /
1,
#167
0,
#168
0)
0Z
1:
16
1>
0T
14
03
0=
0;
07
1X
0?
09
15
1<
1B
18
b1 F
1Q
1@
1D
1C
0V
0U
0O
0K
0R
0N
0J
0H
0S
0P
0M
0L
0I
0]
0[
b0 2
0Y
b0 /
1,
1+
