SERIALPARALELO2/000serialparalelo2.vcd
$date
	Mon May 31 22:17:41 2021
$end
$version
	Icarus Verilog
$end
$timescale
	1s
$end
$scope module BUF $end
$var wire 1 ! A $end
$var wire 1 " Y $end
$upscope $end
$scope module DFFSR $end
$var wire 1 # C $end
$var wire 1 $ D $end
$var wire 1 % R $end
$var wire 1 & S $end
$var reg 1 ' Q $end
$upscope $end
$scope module testbench $end
$var wire 1 ( reset $end
$var wire 1 ) inserter $end
$var wire 1 * clk_f $end
$var wire 1 + clk_4f $end
$var wire 1 , clk_32f $end
$var wire 1 - IDLE_OUT_synt $end
$var wire 1 . IDLE_OUT $end
$scope module PROB $end
$var wire 1 - IDLE_OUT_synt $end
$var wire 1 . IDLE_OUT $end
$var reg 1 , clk_32f $end
$var reg 1 + clk_4f $end
$var reg 1 * clk_f $end
$var reg 1 ) inserter $end
$var reg 1 ( reset $end
$upscope $end
$scope module SP2_COND $end
$var wire 1 , clk_32f $end
$var wire 1 + clk_4f $end
$var wire 1 * clk_f $end
$var wire 1 ) inserter $end
$var wire 1 ( reset $end
$var reg 3 / BC_counter [2:0] $end
$var reg 1 0 BC_counter4 $end
$var reg 1 . IDLE_OUT $end
$var reg 1 1 IDLE_OUT_N $end
$var reg 8 2 container [7:0] $end
$var reg 3 3 counter [2:0] $end
$var reg 1 4 idle_in $end
$var reg 1 5 reset_s $end
$upscope $end
$scope module SP2_SYNT $end
$var wire 1 , clk_32f $end
$var wire 1 + clk_4f $end
$var wire 1 * clk_f $end
$var wire 1 ) inserter $end
$var wire 1 ( reset $end
$var wire 1 6 reset_s $end
$var wire 1 7 idle_in $end
$var wire 3 8 counter [2:0] $end
$var wire 8 9 container [7:0] $end
$var wire 1 : _086_ $end
$var wire 1 ; _085_ $end
$var wire 1 < _084_ $end
$var wire 1 = _083_ $end
$var wire 1 > _082_ $end
$var wire 1 ? _081_ $end
$var wire 1 @ _080_ $end
$var wire 1 A _079_ $end
$var wire 1 B _078_ $end
$var wire 1 C _077_ $end
$var wire 1 D _076_ $end
$var wire 1 E _075_ $end
$var wire 1 F _074_ $end
$var wire 1 G _073_ $end
$var wire 1 H _072_ $end
$var wire 1 I _071_ $end
$var wire 1 J _070_ $end
$var wire 1 K _069_ $end
$var wire 1 L _068_ $end
$var wire 1 M _067_ $end
$var wire 1 N _066_ $end
$var wire 1 O _065_ $end
$var wire 1 P _064_ $end
$var wire 1 Q _063_ $end
$var wire 1 R _062_ $end
$var wire 1 S _061_ $end
$var wire 1 T _060_ $end
$var wire 1 U _059_ $end
$var wire 1 V _058_ $end
$var wire 1 W _057_ $end
$var wire 1 X _056_ $end
$var wire 1 Y _055_ $end
$var wire 1 Z _054_ $end
$var wire 1 [ _053_ $end
$var wire 1 \ _052_ $end
$var wire 1 ] _051_ $end
$var wire 1 ^ _050_ $end
$var wire 1 _ _049_ $end
$var wire 1 ` _048_ $end
$var wire 1 a _047_ $end
$var wire 1 b _046_ $end
$var wire 1 c _045_ $end
$var wire 1 d _044_ $end
$var wire 1 e _043_ $end
$var wire 1 f _042_ $end
$var wire 1 g _041_ $end
$var wire 1 h _040_ $end
$var wire 1 i _039_ $end
$var wire 1 j _038_ $end
$var wire 1 k _037_ $end
$var wire 1 l _036_ $end
$var wire 1 m _035_ $end
$var wire 1 n _034_ $end
$var wire 1 o _033_ $end
$var wire 1 p _032_ $end
$var wire 1 q _031_ $end
$var wire 1 r _030_ $end
$var wire 1 s _029_ $end
$var wire 1 t _028_ $end
$var wire 1 u _027_ $end
$var wire 1 v _026_ $end
$var wire 1 w _025_ $end
$var wire 1 x _024_ $end
$var wire 1 y _023_ $end
$var wire 1 z _022_ $end
$var wire 1 { _021_ $end
$var wire 1 | _020_ $end
$var wire 1 } _019_ $end
$var wire 1 ~ _018_ $end
$var wire 1 !" _017_ $end
$var wire 1 "" _016_ $end
$var wire 1 #" _015_ $end
$var wire 1 $" _014_ $end
$var wire 1 %" _013_ $end
$var wire 1 &" _012_ $end
$var wire 1 '" _011_ $end
$var wire 1 (" _010_ $end
$var wire 1 )" _009_ $end
$var wire 1 *" _008_ $end
$var wire 1 +" _007_ $end
$var wire 1 ," _006_ $end
$var wire 1 -" _005_ $end
$var wire 1 ." _004_ $end
$var wire 3 /" _003_ [2:0] $end
$var wire 8 0" _002_ [7:0] $end
$var wire 1 1" _001_ $end
$var wire 3 2" _000_ [2:0] $end
$var wire 1 - IDLE_OUT_synt $end
$var wire 3 3" BC_counter [2:0] $end
$scope module _087_ $end
$var wire 1 4" A $end
$var wire 1 j Y $end
$upscope $end
$scope module _088_ $end
$var wire 1 5" A $end
$var wire 1 i Y $end
$upscope $end
$scope module _089_ $end
$var wire 1 6" A $end
$var wire 1 h Y $end
$upscope $end
$scope module _090_ $end
$var wire 1 7" A $end
$var wire 1 g Y $end
$upscope $end
$scope module _091_ $end
$var wire 1 8" A $end
$var wire 1 f Y $end
$upscope $end
$scope module _092_ $end
$var wire 1 e Y $end
$var wire 1 6 A $end
$upscope $end
$scope module _093_ $end
$var wire 1 9" A $end
$var wire 1 d Y $end
$upscope $end
$scope module _094_ $end
$var wire 1 , A $end
$var wire 1 -" Y $end
$upscope $end
$scope module _095_ $end
$var wire 1 :" A $end
$var wire 1 c Y $end
$var wire 1 7 B $end
$upscope $end
$scope module _096_ $end
$var wire 1 e A $end
$var wire 1 c B $end
$var wire 1 1" Y $end
$upscope $end
$scope module _097_ $end
$var wire 1 ;" A $end
$var wire 1 <" B $end
$var wire 1 b Y $end
$upscope $end
$scope module _098_ $end
$var wire 1 b A $end
$var wire 1 a Y $end
$upscope $end
$scope module _099_ $end
$var wire 1 =" A $end
$var wire 1 >" B $end
$var wire 1 ` Y $end
$upscope $end
$scope module _100_ $end
$var wire 1 a A $end
$var wire 1 ` B $end
$var wire 1 _ Y $end
$upscope $end
$scope module _101_ $end
$var wire 1 j A $end
$var wire 1 ?" B $end
$var wire 1 ^ Y $end
$upscope $end
$scope module _102_ $end
$var wire 1 @" A $end
$var wire 1 A" B $end
$var wire 1 ] Y $end
$upscope $end
$scope module _103_ $end
$var wire 1 ] A $end
$var wire 1 \ Y $end
$upscope $end
$scope module _104_ $end
$var wire 1 _ A $end
$var wire 1 \ B $end
$var wire 1 [ Y $end
$upscope $end
$scope module _105_ $end
$var wire 1 ^ A $end
$var wire 1 [ B $end
$var wire 1 Z Y $end
$upscope $end
$scope module _106_ $end
$var wire 1 Z B $end
$var wire 1 Y Y $end
$var wire 1 7 A $end
$upscope $end
$scope module _107_ $end
$var wire 1 e A $end
$var wire 1 Y B $end
$var wire 1 ." Y $end
$upscope $end
$scope module _108_ $end
$var wire 1 f A $end
$var wire 1 _ B $end
$var wire 1 X Y $end
$upscope $end
$scope module _109_ $end
$var wire 1 B" A $end
$var wire 1 ] B $end
$var wire 1 W Y $end
$upscope $end
$scope module _110_ $end
$var wire 1 C" A $end
$var wire 1 W B $end
$var wire 1 V Y $end
$upscope $end
$scope module _111_ $end
$var wire 1 X A $end
$var wire 1 V B $end
$var wire 1 U Y $end
$upscope $end
$scope module _112_ $end
$var wire 1 D" A $end
$var wire 1 U B $end
$var wire 1 T Y $end
$upscope $end
$scope module _113_ $end
$var wire 1 T A $end
$var wire 1 S Y $end
$upscope $end
$scope module _114_ $end
$var wire 1 S B $end
$var wire 1 R Y $end
$var wire 1 6 A $end
$upscope $end
$scope module _115_ $end
$var wire 1 E" A $end
$var wire 1 U B $end
$var wire 1 Q Y $end
$upscope $end
$scope module _116_ $end
$var wire 1 Q A $end
$var wire 1 P Y $end
$upscope $end
$scope module _117_ $end
$var wire 1 R A $end
$var wire 1 P B $end
$var wire 1 F" Y $end
$upscope $end
$scope module _118_ $end
$var wire 1 d A $end
$var wire 1 Q B $end
$var wire 1 O Y $end
$upscope $end
$scope module _119_ $end
$var wire 1 O B $end
$var wire 1 N Y $end
$var wire 1 6 A $end
$upscope $end
$scope module _120_ $end
$var wire 1 d A $end
$var wire 1 Q B $end
$var wire 1 M Y $end
$upscope $end
$scope module _121_ $end
$var wire 1 N A $end
$var wire 1 M B $end
$var wire 1 G" Y $end
$upscope $end
$scope module _122_ $end
$var wire 1 H" A $end
$var wire 1 M B $end
$var wire 1 L Y $end
$upscope $end
$scope module _123_ $end
$var wire 1 e A $end
$var wire 1 L B $end
$var wire 1 I" Y $end
$upscope $end
$scope module _124_ $end
$var wire 1 h A $end
$var wire 1 g B $end
$var wire 1 K Y $end
$upscope $end
$scope module _125_ $end
$var wire 1 J" A $end
$var wire 1 K" B $end
$var wire 1 J Y $end
$upscope $end
$scope module _126_ $end
$var wire 1 L" A $end
$var wire 1 K B $end
$var wire 1 I Y $end
$upscope $end
$scope module _127_ $end
$var wire 1 I A $end
$var wire 1 H Y $end
$upscope $end
$scope module _128_ $end
$var wire 1 ) A $end
$var wire 1 H B $end
$var wire 1 G Y $end
$upscope $end
$scope module _129_ $end
$var wire 1 M" A $end
$var wire 1 I B $end
$var wire 1 F Y $end
$upscope $end
$scope module _130_ $end
$var wire 1 G A $end
$var wire 1 F B $end
$var wire 1 N" Y $end
$upscope $end
$scope module _131_ $end
$var wire 1 O" A $end
$var wire 1 g B $end
$var wire 1 E Y $end
$upscope $end
$scope module _132_ $end
$var wire 1 h A $end
$var wire 1 P" B $end
$var wire 1 D Y $end
$upscope $end
$scope module _133_ $end
$var wire 1 i A $end
$var wire 1 D B $end
$var wire 1 C Y $end
$upscope $end
$scope module _134_ $end
$var wire 1 Q" A $end
$var wire 1 E B $end
$var wire 1 B Y $end
$upscope $end
$scope module _135_ $end
$var wire 1 ) A $end
$var wire 1 C B $end
$var wire 1 A Y $end
$upscope $end
$scope module _136_ $end
$var wire 1 R" A $end
$var wire 1 B B $end
$var wire 1 @ Y $end
$upscope $end
$scope module _137_ $end
$var wire 1 A A $end
$var wire 1 @ B $end
$var wire 1 S" Y $end
$upscope $end
$scope module _138_ $end
$var wire 1 h A $end
$var wire 1 T" B $end
$var wire 1 ? Y $end
$upscope $end
$scope module _139_ $end
$var wire 1 U" A $end
$var wire 1 g B $end
$var wire 1 > Y $end
$upscope $end
$scope module _140_ $end
$var wire 1 i A $end
$var wire 1 > B $end
$var wire 1 = Y $end
$upscope $end
$scope module _141_ $end
$var wire 1 V" A $end
$var wire 1 ? B $end
$var wire 1 < Y $end
$upscope $end
$scope module _142_ $end
$var wire 1 ) A $end
$var wire 1 = B $end
$var wire 1 ; Y $end
$upscope $end
$scope module _143_ $end
$var wire 1 W" A $end
$var wire 1 < B $end
$var wire 1 : Y $end
$upscope $end
$scope module _144_ $end
$var wire 1 ; A $end
$var wire 1 : B $end
$var wire 1 X" Y $end
$upscope $end
$scope module _145_ $end
$var wire 1 Y" A $end
$var wire 1 Z" B $end
$var wire 1 %" Y $end
$upscope $end
$scope module _146_ $end
$var wire 1 %" A $end
$var wire 1 $" Y $end
$upscope $end
$scope module _147_ $end
$var wire 1 [" A $end
$var wire 1 %" B $end
$var wire 1 #" Y $end
$upscope $end
$scope module _148_ $end
$var wire 1 #" A $end
$var wire 1 "" Y $end
$upscope $end
$scope module _149_ $end
$var wire 1 ) A $end
$var wire 1 "" B $end
$var wire 1 !" Y $end
$upscope $end
$scope module _150_ $end
$var wire 1 \" A $end
$var wire 1 #" B $end
$var wire 1 ~ Y $end
$upscope $end
$scope module _151_ $end
$var wire 1 !" A $end
$var wire 1 ~ B $end
$var wire 1 ]" Y $end
$upscope $end
$scope module _152_ $end
$var wire 1 ^" A $end
$var wire 1 J B $end
$var wire 1 } Y $end
$upscope $end
$scope module _153_ $end
$var wire 1 } A $end
$var wire 1 | Y $end
$upscope $end
$scope module _154_ $end
$var wire 1 ) A $end
$var wire 1 } B $end
$var wire 1 { Y $end
$upscope $end
$scope module _155_ $end
$var wire 1 _" A $end
$var wire 1 | B $end
$var wire 1 z Y $end
$upscope $end
$scope module _156_ $end
$var wire 1 { A $end
$var wire 1 z B $end
$var wire 1 `" Y $end
$upscope $end
$scope module _157_ $end
$var wire 1 a" A $end
$var wire 1 D B $end
$var wire 1 y Y $end
$upscope $end
$scope module _158_ $end
$var wire 1 i A $end
$var wire 1 E B $end
$var wire 1 x Y $end
$upscope $end
$scope module _159_ $end
$var wire 1 ) A $end
$var wire 1 y B $end
$var wire 1 w Y $end
$upscope $end
$scope module _160_ $end
$var wire 1 b" A $end
$var wire 1 x B $end
$var wire 1 v Y $end
$upscope $end
$scope module _161_ $end
$var wire 1 w A $end
$var wire 1 v B $end
$var wire 1 c" Y $end
$upscope $end
$scope module _162_ $end
$var wire 1 d" A $end
$var wire 1 > B $end
$var wire 1 u Y $end
$upscope $end
$scope module _163_ $end
$var wire 1 i A $end
$var wire 1 ? B $end
$var wire 1 t Y $end
$upscope $end
$scope module _164_ $end
$var wire 1 ) A $end
$var wire 1 u B $end
$var wire 1 s Y $end
$upscope $end
$scope module _165_ $end
$var wire 1 e" A $end
$var wire 1 t B $end
$var wire 1 r Y $end
$upscope $end
$scope module _166_ $end
$var wire 1 s A $end
$var wire 1 r B $end
$var wire 1 f" Y $end
$upscope $end
$scope module _167_ $end
$var wire 1 g" A $end
$var wire 1 $" B $end
$var wire 1 q Y $end
$upscope $end
$scope module _168_ $end
$var wire 1 i A $end
$var wire 1 %" B $end
$var wire 1 p Y $end
$upscope $end
$scope module _169_ $end
$var wire 1 ) A $end
$var wire 1 q B $end
$var wire 1 o Y $end
$upscope $end
$scope module _170_ $end
$var wire 1 h" A $end
$var wire 1 p B $end
$var wire 1 n Y $end
$upscope $end
$scope module _171_ $end
$var wire 1 o A $end
$var wire 1 n B $end
$var wire 1 i" Y $end
$upscope $end
$scope module _172_ $end
$var wire 1 j" A $end
$var wire 1 e B $end
$var wire 1 k" Y $end
$upscope $end
$scope module _173_ $end
$var wire 1 J B $end
$var wire 1 m Y $end
$var wire 1 6 A $end
$upscope $end
$scope module _174_ $end
$var wire 1 %" A $end
$var wire 1 m B $end
$var wire 1 l" Y $end
$upscope $end
$scope module _175_ $end
$var wire 1 i A $end
$var wire 1 J B $end
$var wire 1 l Y $end
$upscope $end
$scope module _176_ $end
$var wire 1 l B $end
$var wire 1 k Y $end
$var wire 1 6 A $end
$upscope $end
$scope module _177_ $end
$var wire 1 H A $end
$var wire 1 k B $end
$var wire 1 m" Y $end
$upscope $end
$scope module _178_ $end
$var wire 1 , A $end
$var wire 1 ," Y $end
$upscope $end
$scope module _179_ $end
$var wire 1 , A $end
$var wire 1 +" Y $end
$upscope $end
$scope module _180_ $end
$var wire 1 , A $end
$var wire 1 *" Y $end
$upscope $end
$scope module _181_ $end
$var wire 1 , A $end
$var wire 1 )" Y $end
$upscope $end
$scope module _182_ $end
$var wire 1 , A $end
$var wire 1 (" Y $end
$upscope $end
$scope module _183_ $end
$var wire 1 , A $end
$var wire 1 '" Y $end
$upscope $end
$scope module _184_ $end
$var wire 1 , A $end
$var wire 1 &" Y $end
$upscope $end
$scope module _185_ $end
$var wire 1 * C $end
$var wire 1 1" D $end
$var reg 1 - Q $end
$upscope $end
$scope module _186_ $end
$var wire 1 + C $end
$var wire 1 ." D $end
$var reg 1 7 Q $end
$upscope $end
$scope module _187_ $end
$var wire 1 + C $end
$var wire 1 n" D $end
$var reg 1 o" Q $end
$upscope $end
$scope module _188_ $end
$var wire 1 + C $end
$var wire 1 p" D $end
$var reg 1 q" Q $end
$upscope $end
$scope module _189_ $end
$var wire 1 + C $end
$var wire 1 r" D $end
$var reg 1 s" Q $end
$upscope $end
$scope module _190_ $end
$var wire 1 -" C $end
$var wire 1 t" D $end
$var reg 1 u" Q $end
$upscope $end
$scope module _191_ $end
$var wire 1 ," C $end
$var wire 1 v" D $end
$var reg 1 w" Q $end
$upscope $end
$scope module _192_ $end
$var wire 1 +" C $end
$var wire 1 x" D $end
$var reg 1 y" Q $end
$upscope $end
$scope module _193_ $end
$var wire 1 *" C $end
$var wire 1 z" D $end
$var reg 1 {" Q $end
$upscope $end
$scope module _194_ $end
$var wire 1 )" C $end
$var wire 1 |" D $end
$var reg 1 }" Q $end
$upscope $end
$scope module _195_ $end
$var wire 1 (" C $end
$var wire 1 ~" D $end
$var reg 1 !# Q $end
$upscope $end
$scope module _196_ $end
$var wire 1 '" C $end
$var wire 1 "# D $end
$var reg 1 ## Q $end
$upscope $end
$scope module _197_ $end
$var wire 1 &" C $end
$var wire 1 $# D $end
$var reg 1 %# Q $end
$upscope $end
$scope module _198_ $end
$var wire 1 , C $end
$var wire 1 &# D $end
$var reg 1 '# Q $end
$upscope $end
$scope module _199_ $end
$var wire 1 , C $end
$var wire 1 (# D $end
$var reg 1 )# Q $end
$upscope $end
$scope module _200_ $end
$var wire 1 , C $end
$var wire 1 *# D $end
$var reg 1 +# Q $end
$upscope $end
$scope module _201_ $end
$var wire 1 + C $end
$var wire 1 ( D $end
$var reg 1 6 Q $end
$upscope $end
$upscope $end
$upscope $end
$enddefinitions $end
#0
$dumpvars
x+#
x*#
x)#
x(#
x'#
x&#
x%#
x$#
x##
x"#
x!#
x~"
x}"
x|"
x{"
xz"
xy"
xx"
xw"
xv"
xu"
xt"
xs"
xr"
xq"
xp"
xo"
xn"
xm"
xl"
xk"
xj"
xi"
xh"
xg"
xf"
xe"
xd"
xc"
xb"
xa"
x`"
x_"
x^"
x]"
x\"
x["
xZ"
xY"
xX"
xW"
xV"
xU"
xT"
xS"
xR"
xQ"
xP"
xO"
xN"
xM"
xL"
xK"
xJ"
xI"
xH"
xG"
xF"
xE"
xD"
xC"
xB"
xA"
x@"
x?"
x>"
x="
x<"
x;"
x:"
x9"
x8"
x7"
x6"
x5"
x4"
bx 3"
bx 2"
x1"
bx 0"
bx /"
x."
0-"
0,"
0+"
0*"
0)"
0("
0'"
0&"
x%"
x$"
x#"
x""
1!"
x~
x}
x|
1{
xz
xy
xx
1w
xv
xu
xt
1s
xr
xq
xp
1o
xn
xm
xl
xk
xj
xi
xh
xg
xf
xe
xd
xc
xb
xa
x`
x_
x^
x]
x\
x[
xZ
xY
xX
xW
xV
xU
xT
xS
xR
xQ
xP
xO
xN
xM
xL
xK
xJ
xI
xH
1G
xF
xE
xD
xC
xB
1A
x@
x?
x>
x=
x<
1;
x:
bx 9
bx 8
x7
x6
x5
x4
bx 3
bx 2
x1
x0
bx /
x.
x-
1,
1+
0*
0)
0(
x'
z&
z%
z$
z#
z"
z!
$end
#1
1-"
1,"
1+"
1*"
1)"
1("
1'"
1&"
0,
#2
b0 3
0-"
0,"
0+"
0*"
0)"
0("
0'"
0&"
1,
#3
bx0 2
1-"
1,"
1+"
1*"
1)"
1("
1'"
1&"
0,
#4
0-"
0,"
0+"
0*"
0)"
0("
0'"
0&"
1,
#5
1-"
1,"
1+"
1*"
1)"
1("
1'"
1&"
0,
#6
0-"
0,"
0+"
0*"
0)"
0("
0'"
0&"
1,
#7
1-"
1,"
1+"
1*"
1)"
1("
1'"
1&"
0,
#8
0-"
0,"
0+"
0*"
0)"
0("
0'"
0&"
1,
0+
#9
1-"
1,"
1+"
1*"
1)"
1("
1'"
1&"
0,
#10
0-"
0,"
0+"
0*"
0)"
0("
0'"
0&"
1,
#11
1-"
1,"
1+"
1*"
1)"
1("
1'"
1&"
0,
#12
0-"
0,"
0+"
0*"
0)"
0("
0'"
0&"
1,
#13
1-"
1,"
1+"
1*"
1)"
1("
1'"
1&"
0,
#14
0-"
0,"
0+"
0*"
0)"
0("
0'"
0&"
1,
#15
1-"
1,"
1+"
1*"
1)"
1("
1'"
1&"
0,
#16
0*#
0(#
0p"
0n"
0m"
0l"
0G"
0F"
0r"
0&#
01"
0."
b0 2"
0I"
b0 /"
0k"
1k
1m
1N
1R
1e
05
06
0-"
0,"
0+"
0*"
0)"
0("
0'"
0&"
1,
1+
#17
1-"
1,"
1+"
1*"
1)"
1("
1'"
1&"
0,
#18
0t"
bx0 0"
0i"
1n
1t
1q
1|
0u
1x
0p
0y
0}
0l
0?
0$"
0K
0""
0H
0C
0=
1>
0E
1%"
1D
1J
1#"
1<
1B
1I
1h
1g
1i
0j"
0Y"
0U"
0O"
0J"
06"
0Z"
0T"
0P"
0K"
07"
0g"
0d"
0a"
0^"
0["
0V"
0Q"
0L"
05"
0'#
0)#
b0 8
0+#
0-"
0,"
0+"
0*"
0)"
0("
0'"
0&"
1,
#19
0h"
0;"
bx0 9
0u"
1-"
1,"
1+"
1*"
1)"
1("
1'"
1&"
0,
#20
0-"
0,"
0+"
0*"
0)"
0("
0'"
0&"
1,
#21
1-"
1,"
1+"
1*"
1)"
1("
1'"
1&"
0,
#22
0-"
0,"
0+"
0*"
0)"
0("
0'"
0&"
1,
#23
1-"
1,"
1+"
1*"
1)"
1("
1'"
1&"
0,
#24
0-"
0,"
0+"
0*"
0)"
0("
0'"
0&"
1,
0+
#25
1-"
1,"
1+"
1*"
1)"
1("
1'"
1&"
0,
#26
0-"
0,"
0+"
0*"
0)"
0("
0'"
0&"
1,
#27
1-"
1,"
1+"
1*"
1)"
1("
1'"
1&"
0,
#28
0-"
0,"
0+"
0*"
0)"
0("
0'"
0&"
1,
#29
1-"
1,"
1+"
1*"
1)"
1("
1'"
1&"
0,
#30
0-"
0,"
0+"
0*"
0)"
0("
0'"
0&"
1,
#31
1-"
1,"
1+"
1*"
1)"
1("
1'"
1&"
0,
#32
1L
0O
0M
0P
1Q
1f
1d
1c
0H"
0:"
08"
09"
0E"
0D"
01
00
0s"
0q"
b0 3"
0o"
07
04
b0 /
0.
0-
0-"
0,"
0+"
0*"
0)"
0("
0'"
0&"
1,
1+
1*
#33
1-"
1,"
1+"
1*"
1)"
1("
1'"
1&"
0,
#34
0-"
0,"
0+"
0*"
0)"
0("
0'"
0&"
1,
#35
1-"
1,"
1+"
1*"
1)"
1("
1'"
1&"
0,
#36
0-"
0,"
0+"
0*"
0)"
0("
0'"
0&"
1,
#37
1-"
1,"
1+"
1*"
1)"
1("
1'"
1&"
0,
#38
0-"
0,"
0+"
0*"
0)"
0("
0'"
0&"
1,
#39
1-"
1,"
1+"
1*"
1)"
1("
1'"
1&"
0,
#40
0-"
0,"
0+"
0*"
0)"
0("
0'"
0&"
1,
0+
1(
#41
1-"
1,"
1+"
1*"
1)"
1("
1'"
1&"
0,
#42
0-"
0,"
0+"
0*"
0)"
0("
0'"
0&"
1,
#43
1-"
1,"
1+"
1*"
1)"
1("
1'"
1&"
0,
#44
0-"
0,"
0+"
0*"
0)"
0("
0'"
0&"
1,
#45
1-"
1,"
1+"
1*"
1)"
1("
1'"
1&"
0,
#46
0-"
0,"
0+"
0*"
0)"
0("
0'"
0&"
1,
#47
1-"
1,"
1+"
1*"
1)"
1("
1'"
1&"
0,
#48
xn"
b0x 2"
xF"
1&#
x."
b1 /"
1k"
0m
xR
0e
15
16
0-"
0,"
0+"
0*"
0)"
0("
0'"
0&"
1,
1+
#49
1-"
1,"
1+"
1*"
1)"
1("
1'"
1&"
0,
#50
0v"
bx00 0"
0f"
1r
0q
1(#
0t
1p
1l"
1u
0&#
1$"
1?
b10 /"
0k"
0%"
0>
0h
1j"
1Y"
1U"
1O"
1J"
16"
b1 3
b1 8
1'#
0-"
0,"
0+"
0*"
0)"
0("
0'"
0&"
1,
#51
0a
1b
0e"
0<"
bx00 9
0w"
bx00 2
1-"
1,"
1+"
1*"
1)"
1("
1'"
1&"
0,
#52
0x"
bx000 0"
0c"
1v
0x
1t
1y
0u
1E
1&#
0?
0D
b11 /"
1k"
1>
0g
1h
1Z"
1T"
1P"
1K"
17"
0j"
0Y"
0U"
0O"
0J"
06"
1)#
b10 8
0'#
b10 3
0-"
0,"
0+"
0*"
0)"
0("
0'"
0&"
1,
#53
0n"
b0 2"
0F"
1R
0."
0S
1Y
1T
0Z
0U
1[
1X
0_
1`
0b"
0>"
bx000 9
0y"
bx000 2
1-"
1,"
1+"
1*"
1)"
1("
1'"
1&"
0,
#54
0z"
bx0000 0"
0`"
1*#
1m"
1z
0(#
0l"
0k
0|
0y
1x
1}
1m
1l
0&#
1K
1D
b100 /"
0k"
0E
0J
0h
1j"
1Y"
1U"
1O"
1J"
16"
b11 3
b11 8
1'#
0-"
0,"
0+"
0*"
0)"
0("
0'"
0&"
1,
#55
0_"
0="
bx0000 9
0{"
bx0000 2
1-"
1,"
1+"
1*"
1)"
1("
1'"
1&"
0,
#56
0|"
x"#
0]"
xS"
x$#
1*#
bx00000 0"
xN"
1~
x@
1m"
1""
xF
0#"
1B
0m
1|
0H
1&#
0$"
0K
0}
1I
b101 /"
1k"
1%"
0E
1J
0i
1g
1h
1g"
1d"
1a"
1^"
1["
1V"
1Q"
1L"
15"
0Z"
0T"
0P"
0K"
07"
0j"
0Y"
0U"
0O"
0J"
06"
1+#
0)#
b100 8
0'#
b100 3
0-"
0,"
0+"
0*"
0)"
0("
0'"
0&"
1,
0+
#57
1V
0W
0\
1]
0\"
0A"
bx00000 9
0}"
bx00000 2
1-"
1,"
1+"
1*"
1)"
1("
1'"
1&"
0,
#58
0~"
bx000000 0"
0X"
1:
0""
1(#
0<
1#"
1l"
1=
0&#
1$"
1?
b110 /"
0k"
0%"
0>
0h
1j"
1Y"
1U"
1O"
1J"
16"
b101 3
b101 8
1'#
0-"
0,"
0+"
0*"
0)"
0("
0'"
0&"
1,
#59
0W"
0@"
bx000000 9
0!#
bx000000 2
1-"
1,"
1+"
1*"
1)"
1("
1'"
1&"
0,
#60
0"#
bx0000000 0"
0S"
1@
0B
1<
1C
0=
1E
1&#
0?
0D
b111 /"
1k"
1>
0g
1h
1Z"
1T"
1P"
1K"
17"
0j"
0Y"
0U"
0O"
0J"
06"
1)#
b110 8
0'#
b110 3
0-"
0,"
0+"
0*"
0)"
0("
0'"
0&"
1,
#61
1^
0R"
0B"
0?"
bx0000000 9
0##
bx0000000 2
1-"
1,"
1+"
1*"
1)"
1("
1'"
1&"
0,
#62
0$#
0*#
b0 0"
0N"
0m"
0(#
1F
0l"
1H
0I
0C
1B
1m
0&#
1K
1D
b0 /"
0k"
0E
0J
0h
1j"
1Y"
1U"
1O"
1J"
16"
b111 3
b111 8
1'#
0-"
0,"
0+"
0*"
0)"
0("
0'"
0&"
1,
#63
1j
0M"
0C"
04"
b0 9
0%#
b0 2
1-"
1,"
1+"
1*"
1)"
1("
1'"
1&"
0,
#64
0*#
0m"
1k
1q
0m
1|
0H
1x
0p
0l
1&#
0$"
0K
0}
1I
b1 /"
1k"
1%"
0E
1J
1i
1g
1h
0g"
0d"
0a"
0^"
0["
0V"
0Q"
0L"
05"
0Z"
0T"
0P"
0K"
07"
0j"
0Y"
0U"
0O"
0J"
06"
0+#
0)#
b0 8
0'#
b0 3
0-"
0,"
0+"
0*"
0)"
0("
0'"
0&"
1,
1+
0*
#65
1-"
1,"
1+"
1*"
1)"
1("
1'"
1&"
0,
#66
0q
1(#
0t
1p
1l"
1u
0&#
1$"
1?
b10 /"
0k"
0%"
0>
0h
1j"
1Y"
1U"
1O"
1J"
16"
b1 3
b1 8
1'#
0-"
0,"
0+"
0*"
0)"
0("
0'"
0&"
1,
#67
1-"
1,"
1+"
1*"
1)"
1("
1'"
1&"
0,
#68
0x
1t
1y
0u
1E
1&#
0?
0D
b11 /"
1k"
1>
0g
1h
1Z"
1T"
1P"
1K"
17"
0j"
0Y"
0U"
0O"
0J"
06"
1)#
b10 8
0'#
b10 3
0-"
0,"
0+"
0*"
0)"
0("
0'"
0&"
1,
#69
1-"
1,"
1+"
1*"
1)"
1("
1'"
1&"
0,
#70
1*#
1m"
0(#
0l"
0k
0|
0y
1x
1}
1m
1l
0&#
1K
1D
b100 /"
0k"
0E
0J
0h
1j"
1Y"
1U"
1O"
1J"
16"
b11 3
b11 8
1'#
0-"
0,"
0+"
0*"
0)"
0("
0'"
0&"
1,
#71
1-"
1,"
1+"
1*"
1)"
1("
1'"
1&"
0,
#72
1*#
1m"
1""
0#"
1B
0m
1|
0H
1&#
0$"
0K
0}
1I
b101 /"
1k"
1%"
0E
1J
0i
1g
1h
1g"
1d"
1a"
1^"
1["
1V"
1Q"
1L"
15"
0Z"
0T"
0P"
0K"
07"
0j"
0Y"
0U"
0O"
0J"
06"
1+#
0)#
b100 8
0'#
b100 3
0-"
0,"
0+"
0*"
0)"
0("
0'"
0&"
1,
0+
#73
1-"
1,"
1+"
1*"
1)"
1("
1'"
1&"
0,
#74
0""
1(#
0<
1#"
1l"
1=
0&#
1$"
1?
b110 /"
0k"
0%"
0>
0h
1j"
1Y"
1U"
1O"
1J"
16"
b101 3
b101 8
1'#
0-"
0,"
0+"
0*"
0)"
0("
0'"
0&"
1,
#75
1-"
1,"
1+"
1*"
1)"
1("
1'"
1&"
0,
#76
0B
1<
1C
0=
1E
1&#
0?
0D
b111 /"
1k"
1>
0g
1h
1Z"
1T"
1P"
1K"
17"
0j"
0Y"
0U"
0O"
0J"
06"
1)#
b110 8
0'#
b110 3
0-"
0,"
0+"
0*"
0)"
0("
0'"
0&"
1,
#77
1-"
1,"
1+"
1*"
1)"
1("
1'"
1&"
0,
#78
0*#
0m"
0(#
0l"
1H
0I
0C
1B
1m
0&#
1K
1D
b0 /"
0k"
0E
0J
0h
1j"
1Y"
1U"
1O"
1J"
16"
b111 3
b111 8
1'#
0-"
0,"
0+"
0*"
0)"
0("
0'"
0&"
1,
#79
1-"
1,"
1+"
1*"
1)"
1("
1'"
1&"
0,
#80
0*#
0m"
1k
1q
0m
1|
0H
1x
0p
0l
1&#
0$"
0K
0}
1I
b1 /"
1k"
1%"
0E
1J
1i
1g
1h
0g"
0d"
0a"
0^"
0["
0V"
0Q"
0L"
05"
0Z"
0T"
0P"
0K"
07"
0j"
0Y"
0U"
0O"
0J"
06"
0+#
0)#
b0 8
0'#
b0 3
0-"
0,"
0+"
0*"
0)"
0("
0'"
0&"
1,
1+
