DEMUXL2/demuxl2.vcd
$date
	Tue May 25 14:34:10 2021
$end
$version
	Icarus Verilog
$end
$timescale
	1s
$end
$scope module BUF $end
$var wire 1 ! A $end
$var wire 1 " Y $end
$upscope $end
$scope module DFFSR $end
$var wire 1 # C $end
$var wire 1 $ D $end
$var wire 1 % R $end
$var wire 1 & S $end
$var reg 1 ' Q $end
$upscope $end
$scope module NOR $end
$var wire 1 ( A $end
$var wire 1 ) B $end
$var wire 1 * Y $end
$upscope $end
$scope module testbench $end
$var wire 1 + valid_11_synt $end
$var wire 1 , valid_11_cond $end
$var wire 1 - valid_00_synt $end
$var wire 1 . valid_00_cond $end
$var wire 1 / valid_000 $end
$var wire 8 0 data_11_synt [7:0] $end
$var wire 8 1 data_11_cond [7:0] $end
$var wire 8 2 data_00_synt [7:0] $end
$var wire 8 3 data_00_cond [7:0] $end
$var wire 8 4 data_000 [7:0] $end
$var wire 1 5 clk_4f $end
$var wire 1 6 clk_2f $end
$scope module COND $end
$var wire 1 / valid_000 $end
$var wire 8 7 data_000 [7:0] $end
$var wire 1 5 clk_4f $end
$var wire 1 6 clk_2f $end
$var reg 1 8 clk_2f_s $end
$var reg 8 9 data_00_cond [7:0] $end
$var reg 8 : data_11_cond [7:0] $end
$var reg 9 ; paq_00 [8:0] $end
$var reg 9 < paq_11 [8:0] $end
$var reg 1 . valid_00_cond $end
$var reg 1 , valid_11_cond $end
$upscope $end
$scope module PROB $end
$var wire 8 = data_00_cond [7:0] $end
$var wire 8 > data_11_cond [7:0] $end
$var wire 1 . valid_00_cond $end
$var wire 1 , valid_11_cond $end
$var wire 1 + valid_11_synt $end
$var wire 1 - valid_00_synt $end
$var wire 8 ? data_11_synt [7:0] $end
$var wire 8 @ data_00_synt [7:0] $end
$var reg 1 6 clk_2f $end
$var reg 1 5 clk_4f $end
$var reg 8 A data_000 [7:0] $end
$var reg 8 B data_000_n [7:0] $end
$var reg 1 / valid_000 $end
$var reg 1 C valid_000_n $end
$scope begin CLK_BEHAVIOR $end
$upscope $end
$scope begin CLK_BEHAVIOR1 $end
$upscope $end
$scope begin CLK_INIT $end
$upscope $end
$scope begin CLK_INIT1 $end
$upscope $end
$scope begin FILE_OUTPUT $end
$upscope $end
$scope begin OUTPUTS_BEHAVIOR $end
$upscope $end
$upscope $end
$scope module SYNT $end
$var wire 1 6 clk_2f $end
$var wire 1 5 clk_4f $end
$var wire 8 D data_000 [7:0] $end
$var wire 1 / valid_000 $end
$var wire 1 + valid_11_synt $end
$var wire 1 - valid_00_synt $end
$var wire 9 E paq_11 [8:0] $end
$var wire 9 F paq_00 [8:0] $end
$var wire 8 G data_11_synt [7:0] $end
$var wire 8 H data_00_synt [7:0] $end
$var wire 1 I clk_2f_s $end
$var wire 1 J _087_ $end
$var wire 1 K _086_ $end
$var wire 1 L _085_ $end
$var wire 1 M _084_ $end
$var wire 1 N _083_ $end
$var wire 1 O _082_ $end
$var wire 1 P _081_ $end
$var wire 1 Q _080_ $end
$var wire 1 R _079_ $end
$var wire 1 S _078_ $end
$var wire 1 T _077_ $end
$var wire 1 U _076_ $end
$var wire 1 V _075_ $end
$var wire 1 W _074_ $end
$var wire 1 X _073_ $end
$var wire 1 Y _072_ $end
$var wire 1 Z _071_ $end
$var wire 1 [ _070_ $end
$var wire 1 \ _069_ $end
$var wire 1 ] _068_ $end
$var wire 1 ^ _067_ $end
$var wire 1 _ _066_ $end
$var wire 1 ` _065_ $end
$var wire 1 a _064_ $end
$var wire 1 b _063_ $end
$var wire 1 c _062_ $end
$var wire 1 d _061_ $end
$var wire 1 e _060_ $end
$var wire 1 f _059_ $end
$var wire 1 g _058_ $end
$var wire 1 h _057_ $end
$var wire 1 i _056_ $end
$var wire 1 j _055_ $end
$var wire 1 k _054_ $end
$var wire 1 l _053_ $end
$var wire 1 m _052_ $end
$var wire 1 n _051_ $end
$var wire 1 o _050_ $end
$var wire 1 p _049_ $end
$var wire 1 q _048_ $end
$var wire 1 r _047_ $end
$var wire 1 s _046_ $end
$var wire 1 t _045_ $end
$var wire 1 u _044_ $end
$var wire 1 v _043_ $end
$var wire 1 w _042_ $end
$var wire 1 x _041_ $end
$var wire 1 y _040_ $end
$var wire 1 z _039_ $end
$var wire 1 { _038_ $end
$var wire 1 | _037_ $end
$var wire 1 } _036_ $end
$var wire 1 ~ _035_ $end
$var wire 1 !" _034_ $end
$var wire 1 "" _033_ $end
$var wire 1 #" _032_ $end
$var wire 1 $" _031_ $end
$var wire 1 %" _030_ $end
$var wire 1 &" _029_ $end
$var wire 1 '" _028_ $end
$var wire 1 (" _027_ $end
$var wire 1 )" _026_ $end
$var wire 1 *" _025_ $end
$var wire 1 +" _024_ $end
$var wire 1 ," _023_ $end
$var wire 1 -" _022_ $end
$var wire 1 ." _021_ $end
$var wire 1 /" _020_ $end
$var wire 1 0" _019_ $end
$var wire 1 1" _018_ $end
$var wire 1 2" _017_ $end
$var wire 1 3" _016_ $end
$var wire 1 4" _015_ $end
$var wire 1 5" _014_ $end
$var wire 1 6" _013_ $end
$var wire 1 7" _012_ $end
$var wire 1 8" _011_ $end
$var wire 1 9" _010_ $end
$var wire 1 :" _009_ $end
$var wire 1 ;" _008_ $end
$var wire 1 <" _007_ $end
$var wire 1 =" _006_ $end
$var wire 1 >" _005_ $end
$var wire 1 ?" _004_ $end
$var wire 9 @" _003_ [8:0] $end
$var wire 9 A" _002_ [8:0] $end
$var wire 8 B" _001_ [7:0] $end
$var wire 8 C" _000_ [7:0] $end
$scope module _088_ $end
$var wire 1 +" Y $end
$var wire 1 I A $end
$upscope $end
$scope module _089_ $end
$var wire 1 5 A $end
$var wire 1 =" Y $end
$upscope $end
$scope module _090_ $end
$var wire 1 D" A $end
$var wire 1 +" B $end
$var wire 1 *" Y $end
$upscope $end
$scope module _091_ $end
$var wire 1 E" A $end
$var wire 1 )" Y $end
$var wire 1 I B $end
$upscope $end
$scope module _092_ $end
$var wire 1 *" A $end
$var wire 1 )" B $end
$var wire 1 F" Y $end
$upscope $end
$scope module _093_ $end
$var wire 1 +" A $end
$var wire 1 G" B $end
$var wire 1 (" Y $end
$upscope $end
$scope module _094_ $end
$var wire 1 H" B $end
$var wire 1 '" Y $end
$var wire 1 I A $end
$upscope $end
$scope module _095_ $end
$var wire 1 (" A $end
$var wire 1 '" B $end
$var wire 1 I" Y $end
$upscope $end
$scope module _096_ $end
$var wire 1 +" A $end
$var wire 1 J" B $end
$var wire 1 &" Y $end
$upscope $end
$scope module _097_ $end
$var wire 1 K" B $end
$var wire 1 %" Y $end
$var wire 1 I A $end
$upscope $end
$scope module _098_ $end
$var wire 1 &" A $end
$var wire 1 %" B $end
$var wire 1 L" Y $end
$upscope $end
$scope module _099_ $end
$var wire 1 +" A $end
$var wire 1 M" B $end
$var wire 1 $" Y $end
$upscope $end
$scope module _100_ $end
$var wire 1 N" B $end
$var wire 1 #" Y $end
$var wire 1 I A $end
$upscope $end
$scope module _101_ $end
$var wire 1 $" A $end
$var wire 1 #" B $end
$var wire 1 O" Y $end
$upscope $end
$scope module _102_ $end
$var wire 1 +" A $end
$var wire 1 P" B $end
$var wire 1 "" Y $end
$upscope $end
$scope module _103_ $end
$var wire 1 Q" B $end
$var wire 1 !" Y $end
$var wire 1 I A $end
$upscope $end
$scope module _104_ $end
$var wire 1 "" A $end
$var wire 1 !" B $end
$var wire 1 R" Y $end
$upscope $end
$scope module _105_ $end
$var wire 1 +" A $end
$var wire 1 S" B $end
$var wire 1 ~ Y $end
$upscope $end
$scope module _106_ $end
$var wire 1 T" B $end
$var wire 1 } Y $end
$var wire 1 I A $end
$upscope $end
$scope module _107_ $end
$var wire 1 ~ A $end
$var wire 1 } B $end
$var wire 1 U" Y $end
$upscope $end
$scope module _108_ $end
$var wire 1 V" B $end
$var wire 1 | Y $end
$var wire 1 I A $end
$upscope $end
$scope module _109_ $end
$var wire 1 +" A $end
$var wire 1 W" B $end
$var wire 1 { Y $end
$upscope $end
$scope module _110_ $end
$var wire 1 | A $end
$var wire 1 { B $end
$var wire 1 X" Y $end
$upscope $end
$scope module _111_ $end
$var wire 1 Y" B $end
$var wire 1 z Y $end
$var wire 1 I A $end
$upscope $end
$scope module _112_ $end
$var wire 1 +" A $end
$var wire 1 Z" B $end
$var wire 1 y Y $end
$upscope $end
$scope module _113_ $end
$var wire 1 z A $end
$var wire 1 y B $end
$var wire 1 [" Y $end
$upscope $end
$scope module _114_ $end
$var wire 1 \" B $end
$var wire 1 x Y $end
$var wire 1 I A $end
$upscope $end
$scope module _115_ $end
$var wire 1 +" A $end
$var wire 1 ]" B $end
$var wire 1 w Y $end
$upscope $end
$scope module _116_ $end
$var wire 1 x A $end
$var wire 1 w B $end
$var wire 1 ^" Y $end
$upscope $end
$scope module _117_ $end
$var wire 1 _" B $end
$var wire 1 v Y $end
$var wire 1 I A $end
$upscope $end
$scope module _118_ $end
$var wire 1 +" A $end
$var wire 1 `" B $end
$var wire 1 u Y $end
$upscope $end
$scope module _119_ $end
$var wire 1 v A $end
$var wire 1 u B $end
$var wire 1 a" Y $end
$upscope $end
$scope module _120_ $end
$var wire 1 b" B $end
$var wire 1 t Y $end
$var wire 1 I A $end
$upscope $end
$scope module _121_ $end
$var wire 1 +" A $end
$var wire 1 c" B $end
$var wire 1 s Y $end
$upscope $end
$scope module _122_ $end
$var wire 1 t A $end
$var wire 1 s B $end
$var wire 1 d" Y $end
$upscope $end
$scope module _123_ $end
$var wire 1 e" B $end
$var wire 1 r Y $end
$var wire 1 I A $end
$upscope $end
$scope module _124_ $end
$var wire 1 +" A $end
$var wire 1 f" B $end
$var wire 1 q Y $end
$upscope $end
$scope module _125_ $end
$var wire 1 r A $end
$var wire 1 q B $end
$var wire 1 g" Y $end
$upscope $end
$scope module _126_ $end
$var wire 1 h" B $end
$var wire 1 p Y $end
$var wire 1 I A $end
$upscope $end
$scope module _127_ $end
$var wire 1 +" A $end
$var wire 1 i" B $end
$var wire 1 o Y $end
$upscope $end
$scope module _128_ $end
$var wire 1 p A $end
$var wire 1 o B $end
$var wire 1 j" Y $end
$upscope $end
$scope module _129_ $end
$var wire 1 k" B $end
$var wire 1 n Y $end
$var wire 1 I A $end
$upscope $end
$scope module _130_ $end
$var wire 1 +" A $end
$var wire 1 l" B $end
$var wire 1 m Y $end
$upscope $end
$scope module _131_ $end
$var wire 1 n A $end
$var wire 1 m B $end
$var wire 1 m" Y $end
$upscope $end
$scope module _132_ $end
$var wire 1 +" A $end
$var wire 1 n" B $end
$var wire 1 l Y $end
$upscope $end
$scope module _133_ $end
$var wire 1 o" B $end
$var wire 1 k Y $end
$var wire 1 I A $end
$upscope $end
$scope module _134_ $end
$var wire 1 l A $end
$var wire 1 k B $end
$var wire 1 p" Y $end
$upscope $end
$scope module _135_ $end
$var wire 1 +" A $end
$var wire 1 q" B $end
$var wire 1 j Y $end
$upscope $end
$scope module _136_ $end
$var wire 1 r" B $end
$var wire 1 i Y $end
$var wire 1 I A $end
$upscope $end
$scope module _137_ $end
$var wire 1 j A $end
$var wire 1 i B $end
$var wire 1 s" Y $end
$upscope $end
$scope module _138_ $end
$var wire 1 t" B $end
$var wire 1 h Y $end
$var wire 1 I A $end
$upscope $end
$scope module _139_ $end
$var wire 1 *" A $end
$var wire 1 h B $end
$var wire 1 u" Y $end
$upscope $end
$scope module _140_ $end
$var wire 1 v" B $end
$var wire 1 g Y $end
$var wire 1 I A $end
$upscope $end
$scope module _141_ $end
$var wire 1 (" A $end
$var wire 1 g B $end
$var wire 1 w" Y $end
$upscope $end
$scope module _142_ $end
$var wire 1 x" B $end
$var wire 1 f Y $end
$var wire 1 I A $end
$upscope $end
$scope module _143_ $end
$var wire 1 &" A $end
$var wire 1 f B $end
$var wire 1 y" Y $end
$upscope $end
$scope module _144_ $end
$var wire 1 z" B $end
$var wire 1 e Y $end
$var wire 1 I A $end
$upscope $end
$scope module _145_ $end
$var wire 1 $" A $end
$var wire 1 e B $end
$var wire 1 {" Y $end
$upscope $end
$scope module _146_ $end
$var wire 1 |" B $end
$var wire 1 d Y $end
$var wire 1 I A $end
$upscope $end
$scope module _147_ $end
$var wire 1 "" A $end
$var wire 1 d B $end
$var wire 1 }" Y $end
$upscope $end
$scope module _148_ $end
$var wire 1 ~" B $end
$var wire 1 c Y $end
$var wire 1 I A $end
$upscope $end
$scope module _149_ $end
$var wire 1 ~ A $end
$var wire 1 c B $end
$var wire 1 !# Y $end
$upscope $end
$scope module _150_ $end
$var wire 1 b Y $end
$var wire 1 + B $end
$var wire 1 I A $end
$upscope $end
$scope module _151_ $end
$var wire 1 +" A $end
$var wire 1 "# B $end
$var wire 1 a Y $end
$upscope $end
$scope module _152_ $end
$var wire 1 b A $end
$var wire 1 a B $end
$var wire 1 >" Y $end
$upscope $end
$scope module _153_ $end
$var wire 1 ## B $end
$var wire 1 ` Y $end
$var wire 1 I A $end
$upscope $end
$scope module _154_ $end
$var wire 1 +" A $end
$var wire 1 / B $end
$var wire 1 _ Y $end
$upscope $end
$scope module _155_ $end
$var wire 1 ` A $end
$var wire 1 _ B $end
$var wire 1 $# Y $end
$upscope $end
$scope module _156_ $end
$var wire 1 %# B $end
$var wire 1 ^ Y $end
$var wire 1 I A $end
$upscope $end
$scope module _157_ $end
$var wire 1 +" A $end
$var wire 1 &# B $end
$var wire 1 ] Y $end
$upscope $end
$scope module _158_ $end
$var wire 1 ^ A $end
$var wire 1 ] B $end
$var wire 1 '# Y $end
$upscope $end
$scope module _159_ $end
$var wire 1 (# B $end
$var wire 1 \ Y $end
$var wire 1 I A $end
$upscope $end
$scope module _160_ $end
$var wire 1 +" A $end
$var wire 1 )# B $end
$var wire 1 [ Y $end
$upscope $end
$scope module _161_ $end
$var wire 1 \ A $end
$var wire 1 [ B $end
$var wire 1 *# Y $end
$upscope $end
$scope module _162_ $end
$var wire 1 +# B $end
$var wire 1 Z Y $end
$var wire 1 I A $end
$upscope $end
$scope module _163_ $end
$var wire 1 ,# A $end
$var wire 1 +" B $end
$var wire 1 Y Y $end
$upscope $end
$scope module _164_ $end
$var wire 1 Z A $end
$var wire 1 Y B $end
$var wire 1 -# Y $end
$upscope $end
$scope module _165_ $end
$var wire 1 .# B $end
$var wire 1 X Y $end
$var wire 1 I A $end
$upscope $end
$scope module _166_ $end
$var wire 1 +" A $end
$var wire 1 /# B $end
$var wire 1 W Y $end
$upscope $end
$scope module _167_ $end
$var wire 1 X A $end
$var wire 1 W B $end
$var wire 1 0# Y $end
$upscope $end
$scope module _168_ $end
$var wire 1 1# B $end
$var wire 1 V Y $end
$var wire 1 I A $end
$upscope $end
$scope module _169_ $end
$var wire 1 +" A $end
$var wire 1 2# B $end
$var wire 1 U Y $end
$upscope $end
$scope module _170_ $end
$var wire 1 V A $end
$var wire 1 U B $end
$var wire 1 3# Y $end
$upscope $end
$scope module _171_ $end
$var wire 1 4# B $end
$var wire 1 T Y $end
$var wire 1 I A $end
$upscope $end
$scope module _172_ $end
$var wire 1 +" A $end
$var wire 1 5# B $end
$var wire 1 S Y $end
$upscope $end
$scope module _173_ $end
$var wire 1 T A $end
$var wire 1 S B $end
$var wire 1 6# Y $end
$upscope $end
$scope module _174_ $end
$var wire 1 7# B $end
$var wire 1 R Y $end
$var wire 1 I A $end
$upscope $end
$scope module _175_ $end
$var wire 1 +" A $end
$var wire 1 8# B $end
$var wire 1 Q Y $end
$upscope $end
$scope module _176_ $end
$var wire 1 R A $end
$var wire 1 Q B $end
$var wire 1 9# Y $end
$upscope $end
$scope module _177_ $end
$var wire 1 :# B $end
$var wire 1 P Y $end
$var wire 1 I A $end
$upscope $end
$scope module _178_ $end
$var wire 1 +" A $end
$var wire 1 ;# B $end
$var wire 1 O Y $end
$upscope $end
$scope module _179_ $end
$var wire 1 P A $end
$var wire 1 O B $end
$var wire 1 <# Y $end
$upscope $end
$scope module _180_ $end
$var wire 1 +" A $end
$var wire 1 =# B $end
$var wire 1 N Y $end
$upscope $end
$scope module _181_ $end
$var wire 1 M Y $end
$var wire 1 - B $end
$var wire 1 I A $end
$upscope $end
$scope module _182_ $end
$var wire 1 N A $end
$var wire 1 M B $end
$var wire 1 ?" Y $end
$upscope $end
$scope module _183_ $end
$var wire 1 / B $end
$var wire 1 L Y $end
$var wire 1 I A $end
$upscope $end
$scope module _184_ $end
$var wire 1 N A $end
$var wire 1 L B $end
$var wire 1 ># Y $end
$upscope $end
$scope module _185_ $end
$var wire 1 ?# B $end
$var wire 1 K Y $end
$var wire 1 I A $end
$upscope $end
$scope module _186_ $end
$var wire 1 l A $end
$var wire 1 K B $end
$var wire 1 @# Y $end
$upscope $end
$scope module _187_ $end
$var wire 1 A# B $end
$var wire 1 J Y $end
$var wire 1 I A $end
$upscope $end
$scope module _188_ $end
$var wire 1 j A $end
$var wire 1 J B $end
$var wire 1 B# Y $end
$upscope $end
$scope module _189_ $end
$var wire 1 5 A $end
$var wire 1 <" Y $end
$upscope $end
$scope module _190_ $end
$var wire 1 5 A $end
$var wire 1 ;" Y $end
$upscope $end
$scope module _191_ $end
$var wire 1 5 A $end
$var wire 1 :" Y $end
$upscope $end
$scope module _192_ $end
$var wire 1 5 A $end
$var wire 1 9" Y $end
$upscope $end
$scope module _193_ $end
$var wire 1 5 A $end
$var wire 1 8" Y $end
$upscope $end
$scope module _194_ $end
$var wire 1 5 A $end
$var wire 1 7" Y $end
$upscope $end
$scope module _195_ $end
$var wire 1 5 A $end
$var wire 1 6" Y $end
$upscope $end
$scope module _196_ $end
$var wire 1 5 A $end
$var wire 1 5" Y $end
$upscope $end
$scope module _197_ $end
$var wire 1 5 A $end
$var wire 1 4" Y $end
$upscope $end
$scope module _198_ $end
$var wire 1 5 A $end
$var wire 1 3" Y $end
$upscope $end
$scope module _199_ $end
$var wire 1 5 A $end
$var wire 1 2" Y $end
$upscope $end
$scope module _200_ $end
$var wire 1 5 A $end
$var wire 1 1" Y $end
$upscope $end
$scope module _201_ $end
$var wire 1 5 A $end
$var wire 1 0" Y $end
$upscope $end
$scope module _202_ $end
$var wire 1 5 A $end
$var wire 1 /" Y $end
$upscope $end
$scope module _203_ $end
$var wire 1 5 A $end
$var wire 1 ." Y $end
$upscope $end
$scope module _204_ $end
$var wire 1 5 A $end
$var wire 1 -" Y $end
$upscope $end
$scope module _205_ $end
$var wire 1 5 A $end
$var wire 1 ," Y $end
$upscope $end
$scope module _206_ $end
$var wire 1 5 C $end
$var wire 1 C# D $end
$var reg 1 D# Q $end
$upscope $end
$scope module _207_ $end
$var wire 1 5 C $end
$var wire 1 E# D $end
$var reg 1 F# Q $end
$upscope $end
$scope module _208_ $end
$var wire 1 5 C $end
$var wire 1 G# D $end
$var reg 1 H# Q $end
$upscope $end
$scope module _209_ $end
$var wire 1 5 C $end
$var wire 1 I# D $end
$var reg 1 J# Q $end
$upscope $end
$scope module _210_ $end
$var wire 1 5 C $end
$var wire 1 K# D $end
$var reg 1 L# Q $end
$upscope $end
$scope module _211_ $end
$var wire 1 5 C $end
$var wire 1 M# D $end
$var reg 1 N# Q $end
$upscope $end
$scope module _212_ $end
$var wire 1 5 C $end
$var wire 1 O# D $end
$var reg 1 P# Q $end
$upscope $end
$scope module _213_ $end
$var wire 1 5 C $end
$var wire 1 Q# D $end
$var reg 1 R# Q $end
$upscope $end
$scope module _214_ $end
$var wire 1 5 C $end
$var wire 1 S# D $end
$var reg 1 T# Q $end
$upscope $end
$scope module _215_ $end
$var wire 1 5 C $end
$var wire 1 U# D $end
$var reg 1 V# Q $end
$upscope $end
$scope module _216_ $end
$var wire 1 5 C $end
$var wire 1 W# D $end
$var reg 1 X# Q $end
$upscope $end
$scope module _217_ $end
$var wire 1 5 C $end
$var wire 1 Y# D $end
$var reg 1 Z# Q $end
$upscope $end
$scope module _218_ $end
$var wire 1 5 C $end
$var wire 1 [# D $end
$var reg 1 \# Q $end
$upscope $end
$scope module _219_ $end
$var wire 1 5 C $end
$var wire 1 ]# D $end
$var reg 1 ^# Q $end
$upscope $end
$scope module _220_ $end
$var wire 1 5 C $end
$var wire 1 _# D $end
$var reg 1 `# Q $end
$upscope $end
$scope module _221_ $end
$var wire 1 5 C $end
$var wire 1 a# D $end
$var reg 1 b# Q $end
$upscope $end
$scope module _222_ $end
$var wire 1 5 C $end
$var wire 1 ?" D $end
$var reg 1 - Q $end
$upscope $end
$scope module _223_ $end
$var wire 1 5 C $end
$var wire 1 >" D $end
$var reg 1 + Q $end
$upscope $end
$scope module _224_ $end
$var wire 1 =" C $end
$var wire 1 c# D $end
$var reg 1 d# Q $end
$upscope $end
$scope module _225_ $end
$var wire 1 <" C $end
$var wire 1 e# D $end
$var reg 1 f# Q $end
$upscope $end
$scope module _226_ $end
$var wire 1 ;" C $end
$var wire 1 g# D $end
$var reg 1 h# Q $end
$upscope $end
$scope module _227_ $end
$var wire 1 :" C $end
$var wire 1 i# D $end
$var reg 1 j# Q $end
$upscope $end
$scope module _228_ $end
$var wire 1 9" C $end
$var wire 1 k# D $end
$var reg 1 l# Q $end
$upscope $end
$scope module _229_ $end
$var wire 1 8" C $end
$var wire 1 m# D $end
$var reg 1 n# Q $end
$upscope $end
$scope module _230_ $end
$var wire 1 7" C $end
$var wire 1 o# D $end
$var reg 1 p# Q $end
$upscope $end
$scope module _231_ $end
$var wire 1 6" C $end
$var wire 1 q# D $end
$var reg 1 r# Q $end
$upscope $end
$scope module _232_ $end
$var wire 1 5" C $end
$var wire 1 s# D $end
$var reg 1 t# Q $end
$upscope $end
$scope module _233_ $end
$var wire 1 4" C $end
$var wire 1 u# D $end
$var reg 1 v# Q $end
$upscope $end
$scope module _234_ $end
$var wire 1 3" C $end
$var wire 1 w# D $end
$var reg 1 x# Q $end
$upscope $end
$scope module _235_ $end
$var wire 1 2" C $end
$var wire 1 y# D $end
$var reg 1 z# Q $end
$upscope $end
$scope module _236_ $end
$var wire 1 1" C $end
$var wire 1 {# D $end
$var reg 1 |# Q $end
$upscope $end
$scope module _237_ $end
$var wire 1 0" C $end
$var wire 1 }# D $end
$var reg 1 ~# Q $end
$upscope $end
$scope module _238_ $end
$var wire 1 /" C $end
$var wire 1 !$ D $end
$var reg 1 "$ Q $end
$upscope $end
$scope module _239_ $end
$var wire 1 ." C $end
$var wire 1 #$ D $end
$var reg 1 $$ Q $end
$upscope $end
$scope module _240_ $end
$var wire 1 -" C $end
$var wire 1 %$ D $end
$var reg 1 &$ Q $end
$upscope $end
$scope module _241_ $end
$var wire 1 ," C $end
$var wire 1 '$ D $end
$var reg 1 ($ Q $end
$upscope $end
$scope module _242_ $end
$var wire 1 5 C $end
$var wire 1 6 D $end
$var reg 1 I Q $end
$upscope $end
$upscope $end
$upscope $end
$enddefinitions $end
#0
$dumpvars
x($
x'$
x&$
x%$
x$$
x#$
x"$
x!$
x~#
x}#
x|#
x{#
xz#
xy#
xx#
xw#
xv#
xu#
xt#
xs#
xr#
xq#
xp#
xo#
xn#
xm#
xl#
xk#
xj#
xi#
xh#
xg#
xf#
xe#
xd#
xc#
xb#
xa#
x`#
x_#
x^#
x]#
x\#
x[#
xZ#
xY#
xX#
xW#
xV#
xU#
xT#
xS#
xR#
xQ#
xP#
xO#
xN#
xM#
xL#
xK#
xJ#
xI#
xH#
xG#
xF#
xE#
xD#
xC#
xB#
xA#
x@#
x?#
x>#
x=#
x<#
x;#
x:#
x9#
x8#
x7#
x6#
x5#
x4#
x3#
x2#
x1#
x0#
x/#
x.#
x-#
x,#
x+#
x*#
x)#
x(#
x'#
x&#
x%#
x$#
x##
x"#
x!#
x~"
x}"
x|"
x{"
xz"
xy"
xx"
xw"
xv"
xu"
xt"
xs"
xr"
xq"
xp"
xo"
xn"
xm"
xl"
xk"
xj"
xi"
xh"
xg"
xf"
xe"
xd"
xc"
xb"
xa"
x`"
x_"
x^"
x]"
x\"
x["
xZ"
xY"
xX"
xW"
xV"
xU"
xT"
xS"
xR"
xQ"
xP"
xO"
xN"
xM"
xL"
xK"
xJ"
xI"
xH"
xG"
xF"
xE"
xD"
bx C"
bx B"
bx A"
bx @"
x?"
x>"
0="
0<"
0;"
0:"
09"
08"
07"
06"
05"
04"
03"
02"
01"
00"
0/"
0."
0-"
0,"
1+"
x*"
1)"
x("
1'"
x&"
1%"
x$"
1#"
x""
1!"
x~
1}
1|
x{
1z
xy
1x
xw
1v
xu
1t
xs
1r
xq
1p
xo
1n
xm
xl
1k
xj
1i
1h
1g
1f
1e
1d
1c
1b
xa
1`
x_
1^
x]
1\
x[
1Z
xY
1X
xW
1V
xU
1T
xS
1R
xQ
1P
xO
xN
1M
1L
1K
1J
0I
bx H
bx G
bx F
bx E
bx D
xC
bx B
bx A
bx @
bx ?
bx >
bx =
bx <
bx ;
bx :
bx 9
08
bx 7
06
15
bx 4
bx 3
bx 2
bx 1
bx 0
x/
x.
x-
x,
x+
x*
z)
z(
x'
z&
z%
z$
z#
z"
z!
$end
#1
1="
1<"
1;"
1:"
19"
18"
17"
16"
15"
14"
13"
12"
11"
10"
1/"
1."
1-"
1,"
05
#2
1{#
0}#
0!$
1#$
0%$
0'$
0w#
0y#
0u#
1F"
0I"
0L"
1O"
0R"
0U"
0@#
0B#
b1001000 @"
0>#
1*"
1("
1&"
1$"
1""
1~
1{
1y
1w
1u
1s
1q
1o
1m
1l
1j
1a
1]
1[
1Y
1W
1U
1S
1Q
1O
1N
1_
1J
1K
xM
xP
xR
xT
xV
xX
xZ
x\
x^
x`
xb
xc
xd
xe
xf
xg
xh
xi
xk
xn
xp
xr
xt
xv
xx
xz
x|
1}
1!"
0#"
1%"
1'"
0)"
1E"
0H"
0K"
1N"
0Q"
0T"
0&#
0)#
1,#
0/#
02#
15#
08#
0;#
0?#
0A#
0+"
0/
b100100 4
b100100 7
b100100 A
b100100 D
1I
18
0="
0<"
0;"
0:"
09"
08"
07"
06"
05"
04"
03"
02"
01"
00"
0/"
0."
0-"
0,"
15
0C
b100100 B
16
#3
0=#
0n"
0q"
1D"
0G"
0J"
1M"
0P"
0S"
0v#
0x#
0z#
1|#
0~#
0"$
1$$
0&$
b1001000 E
0($
b1001000 <
1="
1<"
1;"
1:"
19"
18"
17"
16"
15"
14"
13"
12"
11"
10"
1/"
1."
1-"
1,"
05
#4
1s#
0q#
0o#
0m#
0k#
0i#
0g#
1e#
0c#
0Q#
0O#
1M#
0K#
0I#
1G#
0E#
0C#
0?"
1<#
09#
06#
03#
00#
0-#
0*#
1'#
b100000010 A"
0$#
0!#
0}"
1{"
0y"
0w"
1u"
0s"
b100100 C"
0p"
0*"
0$"
x{
xy
xw
xu
xs
xq
xo
xm
xa
0]
0O
1M
1P
1R
1T
1V
1X
1Z
1\
1^
1`
1b
1c
1d
1e
1f
1g
1h
1i
1k
1n
1p
1r
1t
1v
1x
1z
1|
1#"
1)"
1+"
0E"
0N"
1T"
1&#
0,#
05#
1;#
1?#
08
0I
b10000001 4
b10000001 7
b10000001 A
b10000001 D
0="
0<"
0;"
0:"
09"
08"
07"
06"
05"
04"
03"
02"
01"
00"
0/"
0."
0-"
0,"
15
b10000001 B
06
#5
1S#
0U#
0W#
0Y#
0[#
0]#
0_#
1a#
0>"
1X"
0["
0^"
0a"
0d"
0g"
0j"
b10000001 B"
1m"
1a
0{
1y
1w
1u
1s
1q
1o
0m
0##
0"#
1%#
1W"
0(#
0Z"
0+#
0]"
0.#
0`"
01#
0c"
04#
0f"
07#
0i"
1:#
1l"
0d#
1f#
0h#
0j#
0l#
0n#
0p#
0r#
b100000010 F
1t#
b100000010 ;
1="
1<"
1;"
1:"
19"
18"
17"
16"
15"
14"
13"
12"
11"
10"
1/"
1."
1-"
1,"
05
#6
1}#
0{#
0#$
1I"
1w#
0'$
0F"
0O"
1@#
b10010 @"
0U"
0'"
1*"
1$"
1{
1m
1]
1O
0K
0P
0^
0e
0h
0n
0|
1}
1H"
0T"
1/#
0;#
0+"
1k"
0h"
0e"
0b"
0_"
0\"
0Y"
1V"
0~"
0|"
1z"
0x"
0v"
1t"
0r"
0o"
b1001 4
b1001 7
b1001 A
b1001 D
1I
0+
0-
1b#
0`#
0^#
0\#
0Z#
0X#
0V#
b10000001 0
b10000001 ?
b10000001 G
1T#
0R#
0P#
1N#
0L#
0J#
1H#
0F#
b100100 2
b100100 @
b100100 H
0D#
b10000001 1
b10000001 :
b10000001 >
0,
b100100 3
b100100 9
b100100 =
0.
18
0="
0<"
0;"
0:"
09"
08"
07"
06"
05"
04"
03"
02"
01"
00"
0/"
0."
0-"
0,"
15
b1001 B
16
#7
1n"
0D"
1G"
0M"
1x#
0|#
1~#
b10010 E
0$$
b10010 <
1="
1<"
1;"
1:"
19"
18"
17"
16"
15"
14"
13"
12"
11"
10"
1/"
1."
1-"
1,"
05
#8
1I#
1C#
1g#
1o#
1q#
0s#
0M#
0G#
1w"
1p"
1*#
16#
19#
b11000110 A"
0<#
0{"
b1001 C"
0u"
0("
0{
0m
0l
0]
0[
0S
0Q
1K
1P
1^
1e
1h
1n
1|
1'"
1+"
0H"
1N"
1Q"
1)#
0/#
15#
18#
1A#
08
0I
b1100011 4
b1100011 7
b1100011 A
b1100011 D
0="
0<"
0;"
0:"
09"
08"
07"
06"
05"
04"
03"
02"
01"
00"
0/"
0."
0-"
0,"
15
b1100011 B
06
#9
1U#
1]#
1_#
0a#
1["
1g"
1j"
b1100011 B"
0m"
0y
0q
0o
1m
1(#
1Z"
14#
1f"
17#
1i"
0:#
0l"
1h#
1p#
1r#
b11000110 F
0t#
b11000110 ;
1="
1<"
1;"
1:"
19"
18"
17"
16"
15"
14"
13"
12"
11"
10"
1/"
1."
1-"
1,"
05
